{
 "textnest": [
  {},
  [
   {},
   [
    {},
    [
     {},
     [
      {},
      [
       {},
       [
        {
         "text": "Details"
        }
       ]
      ]
     ]
    ]
   ]
  ],
  [
   {},
   [
    {},
    [
     {},
     [
      {},
      [
       {}
      ]
     ],
     [
      {},
      [
       {},
       [
        {},
        [
         {},
         [
          {
           "text": "2 people responded"
          }
         ]
        ]
       ]
      ]
     ]
    ]
   ],
   [
    {}
   ]
  ],
  [
   {},
   [
    {},
    [
     {},
     [
      {},
      [
       {}
      ]
     ],
     [
      {},
      [
       {},
       [
        {},
        [
         {},
         [
          {
           "text": "Event by"
          }
         ],
         [
          {},
          [
           {
            "text": "MAAT - Museu de Arte, Arquitetura e Tecnologia",
            "href": "https://www.facebook.com/maatmuseum/",
            "rect": {
             "x": 682.546875,
             "y": -55.515625,
             "width": 341.703125,
             "height": 17,
             "top": -55.515625,
             "right": 1024.25,
             "bottom": -38.515625,
             "left": 682.546875
            }
           },
           [
            {
             "text": "MAAT - Museu de Arte, Arquitetura e Tecnologia"
            }
           ]
          ]
         ]
        ]
       ]
      ]
     ]
    ]
   ]
  ],
  [
   {},
   [
    {},
    [
     {},
     [
      {},
      [
       {}
      ]
     ],
     [
      {},
      [
       {},
       [
        {},
        [
         {},
         [
          {
           "text": "MAAT - Museu de Arte, Arquitetura e Tecnologia",
           "href": "https://www.facebook.com/maatmuseum/",
           "rect": {
            "x": 620,
            "y": -17.515625,
            "width": 341.703125,
            "height": 17,
            "top": -17.515625,
            "right": 961.703125,
            "bottom": -0.515625,
            "left": 620
           }
          },
          [
           {
            "text": "MAAT - Museu de Arte, Arquitetura e Tecnologia"
           }
          ]
         ]
        ]
       ]
      ]
     ]
    ]
   ]
  ],
  [
   {},
   [
    {},
    [
     {},
     [
      {},
      [
       {}
      ]
     ],
     [
      {},
      [
       {},
       [
        {},
        [
         {},
         [
          {
           "text": "Tickets"
          }
         ]
        ]
       ],
       [
        {},
        [
         {},
         [
          {
           "text": "maat.pt/pt/bilhetes"
          }
         ]
        ]
       ]
      ]
     ]
    ]
   ]
  ],
  [
   {},
   [
    {},
    [
     {},
     [
      {},
      [
       {}
      ]
     ],
     [
      {},
      [
       {},
       [
        {},
        [
         {},
         [
          {
           "text": "Public"
          }
         ],
         [
          {},
          [
           {},
           [
            {}
           ]
          ],
          [
           {},
           [
            {
             "text": "·"
            }
           ]
          ]
         ],
         [
          {
           "text": "Anyone on or off Facebook"
          }
         ]
        ]
       ]
      ]
     ]
    ]
   ]
  ],
  [
   {},
   [
    {},
    [
     {},
     [
      {},
      [
       {
        "text": "Vamos navegar no museu uma semana?"
       }
      ]
     ],
     [
      {},
      [
       {
        "text": "Com António Banza"
       }
      ]
     ],
     [
      {},
      [
       {
        "text": "Vem testar a tua perícia por entre carros e barcos solares e circuitos elétricos e aprender mais sobre os fenómenos da eletricidade. Aceita este desafio!"
       }
      ],
      [
       {}
      ],
      [
       {
        "text": "___"
       }
      ]
     ],
     [
      {},
      [
       {
        "text": "Let's navigate the museum for a week?"
       }
      ]
     ],
     [
      {},
      [
       {
        "text": "With António Banza"
       }
      ]
     ],
     [
      {},
      [
       {
        "text": "Come and test your skills among solar cars and boats and electric circuits and learn more about electrical phenomena. Take up this challenge!"
       }
      ],
      [
       {}
      ],
      [
       {},
       [
        {
         "text": "See less"
        }
       ]
      ]
     ]
    ],
    [
     {},
     [
      {},
      [
       {
        "text": "Crafts",
        "href": "https://www.facebook.com/events/discovery/?suggestion_token=%7B%22event_categories%22%3A%5B258647957895086%5D%7D",
        "rect": {
         "x": 587,
         "y": 380.296875,
         "width": 53.578125,
         "height": 25,
         "top": 380.296875,
         "right": 640.578125,
         "bottom": 405.296875,
         "left": 587
        }
       },
       [
        {},
        [
         {},
         [
          {
           "text": "Crafts"
          }
         ]
        ]
       ]
      ]
     ]
    ]
   ]
  ]
 ],
 "date": "MONDAY, DECEMBER 26, 2022 AT 10:00 AM – 5:30 PM UTC",
 "place": {
  "desc": [
   "MAAT - Museu de Arte, Arquitetura e Tecnologia",
   "Av. Brasília, Lisbon"
  ],
  "href": "https://www.facebook.com/maatmuseum/"
 },
 "title": "Oficinas de Natal / Christmas Workshops: Vamos navegar / Let's navigate",
 "details": [
  {
   "hash": -1698236132,
   "order": 0,
   "text": "2 people responded",
   "size": 307,
   "rect": {
    "x": 585,
    "y": -91.015625,
    "width": 20,
    "height": 20,
    "top": -91.015625,
    "right": 605,
    "bottom": -71.015625,
    "left": 585
   }
  },
  {
   "hash": 316255807,
   "order": 1,
   "text": "Event by MAAT - Museu de Arte, Arquitetura e Tecnologia",
   "size": 305,
   "rect": {
    "x": 585,
    "y": -55.015625,
    "width": 20,
    "height": 20,
    "top": -55.015625,
    "right": 605,
    "bottom": -35.015625,
    "left": 585
   },
   "links": [
    {
     "text": "MAAT - Museu de Arte, Arquitetura e Tecnologia",
     "href": "https://www.facebook.com/maatmuseum/"
    }
   ]
  },
  {
   "hash": 1378338243,
   "order": 2,
   "text": "MAAT - Museu de Arte, Arquitetura e Tecnologia",
   "size": 307,
   "rect": {
    "x": 585,
    "y": -19.015625,
    "width": 20,
    "height": 20,
    "top": -19.015625,
    "right": 605,
    "bottom": 0.984375,
    "left": 585
   },
   "links": [
    {
     "text": "MAAT - Museu de Arte, Arquitetura e Tecnologia",
     "href": "https://www.facebook.com/maatmuseum/"
    }
   ]
  },
  {
   "hash": 1456846114,
   "order": 3,
   "text": "Ticketsmaat.pt/pt/bilhetes",
   "size": 305,
   "rect": {
    "x": 585,
    "y": 17.984375,
    "width": 20,
    "height": 20,
    "top": 17.984375,
    "right": 605,
    "bottom": 37.984375,
    "left": 585
   }
  },
  {
   "hash": -98013629,
   "order": 4,
   "text": "Public  · Anyone on or off Facebook",
   "size": 307,
   "rect": {
    "x": 585,
    "y": 65.96875,
    "width": 20,
    "height": 20,
    "top": 65.96875,
    "right": 605,
    "bottom": 85.96875,
    "left": 585
   }
  },
  {
   "hash": 1753446027,
   "order": 5,
   "text": "Find Tickets",
   "size": 306,
   "rect": {
    "x": 764.375,
    "y": 502.296875,
    "width": 16,
    "height": 16,
    "top": 502.296875,
    "right": 780.375,
    "bottom": 518.296875,
    "left": 764.375
   }
  },
  {
   "hash": 144681826,
   "order": 6,
   "text": "",
   "size": 305,
   "rect": {
    "x": 1039,
    "y": 905.296875,
    "width": 16,
    "height": 16,
    "top": 905.296875,
    "right": 1055,
    "bottom": 921.296875,
    "left": 1039
   }
  },
  {
   "hash": 511554563,
   "order": 7,
   "text": "",
   "size": 331,
   "rect": {
    "x": 956.34375,
    "y": 1288.75,
    "width": 12,
    "height": 12,
    "top": 1288.75,
    "right": 968.34375,
    "bottom": 1300.75,
    "left": 956.34375
   }
  },
  {
   "hash": -1288146024,
   "order": 8,
   "text": "Ad Choices ",
   "size": 307,
   "rect": {
    "x": 814.453125,
    "y": 1353.984375,
    "width": 12,
    "height": 12,
    "top": 1353.984375,
    "right": 826.453125,
    "bottom": 1365.984375,
    "left": 814.453125
   }
  }
 ],
 "element": "<div aria-label=\"Event Permalink\" role=\"main\" class=\"x9f619 x1n2onr6 x1ja2u2z xdt5ytf x193iq5w xeuugli x1r8uery x1iyjqo2 xs83m0k x78zum5 x1t2pt76\"><div class=\"x78zum5 xdt5ytf x1iyjqo2 x1t2pt76 xeuugli x1n2onr6 x1ja2u2z\"><div class=\"x78zum5 xdt5ytf x1t2pt76 x1n2onr6\" role=\"main\"><div><div class=\"\"><div class=\"x9f619 x1n2onr6 x1ja2u2z x78zum5 x2lah0s xl56j7k x1qjc9v5 xozqiw3 x1q0g3np x1ve1bff\"><div class=\"x9f619 x1n2onr6 x1ja2u2z x193iq5w xeuugli x1r8uery x1iyjqo2 xs83m0k x78zum5 xdt5ytf\" style=\"min-height: 80px;\"><div class=\"x9f619 x1n2onr6 x1ja2u2z x78zum5 x2lah0s xl56j7k x1qjc9v5 xozqiw3 x1q0g3np\"><div class=\"x1ey2m1c x9f619 xds687c x6ikm8r x10wlt62 x10l6tqk x17qophe x13vifvy\"><div class=\"xqtp20y x1n2onr6 xh8yej3\" style=\"left: 50%; position: absolute; top: 0px; transform: translateX(-50%); padding-top: 66.6667%;\"><div class=\"x1qjc9v5 x1q0q8m5 x1qhh985 xu3j5b3 xcfux6l x26u7qi xm0m39n x13fuv20 x972fbf x1ey2m1c x9f619 x78zum5 xds687c xdt5ytf x1iyjqo2 xs83m0k x1qughib xat24cr x11i5rnm x1mh8g0r xdj266r x2lwn1j xeuugli x18d9i69 x4uap5 xkhd6sd xexx8yu x10l6tqk x17qophe x13vifvy x1ja2u2z\"><img alt=\"\" class=\"x1ey2m1c x9f619 xds687c x5yr21d x10l6tqk x17qophe x13vifvy xh8yej3\" referrerpolicy=\"origin-when-cross-origin\" src=\"https://scontent.flis12-2.fna.fbcdn.net/v/t39.30808-6/313877254_8884211014937640_548397450596257574_n.jpg?stp=dst-jpg_fb50_s320x320&amp;_nc_cat=111&amp;ccb=1-7&amp;_nc_sid=340051&amp;_nc_ohc=bgQ4f_K5Kv8AX8V0cPv&amp;_nc_ht=scontent.flis12-2.fna&amp;oh=00_AfD1wch355LjigWidZYLrCwYCA49aKw1forRM0mN9lSIjw&amp;oe=637E1344\"></div></div><div class=\" xyuz3pd x1ey2m1c x9f619 xds687c x10l6tqk x17qophe x13vifvy\"></div></div><div class=\"x9f619 x1n2onr6 x1ja2u2z xeuugli x1r8uery x1iyjqo2 xs83m0k x6s0dn4 x78zum5 xdt5ytf xl56j7k x1uyial6\"><div class=\"x6ikm8r x10wlt62 x1n2onr6 xh8yej3 xric181 x30kzoy x9jhf4c x1nxjzwp xd7htx2\" style=\"border-radius: 0px 0px max(0px, min(8px, ((100vw - 4px) - 100%) * 9999)) max(0px, min(8px, ((100vw - 4px) - 100%) * 9999)) / 0px 0px 8px 8px;\"><a aria-label=\"May be an image of indoor\" class=\"x1i10hfl xjbqb8w x6umtig x1b1mbwd xaqea5y xav7gou x9f619 x1ypdohk xe8uvvx xdj266r x11i5rnm xat24cr x1mh8g0r xexx8yu x4uap5 x18d9i69 xkhd6sd x16tdsg8 x1hl2dhg xggy1nq x1o1ewxj x3x9cwd x1e5q0jg x13rtm0m x1n2onr6 x87ps6o x1lku1pv x1a2a7pz x1lliihq\" href=\"https://www.facebook.com/maatmuseum/photos/gm.1186134115670841/8884211031604305/\" role=\"link\" tabindex=\"0\"><div class=\"xqtp20y x1n2onr6 xh8yej3 x6ikm8r x10wlt62\" style=\"padding-top: 52.6316%;\"><div class=\"x1qjc9v5 x1q0q8m5 x1qhh985 xu3j5b3 xcfux6l x26u7qi xm0m39n x13fuv20 x972fbf x1ey2m1c x9f619 x78zum5 xds687c xdt5ytf x1iyjqo2 xs83m0k x1qughib xat24cr x11i5rnm x1mh8g0r xdj266r x2lwn1j xeuugli x18d9i69 x4uap5 xkhd6sd xexx8yu x10l6tqk x17qophe x13vifvy x1ja2u2z\"><div class=\"xqtp20y x1n2onr6 xh8yej3 x6ikm8r x10wlt62\" style=\"left: 50%; position: absolute; top: 47.5143%; transform: translate(-50%, -47.5143%); padding-top: 66.6667%;\"><div class=\"x1qjc9v5 x1q0q8m5 x1qhh985 xu3j5b3 xcfux6l x26u7qi xm0m39n x13fuv20 x972fbf x1ey2m1c x9f619 x78zum5 xds687c xdt5ytf x1iyjqo2 xs83m0k x1qughib xat24cr x11i5rnm x1mh8g0r xdj266r x2lwn1j xeuugli x18d9i69 x4uap5 xkhd6sd xexx8yu x10l6tqk x17qophe x13vifvy x1ja2u2z\"><img data-imgperflogname=\"profileCoverPhoto\" alt=\"\" class=\"x1ey2m1c x9f619 xds687c x5yr21d x10l6tqk x17qophe x13vifvy xh8yej3\" referrerpolicy=\"origin-when-cross-origin\" src=\"https://scontent.flis12-2.fna.fbcdn.net/v/t39.30808-6/313877254_8884211014937640_548397450596257574_n.jpg?stp=dst-jpg_p640x640&amp;_nc_cat=111&amp;ccb=1-7&amp;_nc_sid=340051&amp;_nc_ohc=bgQ4f_K5Kv8AX8V0cPv&amp;_nc_ht=scontent.flis12-2.fna&amp;oh=00_AfC-e01hu9j-4bYcsfeUM6xvKuR-cl0TOUuiOqsvcUtB_g&amp;oe=637E1344\"></div></div></div></div></a></div></div></div></div></div><div class=\"x9f619 x1n2onr6 x1ja2u2z x78zum5 x2lah0s xl56j7k x1qjc9v5 xozqiw3 x1q0g3np x1l90r2v x1ve1bff\"><div class=\"x9f619 x1n2onr6 x1ja2u2z x78zum5 xdt5ytf xeuugli x1r8uery x1iyjqo2 xs83m0k x1swvt13 x1pi30zi xqdwrps\"><div class=\"xuk3077 xqcrz7y x78zum5 xqtp20y xw7yly9\"><div class=\"x9f619 x1n2onr6 x1ja2u2z x78zum5 x2lah0s x1qughib x1qjc9v5 xozqiw3 x1q0g3np xn6708d x1ye3gou xyamay9 xykv574 xbmpl8g x4cne27 xifccgj\"><div class=\"x9f619 x1n2onr6 x1ja2u2z x78zum5 xdt5ytf x2lah0s x193iq5w xeuugli xsyo7zv x16hj40l x10b6aqq x1yrsyyn\"><div class=\"x1qjc9v5 x1jx94hy x1lq5wgf xgqcy7u x30kzoy x9jhf4c xetbsjj x78zum5 xdt5ytf xwzfr38 x6ikm8r x10wlt62 x1dmp6jm\"><div class=\"x1py5hnd x1qx5ct2\"></div><div class=\"xzsf02u x78zum5 x13wtedm x1s688f xng8ra xl56j7k\">26</div></div></div></div></div><div class=\"xqcrz7y xh8yej3\"><div class=\"x9f619 x1n2onr6 x1ja2u2z x78zum5 x2lah0s x1qughib xuk3077 xozqiw3 x1q0g3np xn6708d x1ye3gou xyamay9 x1n0m28w xp7jhwk x1wsgfga x9otpla\"><div class=\"x9f619 x1n2onr6 x1ja2u2z x78zum5 xdt5ytf x193iq5w xeuugli x1r8uery x1iyjqo2 xs83m0k x1sxyh0 xurb0ha xwib8y2 x1y1aw1k\"><div><div class=\"x78zum5 xdt5ytf x1wsgfga x9otpla\"><div class=\"x1e56ztr x1xmf6yo\"><span class=\"x193iq5w xeuugli x13faqbe x1vvkbs x10flsy6 x1lliihq x1s928wv xhkezso x1gmr53x x1cpjm7i x1fgarty x1943h6x x4zkp8e x41vudc x6prxxf xvq8zen x1xlr1w8 x1a1m0xk x1yc453h\" dir=\"auto\">MONDAY, DECEMBER 26, 2022 AT 10:00 AM – 5:30 PM UTC</span></div><div class=\"x1e56ztr x1xmf6yo\"><h2 class=\"x1heor9g x1qlqyl8 x1pd3egz x1a2a7pz x193iq5w xeuugli\" dir=\"auto\"><span class=\"x193iq5w xeuugli x13faqbe x1vvkbs x10flsy6 x1lliihq x1s928wv xhkezso x1gmr53x x1cpjm7i x1fgarty x1943h6x xudqn12 x1g2y4wz x1q74xe4 xyesn5m x1xlr1w8 xzsf02u x1yc453h\" dir=\"auto\" style=\"\"><span class=\"x1lliihq x6ikm8r x10wlt62 x1n2onr6\" style=\"-webkit-box-orient: vertical; -webkit-line-clamp: 2; display: -webkit-box;\"><span class=\"\">Oficinas de Natal / Christmas Workshops: Vamos navegar / Let's navigate</span></span></span></h2></div><div class=\"x1e56ztr x1xmf6yo\"><span class=\"x193iq5w xeuugli x13faqbe x1vvkbs x10flsy6 x1lliihq x1s928wv xhkezso x1gmr53x x1cpjm7i x1fgarty x1943h6x x1tu3fi x41vudc x1lkfr7t x1lbecb7 xo1l8bm xi81zsa x1yc453h\" dir=\"auto\"><span class=\"x1lliihq x6ikm8r x10wlt62 x1n2onr6 xlyipyv xuxw1ft\">MAAT - Museu de Arte, Arquitetura e Tecnologia</span></span></div></div></div></div><div class=\"x9f619 x1n2onr6 x1ja2u2z x78zum5 xdt5ytf x2lah0s x193iq5w xeuugli x1sxyh0 xurb0ha xwib8y2 x1y1aw1k\"><div class=\"x12rz0ws\"><div class=\"x9f619 x1n2onr6 x1ja2u2z x78zum5 x2lah0s x1qughib x1qjc9v5 xozqiw3 x1q0g3np xyamay9 xykv574 xbmpl8g x4cne27 xifccgj\"></div></div></div></div></div></div></div><div class=\"x9f619 x1n2onr6 x1ja2u2z x78zum5 x2lah0s xl56j7k x1qjc9v5 xozqiw3 x1q0g3np x1ve1bff\"><div class=\"x9f619 x1n2onr6 x1ja2u2z x78zum5 xdt5ytf xeuugli x1r8uery x1iyjqo2 xs83m0k x1swvt13 x1pi30zi xqdwrps\"><div class=\"x9f619 x1n2onr6 x1ja2u2z x78zum5 x2lah0s x1qughib x1qjc9v5 xozqiw3 x1q0g3np x1e56ztr\"><div class=\"x9f619 x1n2onr6 x1ja2u2z x78zum5 xdt5ytf x2lah0s x193iq5w xeuugli\"><div aria-label=\"[object Object]\" class=\"x1i10hfl xjbqb8w x6umtig x1b1mbwd xaqea5y xav7gou x1ypdohk xe8uvvx xdj266r x11i5rnm xat24cr x1mh8g0r xexx8yu x4uap5 x18d9i69 xkhd6sd x16tdsg8 x1hl2dhg xggy1nq x1o1ewxj x3x9cwd x1e5q0jg x13rtm0m x87ps6o x1lku1pv x1a2a7pz x9f619 x3nfvp2 xdt5ytf xl56j7k x1n2onr6 xh8yej3\" role=\"button\" tabindex=\"0\"><div class=\"x1n2onr6 x1ja2u2z x78zum5 x2lah0s xl56j7k x6s0dn4 xozqiw3 x1q0g3np xi112ho x17zwfj4 x585lrc x1403ito x972fbf xcfux6l x1qhh985 xm0m39n x9f619 xn6708d x1ye3gou x1hr4nm9 x1r1pt67\"><div class=\"x6s0dn4 x78zum5 xl56j7k x1608yet xljgi0e x1e0frkt\"><div class=\"x9f619 x1n2onr6 x1ja2u2z x193iq5w xeuugli x6s0dn4 x78zum5 x2lah0s x1fbi1t2 xl8fo4v\"><span class=\"x193iq5w xeuugli x13faqbe x1vvkbs x10flsy6 x1lliihq x1s928wv xhkezso x1gmr53x x1cpjm7i x1fgarty x1943h6x x4zkp8e x41vudc x6prxxf xvq8zen x1s688f x1mvi0mv\" dir=\"auto\"><span class=\"x1lliihq x6ikm8r x10wlt62 x1n2onr6 xlyipyv xuxw1ft\"><span class=\"x193iq5w xeuugli x13faqbe x1vvkbs x10flsy6 x6prxxf xvq8zen x1s688f x1qq9wsj\">Mon, Dec 26</span></span></span></div></div><div class=\"x1o1ewxj x3x9cwd x1e5q0jg x13rtm0m x1ey2m1c xds687c xg01cxk x47corl x10l6tqk x17qophe x13vifvy x1ebt8du x19991ni x1dhq9h\" data-visualcompletion=\"ignore\"></div></div></div></div><div class=\"x9f619 x1n2onr6 x1ja2u2z x78zum5 xdt5ytf x2lah0s x193iq5w xeuugli\"><a aria-label=\"[object Object]\" class=\"x1i10hfl xjbqb8w x6umtig x1b1mbwd xaqea5y xav7gou x1ypdohk xe8uvvx xdj266r x11i5rnm xat24cr x1mh8g0r xexx8yu x4uap5 x18d9i69 xkhd6sd x16tdsg8 x1hl2dhg xggy1nq x1o1ewxj x3x9cwd x1e5q0jg x13rtm0m x87ps6o x1lku1pv x1a2a7pz x9f619 x3nfvp2 xdt5ytf xl56j7k x1n2onr6 xh8yej3\" href=\"/events/1186134042337515/1186134052337514/?acontext=%7B%22event_action_history%22%3A[%7B%22extra_data%22%3A%22%22%2C%22mechanism%22%3A%22search_results%22%2C%22surface%22%3A%22bookmark_search%22%7D%2C%7B%22extra_data%22%3A%22%22%2C%22mechanism%22%3A%22surface%22%2C%22surface%22%3A%22permalink%22%7D]%2C%22ref_notif_type%22%3Anull%7D\" role=\"link\" tabindex=\"0\"><div class=\"x1n2onr6 x1ja2u2z x78zum5 x2lah0s xl56j7k x6s0dn4 xozqiw3 x1q0g3np xi112ho x17zwfj4 x585lrc x1403ito x972fbf xcfux6l x1qhh985 xm0m39n x9f619 xn6708d x1ye3gou xjbqb8w x1r1pt67\"><div class=\"x6s0dn4 x78zum5 xl56j7k x1608yet xljgi0e x1e0frkt\"><div class=\"x9f619 x1n2onr6 x1ja2u2z x193iq5w xeuugli x6s0dn4 x78zum5 x2lah0s x1fbi1t2 xl8fo4v\"><span class=\"x193iq5w xeuugli x13faqbe x1vvkbs x10flsy6 x1lliihq x1s928wv xhkezso x1gmr53x x1cpjm7i x1fgarty x1943h6x x4zkp8e x41vudc x6prxxf xvq8zen x1s688f x1mvi0mv\" dir=\"auto\"><span class=\"x1lliihq x6ikm8r x10wlt62 x1n2onr6 xlyipyv xuxw1ft\"><span class=\"x193iq5w xeuugli x13faqbe x1vvkbs x10flsy6 x6prxxf xvq8zen x1s688f x1qq9wsj\">Tue, Dec 27</span></span></span></div></div><div class=\"x1o1ewxj x3x9cwd x1e5q0jg x13rtm0m x1ey2m1c xds687c xg01cxk x47corl x10l6tqk x17qophe x13vifvy x1ebt8du x19991ni x1dhq9h\" data-visualcompletion=\"ignore\"></div></div></a></div><div class=\"x9f619 x1n2onr6 x1ja2u2z x78zum5 xdt5ytf x2lah0s x193iq5w xeuugli\"><a aria-label=\"[object Object]\" class=\"x1i10hfl xjbqb8w x6umtig x1b1mbwd xaqea5y xav7gou x1ypdohk xe8uvvx xdj266r x11i5rnm xat24cr x1mh8g0r xexx8yu x4uap5 x18d9i69 xkhd6sd x16tdsg8 x1hl2dhg xggy1nq x1o1ewxj x3x9cwd x1e5q0jg x13rtm0m x87ps6o x1lku1pv x1a2a7pz x9f619 x3nfvp2 xdt5ytf xl56j7k x1n2onr6 xh8yej3\" href=\"/events/1186134042337515/1186134059004180/?acontext=%7B%22event_action_history%22%3A[%7B%22extra_data%22%3A%22%22%2C%22mechanism%22%3A%22search_results%22%2C%22surface%22%3A%22bookmark_search%22%7D%2C%7B%22extra_data%22%3A%22%22%2C%22mechanism%22%3A%22surface%22%2C%22surface%22%3A%22permalink%22%7D]%2C%22ref_notif_type%22%3Anull%7D\" role=\"link\" tabindex=\"0\"><div class=\"x1n2onr6 x1ja2u2z x78zum5 x2lah0s xl56j7k x6s0dn4 xozqiw3 x1q0g3np xi112ho x17zwfj4 x585lrc x1403ito x972fbf xcfux6l x1qhh985 xm0m39n x9f619 xn6708d x1ye3gou xjbqb8w x1r1pt67\"><div class=\"x6s0dn4 x78zum5 xl56j7k x1608yet xljgi0e x1e0frkt\"><div class=\"x9f619 x1n2onr6 x1ja2u2z x193iq5w xeuugli x6s0dn4 x78zum5 x2lah0s x1fbi1t2 xl8fo4v\"><span class=\"x193iq5w xeuugli x13faqbe x1vvkbs x10flsy6 x1lliihq x1s928wv xhkezso x1gmr53x x1cpjm7i x1fgarty x1943h6x x4zkp8e x41vudc x6prxxf xvq8zen x1s688f x1mvi0mv\" dir=\"auto\"><span class=\"x1lliihq x6ikm8r x10wlt62 x1n2onr6 xlyipyv xuxw1ft\"><span class=\"x193iq5w xeuugli x13faqbe x1vvkbs x10flsy6 x6prxxf xvq8zen x1s688f x1qq9wsj\">Wed, Dec 28</span></span></span></div></div><div class=\"x1o1ewxj x3x9cwd x1e5q0jg x13rtm0m x1ey2m1c xds687c xg01cxk x47corl x10l6tqk x17qophe x13vifvy x1ebt8du x19991ni x1dhq9h\" data-visualcompletion=\"ignore\"></div></div></a></div><div class=\"x9f619 x1n2onr6 x1ja2u2z x78zum5 xdt5ytf x2lah0s x193iq5w xeuugli\"><div aria-label=\"+2\" class=\"x1i10hfl xjbqb8w x6umtig x1b1mbwd xaqea5y xav7gou x1ypdohk xe8uvvx xdj266r x11i5rnm xat24cr x1mh8g0r xexx8yu x4uap5 x18d9i69 xkhd6sd x16tdsg8 x1hl2dhg xggy1nq x1o1ewxj x3x9cwd x1e5q0jg x13rtm0m x87ps6o x1lku1pv x1a2a7pz x9f619 x3nfvp2 xdt5ytf xl56j7k x1n2onr6 xh8yej3\" role=\"button\" tabindex=\"0\"><div class=\"x1n2onr6 x1ja2u2z x78zum5 x2lah0s xl56j7k x6s0dn4 xozqiw3 x1q0g3np xi112ho x17zwfj4 x585lrc x1403ito x972fbf xcfux6l x1qhh985 xm0m39n x9f619 xn6708d x1ye3gou xjbqb8w x1r1pt67\"><div class=\"x6s0dn4 x78zum5 xl56j7k x1608yet xljgi0e x1e0frkt\"><div class=\"x9f619 x1n2onr6 x1ja2u2z x193iq5w xeuugli x6s0dn4 x78zum5 x2lah0s x1fbi1t2 xl8fo4v\"><span class=\"x193iq5w xeuugli x13faqbe x1vvkbs x10flsy6 x1lliihq x1s928wv xhkezso x1gmr53x x1cpjm7i x1fgarty x1943h6x x4zkp8e x41vudc x6prxxf xvq8zen x1s688f x1mvi0mv\" dir=\"auto\"><span class=\"x1lliihq x6ikm8r x10wlt62 x1n2onr6 xlyipyv xuxw1ft\">+2</span></span></div></div><div class=\"x1o1ewxj x3x9cwd x1e5q0jg x13rtm0m x1ey2m1c xds687c xg01cxk x47corl x10l6tqk x17qophe x13vifvy x1ebt8du x19991ni x1dhq9h\" data-visualcompletion=\"ignore\"></div></div></div></div><div class=\"x9f619 x1n2onr6 x1ja2u2z x78zum5 xdt5ytf x193iq5w xeuugli x1r8uery x1iyjqo2 xs83m0k\"><div></div></div></div><div class=\" xlup9mm\"></div><div class=\" x1n2xptk\"></div></div></div></div><div class=\"x9f619 x1n2onr6 x1ja2u2z\"></div><div class=\"x9f619 x1ja2u2z x1xzczws x7wzq59\" style=\"top: 56px; z-index: 1;\"><div class=\"x9f619 x1n2onr6 x1ja2u2z x78zum5 xl56j7k x1qjc9v5 xozqiw3 x1q0g3np x1ve1bff xvo6coq x2lah0s\"><div class=\"x9f619 x1n2onr6 x1ja2u2z x78zum5 xdt5ytf xeuugli x1r8uery x1iyjqo2 xs83m0k x1swvt13 x1pi30zi xqdwrps\"><div class=\"x9f619 x1n2onr6 x1ja2u2z x78zum5 x2lah0s x1qughib x6s0dn4 xozqiw3 x1q0g3np\"><div class=\"x9f619 x1n2onr6 x1ja2u2z x78zum5 xdt5ytf x193iq5w xeuugli x1r8uery x1iyjqo2 xs83m0k\"><div class=\"x9f619 x1ja2u2z x6ikm8r x10wlt62 x1n2onr6\"><div class=\"x9f619 x1n2onr6 x1ja2u2z xhb22t3 x11xpdln x1jrttnq x105ttfm\"><div class=\"x9f619 x1n2onr6 x1ja2u2z x78zum5 x2lah0s x1qughib x1qjc9v5 xozqiw3 x1q0g3np x879a55 xg01cxk xlshs6z x1bvr7z4 x1jl3cmp xu06nn8\"><div class=\"x9f619 x1n2onr6 x1ja2u2z x78zum5 xdt5ytf x193iq5w xeuugli x1r8uery x1iyjqo2 xs83m0k\"><div class=\"x7s6sir\"><div class=\"x4k7w5x x1h91t0o x1beo9mf xaigb6o x12ejxvf x3igimt xarpa2k xedcshv x1lytzrv x1t2pt76 x7ja8zs x1n2onr6 x1qrby5j x1jfb8zj\"><div class=\"xng8ra x6ikm8r x10wlt62 x1n2onr6 xh8yej3 x1ja2u2z x1a2a7pz\" role=\"tablist\" data-visualcompletion=\"ignore-dynamic\"><div class=\"x14ju556 x1n2onr6\"><div class=\"x6ikm8r x10wlt62 xlshs6z\"><div class=\"x6s0dn4 x9f619 x2lah0s x1hshjfz x1n2onr6 x3nfvp2 xrbpyxo x16dsc37 xng8ra x1pi30zi x1swvt13\"><span class=\"x193iq5w xeuugli x13faqbe x1vvkbs x10flsy6 x1lliihq x1s928wv xhkezso x1gmr53x x1cpjm7i x1fgarty x1943h6x x4zkp8e x41vudc x6prxxf xvq8zen x1s688f x1qq9wsj\" dir=\"auto\">About</span><div class=\" x11t77rh x146dn1l x1ey2m1c xds687c xuoj239 x10l6tqk x17qophe\" style=\"background-color: var(--accent);\"></div></div><div class=\"x6s0dn4 x9f619 x2lah0s x1hshjfz x1n2onr6 x3nfvp2 xrbpyxo x16dsc37 xng8ra x1pi30zi x1swvt13\"><span class=\"x193iq5w xeuugli x13faqbe x1vvkbs x10flsy6 x1lliihq x1s928wv xhkezso x1gmr53x x1cpjm7i x1fgarty x1943h6x x4zkp8e x41vudc x6prxxf xvq8zen x1s688f xi81zsa\" dir=\"auto\">Discussion</span><div class=\"\"></div></div></div><div class=\"x1ey2m1c x9f619 xds687c x10l6tqk x17qophe x13vifvy\"><div class=\"x1rg5ohu x1n2onr6 x16dsc37 x192njpj x1x4j4od x1jquxbb x2lwn1j x6ikm8r x10wlt62\"><div aria-disabled=\"true\" aria-haspopup=\"menu\" aria-hidden=\"true\" aria-selected=\"true\" class=\"x1i10hfl x6umtig x1b1mbwd xaqea5y xav7gou xe8uvvx xggy1nq x1o1ewxj x3x9cwd x1e5q0jg x13rtm0m x87ps6o x1lku1pv x1a2a7pz xjyslct xjbqb8w x18o3ruo x13fuv20 xu3j5b3 x1q0q8m5 x26u7qi x972fbf xcfux6l x1qhh985 xm0m39n x9f619 x1heor9g x1ypdohk x78zum5 xdj266r x11i5rnm xat24cr x1mh8g0r xexx8yu x4uap5 x18d9i69 xkhd6sd x16tdsg8 x1hl2dhg x1vjfegm xng8ra x10l6tqk x17qophe x13vifvy\" role=\"tab\"><div class=\"x6s0dn4 x9f619 x78zum5 x2lah0s x1hshjfz x1n2onr6 xng8ra x1pi30zi x1swvt13\"><span class=\"x193iq5w xeuugli x13faqbe x1vvkbs x10flsy6 x1lliihq x1s928wv xhkezso x1gmr53x x1cpjm7i x1fgarty x1943h6x x4zkp8e x41vudc x6prxxf xvq8zen x1s688f x1qq9wsj\" dir=\"auto\">More</span><div class=\"x14ju556 xsgj6o6\"><svg fill=\"currentColor\" viewBox=\"0 0 20 20\" width=\"1em\" height=\"1em\" class=\"x1lliihq x1k90msu x2h7rmj x1qfuztq x1qq9wsj xlup9mm x1kky2od\"><path d=\"M10 14a1 1 0 0 1-.755-.349L5.329 9.182a1.367 1.367 0 0 1-.205-1.46A1.184 1.184 0 0 1 6.2 7h7.6a1.18 1.18 0 0 1 1.074.721 1.357 1.357 0 0 1-.2 1.457l-3.918 4.473A1 1 0 0 1 10 14z\"></path></svg></div><div class=\" x11t77rh x146dn1l x1ey2m1c xds687c xuoj239 x10l6tqk x17qophe\" style=\"background-color: var(--accent);\"></div></div></div></div><a aria-disabled=\"true\" aria-hidden=\"true\" aria-selected=\"true\" class=\"x1i10hfl x6umtig x1b1mbwd xaqea5y xav7gou xe8uvvx xggy1nq x1o1ewxj x3x9cwd x1e5q0jg x13rtm0m x87ps6o x1lku1pv x1a2a7pz xjyslct xjbqb8w x18o3ruo x13fuv20 xu3j5b3 x1q0q8m5 x26u7qi x972fbf xcfux6l x1qhh985 xm0m39n x9f619 x1heor9g x1ypdohk xdj266r x11i5rnm xat24cr x1mh8g0r xexx8yu x4uap5 x18d9i69 xkhd6sd x1n2onr6 x16tdsg8 x1hl2dhg x1vjfegm x3nfvp2 xrbpyxo xng8ra x16dsc37\" role=\"tab\" tabindex=\"-1\"><div class=\"x6s0dn4 x9f619 x78zum5 x2lah0s x1hshjfz x1n2onr6 xng8ra x1pi30zi x1swvt13\"><span class=\"x193iq5w xeuugli x13faqbe x1vvkbs x10flsy6 x1lliihq x1s928wv xhkezso x1gmr53x x1cpjm7i x1fgarty x1943h6x x4zkp8e x41vudc x6prxxf xvq8zen x1s688f x1qq9wsj\" dir=\"auto\">About</span><div class=\" x11t77rh x146dn1l x1ey2m1c xds687c xuoj239 x10l6tqk x17qophe\" style=\"background-color: var(--accent);\"></div></div></a><a aria-disabled=\"true\" aria-hidden=\"true\" aria-selected=\"false\" class=\"x1i10hfl x6umtig x1b1mbwd xaqea5y xav7gou xe8uvvx xggy1nq x1o1ewxj x3x9cwd x1e5q0jg x13rtm0m x87ps6o x1lku1pv x1a2a7pz xjyslct xjbqb8w x18o3ruo x13fuv20 xu3j5b3 x1q0q8m5 x26u7qi x972fbf xcfux6l x1qhh985 xm0m39n x9f619 x1heor9g x1ypdohk xdj266r x11i5rnm xat24cr x1mh8g0r xexx8yu x4uap5 x18d9i69 xkhd6sd x1n2onr6 x16tdsg8 x1hl2dhg x1vjfegm x3nfvp2 xrbpyxo xng8ra x16dsc37\" role=\"tab\" tabindex=\"-1\"><div class=\"x6s0dn4 x9f619 x78zum5 x2lah0s x1hshjfz x1n2onr6 xng8ra x1pi30zi x1swvt13\"><span class=\"x193iq5w xeuugli x13faqbe x1vvkbs x10flsy6 x1lliihq x1s928wv xhkezso x1gmr53x x1cpjm7i x1fgarty x1943h6x x4zkp8e x41vudc x6prxxf xvq8zen x1s688f xi81zsa\" dir=\"auto\">Discussion</span><div class=\"\"></div></div><div class=\"x1o1ewxj x3x9cwd x1e5q0jg x13rtm0m x1ey2m1c xds687c xg01cxk x47corl x10l6tqk x17qophe x13vifvy x1ebt8du x19991ni x1dhq9h\" data-visualcompletion=\"ignore\"></div></a></div></div></div></div></div></div></div><div class=\"x9f619 x1ja2u2z x78zum5 x2lah0s x1qughib x1qjc9v5 xozqiw3 x1q0g3np x5yr21d x10l6tqk xdsb8wn xh8yej3 x1hc1fzr xnpuxes x2r5gy4 x1jl3cmp xu06nn8\"><div class=\"x9f619 x1n2onr6 x1ja2u2z x78zum5 xdt5ytf x2lah0s x193iq5w xeuugli xamitd3\"><div class=\"x9f619 x1n2onr6 x1ja2u2z x78zum5 x2lah0s x1nhvcw1 x1qjc9v5 xozqiw3 x1q0g3np\"><div class=\"x9f619 x1n2onr6 x1ja2u2z x78zum5 xdt5ytf x2lah0s x193iq5w xeuugli\"><div data-visualcompletion=\"ignore-dynamic\" style=\"padding-left: 8px; padding-right: 8px;\"><a class=\"x1i10hfl x1qjc9v5 xjbqb8w xjqpnuy xa49m3k xqeqjp1 x2hbi6w x13fuv20 xu3j5b3 x1q0q8m5 x26u7qi x972fbf xcfux6l x1qhh985 xm0m39n x9f619 x1ypdohk xdl72j9 x2lah0s xe8uvvx xdj266r x11i5rnm xat24cr x1mh8g0r x2lwn1j xeuugli xexx8yu x4uap5 x18d9i69 xkhd6sd x1n2onr6 x16tdsg8 x1hl2dhg xggy1nq x1ja2u2z x1t137rt x1q0g3np x87ps6o x1lku1pv x1a2a7pz x1lq5wgf xgqcy7u x30kzoy x9jhf4c x1lliihq\" href=\"https://www.facebook.com/events/1186134042337515/?event_time_id=1186134055670847\" role=\"link\" tabindex=\"0\"><div class=\"x6s0dn4 x1q0q8m5 x1qhh985 xu3j5b3 xcfux6l x26u7qi xm0m39n x13fuv20 x972fbf x9f619 x78zum5 x1q0g3np x1iyjqo2 xs83m0k x1qughib xat24cr x11i5rnm x1mh8g0r xdj266r xeuugli x18d9i69 x1sxyh0 xurb0ha xexx8yu x1n2onr6 x1ja2u2z x1gg8mnh\"><div class=\"x78zum5 xdt5ytf xq8finb x1xmf6yo x1e56ztr x1n2onr6 xamitd3\"><div class=\"x1rg5ohu x1n2onr6 x3ajldb x1ja2u2z\"><svg aria-hidden=\"true\" class=\"x3ajldb\" data-visualcompletion=\"ignore-dynamic\" role=\"none\" style=\"height: 40px; width: 40px;\"><mask id=\"jsc_c_5\"><rect cy=\"20\" fill=\"white\" height=\"40\" rx=\"8\" ry=\"8\" width=\"40\" x=\"0\" y=\"0\"></rect></mask><g mask=\"url(#jsc_c_5)\"><image x=\"0\" y=\"0\" height=\"100%\" preserveAspectRatio=\"xMidYMid slice\" width=\"100%\" xlink:href=\"https://scontent.flis12-1.fna.fbcdn.net/v/t1.30497-1/84668831_168042434612076_74269678289027072_n.jpg?stp=c12.0.40.40a_cp0_dst-jpg_p40x40&amp;_nc_cat=1&amp;ccb=1-7&amp;_nc_sid=702d06&amp;_nc_ohc=0fI9MoU-18oAX9lGXMV&amp;_nc_ht=scontent.flis12-1.fna&amp;oh=00_AfC6I4wkKykrDIg3smcJaQ56D6d7YyiyihUD1-MrVEU90w&amp;oe=63A02A8C\" style=\"height: 40px; width: 40px;\"></image><rect class=\"x1pwv2dq xvlca1e xbh8q5q\" cy=\"20\" fill=\"white\" height=\"40\" rx=\"8\" ry=\"8\" width=\"40\" x=\"0\" y=\"0\"></rect></g></svg></div></div><div class=\"x6s0dn4 xkh2ocl x1q0q8m5 x1qhh985 xu3j5b3 xcfux6l x26u7qi xm0m39n x13fuv20 x972fbf x9f619 x78zum5 x1q0g3np x1iyjqo2 xs83m0k x1qughib xat24cr x11i5rnm x1mh8g0r xdj266r x2lwn1j xeuugli x18d9i69 x4uap5 xkhd6sd xexx8yu x1n2onr6 x1ja2u2z\"><div class=\"x1q0q8m5 x1qhh985 xu3j5b3 xcfux6l x26u7qi xm0m39n x13fuv20 x972fbf x9f619 x78zum5 x1r8uery x1iyjqo2 xs83m0k x1qughib x11i5rnm x1mh8g0r x2lwn1j xeuugli x4uap5 xkhd6sd x1n2onr6 x1ja2u2z x1qjc9v5 xdt5ytf xat24cr xdj266r xz9dl7a xsag5q8\"><div class=\"\"><div class=\"x78zum5 xdt5ytf xz62fqu x16ldp7u\"><div class=\"xu06os2 x1ok221b\"><span class=\"x193iq5w xeuugli x13faqbe x1vvkbs x10flsy6 x1lliihq x1s928wv xhkezso x1gmr53x x1cpjm7i x1fgarty x1943h6x x1tu3fi x41vudc x1lkfr7t x1lbecb7 xk50ysn xzsf02u x1yc453h\" dir=\"auto\"><span class=\"x1lliihq x6ikm8r x10wlt62 x1n2onr6 xlyipyv xuxw1ft\">Oficinas de Natal / Christmas Workshops: Vamos navegar / Let's navigate</span></span></div></div></div></div></div></div><div class=\"x1o1ewxj x3x9cwd x1e5q0jg x13rtm0m x1ey2m1c xds687c xg01cxk x47corl x10l6tqk x17qophe x13vifvy x1ebt8du x19991ni x1dhq9h\" data-visualcompletion=\"ignore\"></div></a></div></div></div></div></div></div></div></div><div class=\"x9f619 x1n2onr6 x1ja2u2z x78zum5 xdt5ytf x2lah0s x193iq5w xeuugli xamitd3\"><div class=\"x6s0dn4 x78zum5 xng8ra\"></div></div></div></div></div></div></div><div class=\" x6s0dn4 x78zum5 xdt5ytf x193iq5w\"><div class=\"x193iq5w\"><div class=\"x9f619 x193iq5w x1talbiv x1swvt13 x1pi30zi xyamay9\"><div class=\"x9f619 x1n2onr6 x1ja2u2z x2lah0s x1qjc9v5 x78zum5 x1q0g3np x1a02dak xl56j7k x9otpla x1n0m28w x1wsgfga xp7jhwk\"><div class=\"x9f619 x1n2onr6 x1ja2u2z xeuugli x1iyjqo2 xs83m0k x1xmf6yo x1emribx x1e56ztr x1i64zmx xjl7jj x19h7ccj x65f84u\"><div class=\"x1yztbdb\"><div class=\"x78zum5 x1n2onr6 xh8yej3\"><div class=\"x9f619 x1n2onr6 x1ja2u2z x2bj2ny x1qpq9i9 xdney7k xu5ydu1 xt3gfkd xh8yej3 x6ikm8r x10wlt62 xquyuld\" style=\"border-radius: max(0px, min(8px, ((100vw - 4px) - 100%) * 9999)) / 8px;\"><div class=\"x1l90r2v xyamay9\" style=\"border: 2px solid yellow;\"><div class=\"x13fuv20 x26u7qi xu3j5b3 x1q0q8m5 x972fbf xm0m39n xcfux6l x1qhh985 x9f619 x78zum5 x1iyjqo2 xs83m0k xdj266r x11i5rnm xat24cr x1mh8g0r x2lwn1j xeuugli x1n2onr6 x1ja2u2z xuk3077 x1q0g3np x1qughib x1iorvi4 x1pi30zi x1l90r2v x1swvt13\"><div class=\"x78zum5 xdt5ytf x4cne27 xifccgj\"><div class=\"xzueoph x1k70j0n\"><h2 class=\"x1heor9g x1qlqyl8 x1pd3egz x1a2a7pz x193iq5w xeuugli\" dir=\"auto\"><span class=\"x193iq5w xeuugli x13faqbe x1vvkbs x10flsy6 x1lliihq x1s928wv xhkezso x1gmr53x x1cpjm7i x1fgarty x1943h6x x4zkp8e x41vudc x1603h9y x1u7k74 x1xlr1w8 xzsf02u x1yc453h\" dir=\"auto\" style=\"\">Details</span></h2></div></div></div><div class=\"x1i10hfl x6umtig x1b1mbwd xaqea5y xav7gou x1ypdohk xe8uvvx x1hl2dhg xggy1nq x1o1ewxj x3x9cwd x1e5q0jg x13rtm0m x87ps6o x1lku1pv x1a2a7pz xjyslct xjbqb8w x972fbf xcfux6l x1qhh985 xm0m39n x9f619 x1rg5ohu xdj266r x11i5rnm xat24cr x1mh8g0r xexx8yu x4uap5 x18d9i69 xkhd6sd x1n2onr6 x16tdsg8 xh8yej3\" role=\"button\" tabindex=\"0\"><div class=\"x78zum5 xdt5ytf xwib8y2 x1y1aw1k\"><div class=\"x9f619 x1n2onr6 x1ja2u2z x78zum5 x2lah0s x1nhvcw1 x1cy8zhl xozqiw3 x1q0g3np x1pi30zi x1swvt13 xexx8yu xykv574 xbmpl8g x4cne27 xifccgj\" style=\"border: 1px solid red;\"><div class=\"x9f619 x1n2onr6 x1ja2u2z x78zum5 xdt5ytf x2lah0s x193iq5w xeuugli xsyo7zv x16hj40l x10b6aqq x1yrsyyn\"><i data-visualcompletion=\"css-img\" class=\"x1b0d499 xuo83w3\" style=\"background-image: url(&quot;https://static.xx.fbcdn.net/rsrc.php/v3/yU/r/Nm9l5_cXFfK.png&quot;); background-position: -21px -382px; background-size: auto; width: 20px; height: 20px; background-repeat: no-repeat; display: inline-block;\"></i></div><div class=\"x9f619 x1n2onr6 x1ja2u2z x78zum5 xdt5ytf x193iq5w xeuugli x1r8uery x1iyjqo2 xs83m0k xamitd3 xsyo7zv x16hj40l x10b6aqq x1yrsyyn\"><div class=\"x78zum5 xdt5ytf xz62fqu x16ldp7u\"><div class=\"xu06os2 x1ok221b\"><span class=\"x193iq5w xeuugli x13faqbe x1vvkbs x10flsy6 x1lliihq x1s928wv xhkezso x1gmr53x x1cpjm7i x1fgarty x1943h6x x4zkp8e x41vudc x6prxxf xvq8zen xo1l8bm xzsf02u x1yc453h\" dir=\"auto\">2 people responded</span></div></div></div></div></div><div class=\"x1o1ewxj x3x9cwd x1e5q0jg x13rtm0m x1ey2m1c xds687c xg01cxk x47corl x10l6tqk x17qophe x13vifvy x1ebt8du x19991ni x1dhq9h\" data-visualcompletion=\"ignore\"></div></div><div class=\"xjyslct xjbqb8w x972fbf xcfux6l x1qhh985 xm0m39n x9f619 x1rg5ohu xdj266r x11i5rnm xat24cr x1mh8g0r xexx8yu x4uap5 x18d9i69 xkhd6sd x1n2onr6 x16tdsg8 xh8yej3\"><div class=\"x78zum5 xdt5ytf xwib8y2 x1y1aw1k\"><div class=\"x9f619 x1n2onr6 x1ja2u2z x78zum5 x2lah0s x1nhvcw1 x1cy8zhl xozqiw3 x1q0g3np x1pi30zi x1swvt13 xexx8yu xykv574 xbmpl8g x4cne27 xifccgj\" style=\"border: 1px solid red;\"><div class=\"x9f619 x1n2onr6 x1ja2u2z x78zum5 xdt5ytf x2lah0s x193iq5w xeuugli xsyo7zv x16hj40l x10b6aqq x1yrsyyn\"><i data-visualcompletion=\"css-img\" class=\"x1b0d499 xuo83w3\" style=\"background-image: url(&quot;https://static.xx.fbcdn.net/rsrc.php/v3/yU/r/Nm9l5_cXFfK.png&quot;); background-position: 0px -235px; background-size: auto; width: 20px; height: 20px; background-repeat: no-repeat; display: inline-block;\"></i></div><div class=\"x9f619 x1n2onr6 x1ja2u2z x78zum5 xdt5ytf x193iq5w xeuugli x1r8uery x1iyjqo2 xs83m0k xamitd3 xsyo7zv x16hj40l x10b6aqq x1yrsyyn\"><div class=\"x78zum5 xdt5ytf xz62fqu x16ldp7u\"><div class=\"xu06os2 x1ok221b\"><span class=\"x193iq5w xeuugli x13faqbe x1vvkbs x10flsy6 x1lliihq x1s928wv xhkezso x1gmr53x x1cpjm7i x1fgarty x1943h6x x4zkp8e x41vudc x6prxxf xvq8zen xo1l8bm xzsf02u x1yc453h\" dir=\"auto\">Event by <strong><a class=\"x1i10hfl xjbqb8w x6umtig x1b1mbwd xaqea5y xav7gou x9f619 x1ypdohk xt0psk2 xe8uvvx xdj266r x11i5rnm xat24cr x1mh8g0r xexx8yu x4uap5 x18d9i69 xkhd6sd x16tdsg8 x1hl2dhg xggy1nq x1a2a7pz xt0b8zv xzsf02u x1s688f\" href=\"https://www.facebook.com/maatmuseum/\" role=\"link\" tabindex=\"0\">MAAT - Museu de Arte, Arquitetura e Tecnologia</a></strong></span></div></div></div></div></div></div><div class=\"xjyslct xjbqb8w x972fbf xcfux6l x1qhh985 xm0m39n x9f619 x1rg5ohu xdj266r x11i5rnm xat24cr x1mh8g0r xexx8yu x4uap5 x18d9i69 xkhd6sd x1n2onr6 x16tdsg8 xh8yej3\"><div class=\"x78zum5 xdt5ytf xwib8y2 x1y1aw1k\"><div class=\"x9f619 x1n2onr6 x1ja2u2z x78zum5 x2lah0s x1nhvcw1 x1cy8zhl xozqiw3 x1q0g3np x1pi30zi x1swvt13 xexx8yu xykv574 xbmpl8g x4cne27 xifccgj\" style=\"border: 1px solid red;\"><div class=\"x9f619 x1n2onr6 x1ja2u2z x78zum5 xdt5ytf x2lah0s x193iq5w xeuugli xsyo7zv x16hj40l x10b6aqq x1yrsyyn\"><i data-visualcompletion=\"css-img\" class=\"x1b0d499 xuo83w3\" style=\"background-image: url(&quot;https://static.xx.fbcdn.net/rsrc.php/v3/yU/r/Nm9l5_cXFfK.png&quot;); background-position: -42px -487px; background-size: auto; width: 20px; height: 20px; background-repeat: no-repeat; display: inline-block;\"></i></div><div class=\"x9f619 x1n2onr6 x1ja2u2z x78zum5 xdt5ytf x193iq5w xeuugli x1r8uery x1iyjqo2 xs83m0k xamitd3 xsyo7zv x16hj40l x10b6aqq x1yrsyyn\"><div class=\"x78zum5 xdt5ytf xz62fqu x16ldp7u\"><div class=\"xu06os2 x1ok221b\"><span class=\"x193iq5w xeuugli x13faqbe x1vvkbs x10flsy6 x1lliihq x1s928wv xhkezso x1gmr53x x1cpjm7i x1fgarty x1943h6x x4zkp8e x41vudc x6prxxf xvq8zen xo1l8bm xzsf02u x1yc453h\" dir=\"auto\"><a class=\"x1i10hfl xjbqb8w x6umtig x1b1mbwd xaqea5y xav7gou x9f619 x1ypdohk xt0psk2 xe8uvvx xdj266r x11i5rnm xat24cr x1mh8g0r xexx8yu x4uap5 x18d9i69 xkhd6sd x16tdsg8 x1hl2dhg xggy1nq x1a2a7pz xt0b8zv xzsf02u x1s688f\" href=\"https://www.facebook.com/maatmuseum/\" role=\"link\" tabindex=\"0\">MAAT - Museu de Arte, Arquitetura e Tecnologia</a></span></div></div></div></div></div></div><div class=\"xjyslct xjbqb8w x972fbf xcfux6l x1qhh985 xm0m39n x9f619 x1rg5ohu xdj266r x11i5rnm xat24cr x1mh8g0r xexx8yu x4uap5 x18d9i69 xkhd6sd x1n2onr6 x16tdsg8 xh8yej3\"><div class=\"x78zum5 xdt5ytf xwib8y2 x1y1aw1k\"><div class=\"x9f619 x1n2onr6 x1ja2u2z x78zum5 x2lah0s x1nhvcw1 x1cy8zhl xozqiw3 x1q0g3np x1pi30zi x1swvt13 xexx8yu xykv574 xbmpl8g x4cne27 xifccgj\" style=\"border: 1px solid red;\"><div class=\"x9f619 x1n2onr6 x1ja2u2z x78zum5 xdt5ytf x2lah0s x193iq5w xeuugli xsyo7zv x16hj40l x10b6aqq x1yrsyyn\"><i data-visualcompletion=\"css-img\" class=\"x1b0d499 xuo83w3\" style=\"background-image: url(&quot;https://static.xx.fbcdn.net/rsrc.php/v3/yK/r/UlP4KiiSJ4Q.png&quot;); background-position: 0px -876px; background-size: auto; width: 20px; height: 20px; background-repeat: no-repeat; display: inline-block;\"></i></div><div class=\"x9f619 x1n2onr6 x1ja2u2z x78zum5 xdt5ytf x193iq5w xeuugli x1r8uery x1iyjqo2 xs83m0k xamitd3 xsyo7zv x16hj40l x10b6aqq x1yrsyyn\"><div class=\"x78zum5 xdt5ytf xz62fqu x16ldp7u\"><div class=\"xu06os2 x1ok221b\"><span class=\"x193iq5w xeuugli x13faqbe x1vvkbs x10flsy6 x1lliihq x1s928wv xhkezso x1gmr53x x1cpjm7i x1fgarty x1943h6x x4zkp8e x41vudc x6prxxf xvq8zen xo1l8bm xzsf02u x1yc453h\" dir=\"auto\">Tickets</span></div><div class=\"xu06os2 x1ok221b\"><span class=\"x193iq5w xeuugli x13faqbe x1vvkbs x10flsy6 x1lliihq x1s928wv xhkezso x1gmr53x x1cpjm7i x1fgarty x1943h6x x1tu3fi x3x7a5m x1nxh6w3 x1sibtaa xo1l8bm xi81zsa x1yc453h\" dir=\"auto\">maat.pt/pt/bilhetes</span></div></div></div></div></div></div><div class=\"xjyslct xjbqb8w x972fbf xcfux6l x1qhh985 xm0m39n x9f619 x1rg5ohu xdj266r x11i5rnm xat24cr x1mh8g0r xexx8yu x4uap5 x18d9i69 xkhd6sd x1n2onr6 x16tdsg8 xh8yej3\"><div class=\"x78zum5 xdt5ytf xwib8y2 x1y1aw1k\"><div class=\"x9f619 x1n2onr6 x1ja2u2z x78zum5 x2lah0s x1nhvcw1 x1cy8zhl xozqiw3 x1q0g3np x1pi30zi x1swvt13 xexx8yu xykv574 xbmpl8g x4cne27 xifccgj\" style=\"border: 1px solid red;\"><div class=\"x9f619 x1n2onr6 x1ja2u2z x78zum5 xdt5ytf x2lah0s x193iq5w xeuugli xsyo7zv x16hj40l x10b6aqq x1yrsyyn\"><i data-visualcompletion=\"css-img\" class=\"x1b0d499 xuo83w3\" style=\"background-image: url(&quot;https://static.xx.fbcdn.net/rsrc.php/v3/yC/r/Jq576limb6l.png&quot;); background-position: -63px -191px; background-size: auto; width: 20px; height: 20px; background-repeat: no-repeat; display: inline-block;\"></i></div><div class=\"x9f619 x1n2onr6 x1ja2u2z x78zum5 xdt5ytf x193iq5w xeuugli x1r8uery x1iyjqo2 xs83m0k xamitd3 xsyo7zv x16hj40l x10b6aqq x1yrsyyn\"><div class=\"x78zum5 xdt5ytf xz62fqu x16ldp7u\"><div class=\"xu06os2 x1ok221b\"><span class=\"x193iq5w xeuugli x13faqbe x1vvkbs x10flsy6 x1lliihq x1s928wv xhkezso x1gmr53x x1cpjm7i x1fgarty x1943h6x x4zkp8e x41vudc x6prxxf xvq8zen xo1l8bm xzsf02u x1yc453h\" dir=\"auto\">Public<span><span class=\"xzpqnlu xjm9jq1 x6ikm8r x10wlt62 x10l6tqk x1i1rx1s\">&nbsp;</span><span aria-hidden=\"true\"> · </span></span>Anyone on or off Facebook</span></div></div></div></div></div></div><div class=\"x1pi30zi x1swvt13\"><div class=\"x1ni5s2d\"><span class=\"x193iq5w xeuugli x13faqbe x1vvkbs x10flsy6 x1lliihq x1s928wv xhkezso x1gmr53x x1cpjm7i x1fgarty x1943h6x x4zkp8e x41vudc x6prxxf xvq8zen xo1l8bm xzsf02u\" dir=\"auto\"><div class=\"x11i5rnm xat24cr x1mh8g0r x1vvkbs xdj266r\">Vamos navegar no museu uma semana?</div><div class=\"x11i5rnm xat24cr x1mh8g0r x1vvkbs xtlvy1s\">Com António Banza</div><div class=\"x11i5rnm xat24cr x1mh8g0r x1vvkbs xtlvy1s\">Vem testar a tua perícia por entre carros e barcos solares e circuitos elétricos e aprender mais sobre os fenómenos da eletricidade. Aceita este desafio!<br>___</div><div class=\"x11i5rnm xat24cr x1mh8g0r x1vvkbs xtlvy1s\">Let's navigate the museum for a week?</div><div class=\"x11i5rnm xat24cr x1mh8g0r x1vvkbs xtlvy1s\">With António Banza</div><div class=\"x11i5rnm xat24cr x1mh8g0r x1vvkbs xtlvy1s\">Come and test your skills among solar cars and boats and electric circuits and learn more about electrical phenomena. Take up this challenge! <div class=\"x1i10hfl xjbqb8w x6umtig x1b1mbwd xaqea5y xav7gou x9f619 x1ypdohk xt0psk2 xe8uvvx xdj266r x11i5rnm xat24cr x1mh8g0r xexx8yu x4uap5 x18d9i69 xkhd6sd x16tdsg8 x1hl2dhg xggy1nq x1a2a7pz xt0b8zv xzsf02u x1s688f\" role=\"button\" tabindex=\"0\">See less</div></div></span><div class=\"x78zum5 x1a02dak\"><div><a class=\"x1i10hfl xjbqb8w x6umtig x1b1mbwd xaqea5y xav7gou x9f619 x1ypdohk xt0psk2 xe8uvvx xdj266r x11i5rnm xat24cr x1mh8g0r xexx8yu x4uap5 x18d9i69 xkhd6sd x16tdsg8 x1hl2dhg xggy1nq x1a2a7pz x1heor9g xt0b8zv\" href=\"https://www.facebook.com/events/discovery/?suggestion_token=%7B%22event_categories%22%3A%5B258647957895086%5D%7D\" role=\"link\" tabindex=\"0\"><div class=\"x6s0dn4 x1qhmfi1 x1lcm9me x1yr5g0i xrt01vj x10y3i5r x9f619 x78zum5 xl56j7k x12nagc x1gslohp x1y1aw1k x1sxyh0 xwib8y2 xurb0ha\"><span class=\"x193iq5w xeuugli x13faqbe x1vvkbs x10flsy6 x1lliihq x1s928wv xhkezso x1gmr53x x1cpjm7i x1fgarty x1943h6x x1tu3fi x3x7a5m x1nxh6w3 x1sibtaa x1s688f xzsf02u\" dir=\"auto\">Crafts</span></div></a></div></div></div></div></div></div></div></div><div class=\"x1yztbdb\"><div class=\"x78zum5 x1n2onr6 xh8yej3\"><div class=\"x9f619 x1n2onr6 x1ja2u2z x2bj2ny x1qpq9i9 xdney7k xu5ydu1 xt3gfkd xh8yej3 x6ikm8r x10wlt62 xquyuld\" style=\"border-radius: max(0px, min(8px, ((100vw - 4px) - 100%) * 9999)) / 8px;\"><div class=\"x1l90r2v xyamay9\"><div class=\"x13fuv20 x26u7qi xu3j5b3 x1q0q8m5 x972fbf xm0m39n xcfux6l x1qhh985 x9f619 x78zum5 x1iyjqo2 xs83m0k xdj266r x11i5rnm xat24cr x1mh8g0r x2lwn1j xeuugli x1n2onr6 x1ja2u2z xuk3077 x1q0g3np x1qughib x1iorvi4 x1pi30zi x1l90r2v x1swvt13\"><div class=\"x78zum5 xdt5ytf x4cne27 xifccgj\"><div class=\"xzueoph x1k70j0n\"><h2 class=\"x1heor9g x1qlqyl8 x1pd3egz x1a2a7pz x193iq5w xeuugli\" dir=\"auto\"><span class=\"x193iq5w xeuugli x13faqbe x1vvkbs x10flsy6 x1lliihq x1s928wv xhkezso x1gmr53x x1cpjm7i x1fgarty x1943h6x x4zkp8e x41vudc x1603h9y x1u7k74 x1xlr1w8 xzsf02u x1yc453h\" dir=\"auto\" style=\"\">Tickets</span></h2></div></div></div><div class=\"x1pi30zi x1swvt13\"><a aria-label=\"Find Tickets\" class=\"x1i10hfl xjbqb8w x6umtig x1b1mbwd xaqea5y xav7gou x1ypdohk xe8uvvx xdj266r x11i5rnm xat24cr x1mh8g0r xexx8yu x4uap5 x18d9i69 xkhd6sd x16tdsg8 x1hl2dhg xggy1nq x1o1ewxj x3x9cwd x1e5q0jg x13rtm0m x87ps6o x1lku1pv x1a2a7pz x9f619 x3nfvp2 xdt5ytf xl56j7k x1n2onr6 xh8yej3\" href=\"https://l.facebook.com/l.php?u=https%3A%2F%2Fmaat.pt%2Fpt%2Fbilhetes&amp;h=AT1iJfulpyYwgkF6bI0pcE-EHvqL2q0ix1hym9pA_YxQHJdSBzbe91uSBHMaY-uz1OL0p-OiXx-b0VLfgxSWuCmvkpR9313x9f-bwpKsR-lHg49b6ZYAostXw_rhs7yk1mhRiigC2ZrhDg\" rel=\"nofollow noopener\" role=\"link\" tabindex=\"0\" target=\"_blank\"><div class=\"x1n2onr6 x1ja2u2z x78zum5 x2lah0s xl56j7k x6s0dn4 xozqiw3 x1q0g3np xi112ho x17zwfj4 x585lrc x1403ito x972fbf xcfux6l x1qhh985 xm0m39n x9f619 xn6708d x1ye3gou x1qhmfi1 x1r1pt67\"><div class=\"x6s0dn4 x78zum5 xl56j7k x1608yet xljgi0e x1e0frkt\" style=\"border: 1px solid red;\"><div class=\"x9f619 x1n2onr6 x1ja2u2z x193iq5w xeuugli x6s0dn4 x78zum5 x2lah0s x1fbi1t2 xl8fo4v\"><i data-visualcompletion=\"css-img\" class=\"x1b0d499 xep6ejk\" style=\"background-image: url(&quot;https://static.xx.fbcdn.net/rsrc.php/v3/yK/r/UlP4KiiSJ4Q.png&quot;); background-position: 0px -1326px; background-size: auto; width: 16px; height: 16px; background-repeat: no-repeat; display: inline-block;\"></i></div><div class=\"x9f619 x1n2onr6 x1ja2u2z x193iq5w xeuugli x6s0dn4 x78zum5 x2lah0s x1fbi1t2 xl8fo4v\"><span class=\"x193iq5w xeuugli x13faqbe x1vvkbs x10flsy6 x1lliihq x1s928wv xhkezso x1gmr53x x1cpjm7i x1fgarty x1943h6x x4zkp8e x41vudc x6prxxf xvq8zen x1s688f x1dem4cn\" dir=\"auto\"><span class=\"x1lliihq x6ikm8r x10wlt62 x1n2onr6 xlyipyv xuxw1ft\">Find Tickets</span></span></div></div><div class=\"x1o1ewxj x3x9cwd x1e5q0jg x13rtm0m x1ey2m1c xds687c xg01cxk x47corl x10l6tqk x17qophe x13vifvy x1ebt8du x19991ni x1dhq9h\" data-visualcompletion=\"ignore\"></div></div></a></div></div></div></div></div><div class=\"x1yztbdb\"><div class=\"x78zum5 x1n2onr6 xh8yej3\"><div class=\"x9f619 x1n2onr6 x1ja2u2z x2bj2ny x1qpq9i9 xdney7k xu5ydu1 xt3gfkd xh8yej3 x6ikm8r x10wlt62 xquyuld\" style=\"border-radius: max(0px, min(8px, ((100vw - 4px) - 100%) * 9999)) / 8px;\"><div class=\"x1l90r2v\"><div class=\"x1i10hfl xjbqb8w x6umtig x1b1mbwd xaqea5y xav7gou x9f619 x1ypdohk xt0psk2 xe8uvvx xdj266r x11i5rnm xat24cr x1mh8g0r xexx8yu x4uap5 x18d9i69 xkhd6sd x16tdsg8 x1hl2dhg xggy1nq x1o1ewxj x3x9cwd x1e5q0jg x13rtm0m x1n2onr6 x87ps6o x1lku1pv x1a2a7pz\" role=\"button\" tabindex=\"0\"><div class=\"x1n2onr6 xqtp20y x6ikm8r x10wlt62\" style=\"padding-top: calc(75%);\"><div class=\" x10l6tqk x17qophe x13vifvy\" style=\"background-image: url(&quot;https://external.flis12-2.fna.fbcdn.net/static_map.php?v=2035&amp;theme=default&amp;ccb=4-4&amp;size=400x300&amp;language=en_US&amp;scale=1&amp;zoom=15&amp;marker_list[0]=38.695854574026%2C-9.1951599251573&amp;_nc_client_id=events_location&amp;_nc_client_caller=CometStaticMap.react&quot;); background-repeat: no-repeat; background-size: 100% 100%; height: 100%; width: 100%;\"></div><div class=\"x71s49j x10l6tqk x70y0r9 xmbx2d0\" style=\"border: 1px solid red;\"><div aria-haspopup=\"menu\" aria-label=\"View Map Info\" class=\"x1i10hfl x1qjc9v5 xjqpnuy xa49m3k xqeqjp1 x2hbi6w x9f619 x1ypdohk xdl72j9 x2lah0s xe8uvvx x2lwn1j xeuugli x16tdsg8 x1hl2dhg xggy1nq x1ja2u2z x1t137rt x1o1ewxj x3x9cwd x1e5q0jg x13rtm0m x1q0g3np x87ps6o x1lku1pv x1a2a7pz xjyslct xjbqb8w x13fuv20 xu3j5b3 x1q0q8m5 x26u7qi x972fbf xcfux6l x1qhh985 xm0m39n x3nfvp2 xdj266r x11i5rnm xat24cr x1mh8g0r xexx8yu x4uap5 x18d9i69 xkhd6sd x1n2onr6 x3ajldb x194ut8o x1vzenxt xd7ygy7 xt298gk x1xhcax0 x1s928wv x10pfhc2 x1j6awrg x1v53gu8 x1tfg27r xitxdhh\" role=\"button\" tabindex=\"0\"><i data-visualcompletion=\"css-img\" class=\"x1b0d499 xuo83w3\" style=\"background-image: url(&quot;https://static.xx.fbcdn.net/rsrc.php/v3/y_/r/7BhQpbagJ36.png&quot;); background-position: 0px -316px; background-size: auto; width: 16px; height: 16px; background-repeat: no-repeat; display: inline-block;\"></i><div class=\"x1ey2m1c xds687c xg01cxk x47corl x10l6tqk x17qophe x13vifvy x1ebt8du x19991ni x1dhq9h x14yjl9h xudhj91 x18nykt9 xww2gxu\" data-visualcompletion=\"ignore\"></div></div></div></div><div class=\"x1o1ewxj x3x9cwd x1e5q0jg x13rtm0m x1ey2m1c xds687c xg01cxk x47corl x10l6tqk x17qophe x13vifvy x1ebt8du x19991ni x1dhq9h\" data-visualcompletion=\"ignore\"></div></div><div class=\" xlup9mm\"></div><div class=\" x1oo3vh0 x1rdy4ex\" role=\"list\"><div data-visualcompletion=\"ignore-dynamic\" role=\"listitem\" style=\"padding-left: 8px; padding-right: 8px;\"><a class=\"x1i10hfl x1qjc9v5 xjbqb8w xjqpnuy xa49m3k xqeqjp1 x2hbi6w x13fuv20 xu3j5b3 x1q0q8m5 x26u7qi x972fbf xcfux6l x1qhh985 xm0m39n x9f619 x1ypdohk xdl72j9 x2lah0s xe8uvvx xdj266r x11i5rnm xat24cr x1mh8g0r x2lwn1j xeuugli xexx8yu x4uap5 x18d9i69 xkhd6sd x1n2onr6 x16tdsg8 x1hl2dhg xggy1nq x1ja2u2z x1t137rt x1q0g3np x87ps6o x1lku1pv x1a2a7pz x1lq5wgf xgqcy7u x30kzoy x9jhf4c x1lliihq\" href=\"https://www.facebook.com/maatmuseum/\" role=\"link\" tabindex=\"0\"><div class=\"x6s0dn4 x1q0q8m5 x1qhh985 xu3j5b3 xcfux6l x26u7qi xm0m39n x13fuv20 x972fbf x9f619 x78zum5 x1q0g3np x1iyjqo2 xs83m0k x1qughib xat24cr x11i5rnm x1mh8g0r xdj266r xeuugli x18d9i69 x1sxyh0 xurb0ha xexx8yu x1n2onr6 x1ja2u2z x1gg8mnh\"><div class=\"x6s0dn4 xkh2ocl x1q0q8m5 x1qhh985 xu3j5b3 xcfux6l x26u7qi xm0m39n x13fuv20 x972fbf x9f619 x78zum5 x1q0g3np x1iyjqo2 xs83m0k x1qughib xat24cr x11i5rnm x1mh8g0r xdj266r x2lwn1j xeuugli x18d9i69 x4uap5 xkhd6sd xexx8yu x1n2onr6 x1ja2u2z\"><div class=\"x1q0q8m5 x1qhh985 xu3j5b3 xcfux6l x26u7qi xm0m39n x13fuv20 x972fbf x9f619 x78zum5 x1r8uery x1iyjqo2 xs83m0k x1qughib x11i5rnm x1mh8g0r x2lwn1j xeuugli x4uap5 xkhd6sd x1n2onr6 x1ja2u2z x1qjc9v5 xdt5ytf xat24cr xdj266r xz9dl7a xsag5q8\"><div class=\"\"><div class=\"x78zum5 xdt5ytf xz62fqu x16ldp7u\"><div class=\"xu06os2 x1ok221b\"><span class=\"x193iq5w xeuugli x13faqbe x1vvkbs x10flsy6 x1lliihq x1s928wv xhkezso x1gmr53x x1cpjm7i x1fgarty x1943h6x x1tu3fi x3x7a5m x1lkfr7t x1lbecb7 x1s688f xzsf02u x1yc453h\" dir=\"auto\"><span class=\"x1lliihq x6ikm8r x10wlt62 x1n2onr6\" style=\"-webkit-box-orient: vertical; -webkit-line-clamp: 4; display: -webkit-box;\">MAAT - Museu de Arte, Arquitetura e Tecnologia</span></span></div><div class=\"xu06os2 x1ok221b\"><span class=\"x193iq5w xeuugli x13faqbe x1vvkbs x10flsy6 x1lliihq x1s928wv xhkezso x1gmr53x x1cpjm7i x1fgarty x1943h6x x4zkp8e x41vudc x6prxxf xvq8zen xo1l8bm xi81zsa x1yc453h\" dir=\"auto\">Av. Brasília, Lisbon</span></div></div></div></div></div></div><div class=\"x1o1ewxj x3x9cwd x1e5q0jg x13rtm0m x1ey2m1c xds687c xg01cxk x47corl x10l6tqk x17qophe x13vifvy x1ebt8du x19991ni x1dhq9h\" data-visualcompletion=\"ignore\"></div></a></div></div><div class=\" xdk7pt\"></div><div class=\"x1pi30zi x1swvt13\"><div class=\" xlup9mm\"></div><span class=\"x193iq5w xeuugli x13faqbe x1vvkbs x10flsy6 x1lliihq x1s928wv xhkezso x1gmr53x x1cpjm7i x1fgarty x1943h6x x4zkp8e x41vudc x6prxxf xvq8zen xo1l8bm xzsf02u\" dir=\"auto\"><div class=\"x11i5rnm xat24cr x1mh8g0r x1vvkbs xdj266r\">Bem-vindo ao MAAT, Museu de Arte, Arquitetura e Tecnologia.</div><div class=\"x11i5rnm xat24cr x1mh8g0r x1vvkbs xtlvy1s\">Welcome to MAAT, Museum of Art, Architecture and Technology.</div></span></div></div></div></div></div><div class=\"x1yztbdb\"><div class=\"x78zum5 x1n2onr6 xh8yej3\"><div class=\"x9f619 x1n2onr6 x1ja2u2z x2bj2ny x1qpq9i9 xdney7k xu5ydu1 xt3gfkd xh8yej3 x6ikm8r x10wlt62 xquyuld\" style=\"border-radius: max(0px, min(8px, ((100vw - 4px) - 100%) * 9999)) / 8px;\"><div class=\"x1l90r2v xyamay9\"><div class=\"x13fuv20 x26u7qi xu3j5b3 x1q0q8m5 x972fbf xm0m39n xcfux6l x1qhh985 x9f619 x78zum5 x1iyjqo2 xs83m0k xdj266r x11i5rnm xat24cr x1mh8g0r x2lwn1j xeuugli x1n2onr6 x1ja2u2z xuk3077 x1q0g3np x1qughib x1iorvi4 x1pi30zi x1l90r2v x1swvt13\"><div class=\"x78zum5 xdt5ytf x4cne27 xifccgj\"><div class=\"xzueoph x1k70j0n\"><h2 class=\"x1heor9g x1qlqyl8 x1pd3egz x1a2a7pz x193iq5w xeuugli\" dir=\"auto\"><span class=\"x193iq5w xeuugli x13faqbe x1vvkbs x10flsy6 x1lliihq x1s928wv xhkezso x1gmr53x x1cpjm7i x1fgarty x1943h6x x4zkp8e x41vudc x1603h9y x1u7k74 x1xlr1w8 xzsf02u x1yc453h\" dir=\"auto\" style=\"\">Guests</span></h2></div></div><div class=\"x1i10hfl xjbqb8w x6umtig x1b1mbwd xaqea5y xav7gou x9f619 x1ypdohk xt0psk2 xe8uvvx xdj266r x11i5rnm xat24cr x1mh8g0r xexx8yu x4uap5 x18d9i69 xkhd6sd x16tdsg8 x1hl2dhg xggy1nq x1a2a7pz x1heor9g xt0b8zv\" role=\"button\" tabindex=\"0\"><span class=\"x193iq5w xeuugli x13faqbe x1vvkbs x10flsy6 x1lliihq x1s928wv xhkezso x1gmr53x x1cpjm7i x1fgarty x1943h6x x4zkp8e x41vudc x6prxxf xvq8zen xo1l8bm x1fey0fg\" dir=\"auto\">See All</span></div></div><div class=\"x1pi30zi x1swvt13\"><div class=\"x9f619 x1n2onr6 x1ja2u2z x78zum5 x2lah0s x1qughib x1qjc9v5 xozqiw3 x1q0g3np xexx8yu\"><div class=\"x9f619 x1n2onr6 x1ja2u2z x78zum5 xdt5ytf x193iq5w xeuugli x1r8uery x1iyjqo2 xs83m0k\"><div class=\"x1i10hfl xjbqb8w x6umtig x1b1mbwd xaqea5y xav7gou x9f619 x1ypdohk xt0psk2 xe8uvvx xdj266r x11i5rnm xat24cr x1mh8g0r xexx8yu x4uap5 x18d9i69 xkhd6sd x16tdsg8 x1hl2dhg xggy1nq x1o1ewxj x3x9cwd x1e5q0jg x13rtm0m x1n2onr6 x87ps6o x1lku1pv x1a2a7pz\" role=\"button\" tabindex=\"0\"><div class=\"x6s0dn4 x78zum5 xdt5ytf x1l90r2v x1sxyh0 xurb0ha xyamay9\"><span class=\"x193iq5w xeuugli x13faqbe x1vvkbs x10flsy6 x1lliihq x1s928wv xhkezso x1gmr53x x1cpjm7i x1fgarty x1943h6x x4zkp8e x41vudc x1603h9y x1u7k74 x1xlr1w8 xzsf02u x2b8uid\" dir=\"auto\">0</span><div class=\"xdk7pt\"></div><span class=\"x193iq5w xeuugli x13faqbe x1vvkbs x10flsy6 x1lliihq x1s928wv xhkezso x1gmr53x x1cpjm7i x1fgarty x1943h6x x1tu3fi x3x7a5m x1nxh6w3 x1sibtaa x1s688f xi81zsa x2b8uid\" dir=\"auto\">GOING</span></div><div class=\"x1o1ewxj x3x9cwd x1e5q0jg x13rtm0m x1ey2m1c xds687c xg01cxk x47corl x10l6tqk x17qophe x13vifvy x1ebt8du x19991ni x1dhq9h\" data-visualcompletion=\"ignore\"></div></div></div><div class=\"x9f619 x1n2onr6 x1ja2u2z x78zum5 xdt5ytf x193iq5w xeuugli x1r8uery x1iyjqo2 xs83m0k\"><div class=\"x1i10hfl xjbqb8w x6umtig x1b1mbwd xaqea5y xav7gou x9f619 x1ypdohk xt0psk2 xe8uvvx xdj266r x11i5rnm xat24cr x1mh8g0r xexx8yu x4uap5 x18d9i69 xkhd6sd x16tdsg8 x1hl2dhg xggy1nq x1o1ewxj x3x9cwd x1e5q0jg x13rtm0m x1n2onr6 x87ps6o x1lku1pv x1a2a7pz\" role=\"button\" tabindex=\"0\"><div class=\"x6s0dn4 x78zum5 xdt5ytf x1l90r2v x1sxyh0 xurb0ha xyamay9\"><span class=\"x193iq5w xeuugli x13faqbe x1vvkbs x10flsy6 x1lliihq x1s928wv xhkezso x1gmr53x x1cpjm7i x1fgarty x1943h6x x4zkp8e x41vudc x1603h9y x1u7k74 x1xlr1w8 xzsf02u x2b8uid\" dir=\"auto\">2</span><div class=\"xdk7pt\"></div><span class=\"x193iq5w xeuugli x13faqbe x1vvkbs x10flsy6 x1lliihq x1s928wv xhkezso x1gmr53x x1cpjm7i x1fgarty x1943h6x x1tu3fi x3x7a5m x1nxh6w3 x1sibtaa x1s688f xi81zsa x2b8uid\" dir=\"auto\">INTERESTED</span></div><div class=\"x1o1ewxj x3x9cwd x1e5q0jg x13rtm0m x1ey2m1c xds687c xg01cxk x47corl x10l6tqk x17qophe x13vifvy x1ebt8du x19991ni x1dhq9h\" data-visualcompletion=\"ignore\"></div></div></div></div></div></div></div></div></div><div class=\"x1yztbdb\"><div class=\"x78zum5 x1n2onr6 xh8yej3\"><div class=\"x9f619 x1n2onr6 x1ja2u2z x2bj2ny x1qpq9i9 xdney7k xu5ydu1 xt3gfkd xh8yej3 x6ikm8r x10wlt62 xquyuld\" style=\"border-radius: max(0px, min(8px, ((100vw - 4px) - 100%) * 9999)) / 8px;\"><div class=\"x1l90r2v xyamay9\"><div class=\"x13fuv20 x26u7qi xu3j5b3 x1q0q8m5 x972fbf xm0m39n xcfux6l x1qhh985 x9f619 x78zum5 x1iyjqo2 xs83m0k xdj266r x11i5rnm xat24cr x1mh8g0r x2lwn1j xeuugli x1n2onr6 x1ja2u2z xuk3077 x1q0g3np x1qughib x1iorvi4 x1pi30zi x1l90r2v x1swvt13\"><div class=\"x78zum5 xdt5ytf x4cne27 xifccgj\"><div class=\"xzueoph x1k70j0n\"><h2 class=\"x1heor9g x1qlqyl8 x1pd3egz x1a2a7pz x193iq5w xeuugli\" dir=\"auto\"><span class=\"x193iq5w xeuugli x13faqbe x1vvkbs x10flsy6 x1lliihq x1s928wv xhkezso x1gmr53x x1cpjm7i x1fgarty x1943h6x x4zkp8e x41vudc x1603h9y x1u7k74 x1xlr1w8 xzsf02u x1yc453h\" dir=\"auto\" style=\"\">Host</span></h2></div></div></div><div class=\"x1e56ztr\"><div class=\" x1oo3vh0 x1rdy4ex\" role=\"list\"><div data-visualcompletion=\"ignore-dynamic\" role=\"listitem\" style=\"padding-left: 8px; padding-right: 8px;\"><a class=\"x1i10hfl x1qjc9v5 xjbqb8w xjqpnuy xa49m3k xqeqjp1 x2hbi6w x13fuv20 xu3j5b3 x1q0q8m5 x26u7qi x972fbf xcfux6l x1qhh985 xm0m39n x9f619 x1ypdohk xdl72j9 x2lah0s xe8uvvx xdj266r x11i5rnm xat24cr x1mh8g0r x2lwn1j xeuugli xexx8yu x4uap5 x18d9i69 xkhd6sd x1n2onr6 x16tdsg8 x1hl2dhg xggy1nq x1ja2u2z x1t137rt x1q0g3np x87ps6o x1lku1pv x1a2a7pz x1lq5wgf xgqcy7u x30kzoy x9jhf4c x1lliihq\" href=\"https://www.facebook.com/maatmuseum/\" role=\"link\" tabindex=\"0\"><div class=\"x6s0dn4 x1q0q8m5 x1qhh985 xu3j5b3 xcfux6l x26u7qi xm0m39n x13fuv20 x972fbf x9f619 x78zum5 x1q0g3np x1iyjqo2 xs83m0k x1qughib xat24cr x11i5rnm x1mh8g0r xdj266r xeuugli x18d9i69 x1sxyh0 xurb0ha xexx8yu x1n2onr6 x1ja2u2z x1gg8mnh\"><div class=\"x78zum5 xdt5ytf xq8finb x1xmf6yo x1e56ztr x1n2onr6 xqcrz7y\"><div class=\"x1rg5ohu x1n2onr6 x3ajldb x1ja2u2z\"><svg aria-hidden=\"true\" class=\"x3ajldb\" data-visualcompletion=\"ignore-dynamic\" role=\"none\" style=\"height: 36px; width: 36px;\"><mask id=\"jsc_c_3\"><circle cx=\"18\" cy=\"18\" fill=\"white\" r=\"18\"></circle></mask><g mask=\"url(#jsc_c_3)\"><image x=\"0\" y=\"0\" height=\"100%\" preserveAspectRatio=\"xMidYMid slice\" width=\"100%\" xlink:href=\"https://scontent.flis12-1.fna.fbcdn.net/v/t39.30808-1/305959587_8606774369347974_1015993990232937755_n.jpg?stp=cp0_dst-jpg_p40x40&amp;_nc_cat=102&amp;ccb=1-7&amp;_nc_sid=1eb0c7&amp;_nc_ohc=AJjEfQo_Y7QAX-2N_Hq&amp;_nc_ht=scontent.flis12-1.fna&amp;oh=00_AfBaqcZ0UC7kFxMgSzUJVd6aE5ferfTMGGyVnpHXq8ETwA&amp;oe=637CD9B1\" style=\"height: 36px; width: 36px;\"></image><circle class=\"x1pwv2dq xvlca1e xbh8q5q\" cx=\"18\" cy=\"18\" r=\"18\"></circle></g></svg></div></div><div class=\"x6s0dn4 xkh2ocl x1q0q8m5 x1qhh985 xu3j5b3 xcfux6l x26u7qi xm0m39n x13fuv20 x972fbf x9f619 x78zum5 x1q0g3np x1iyjqo2 xs83m0k x1qughib xat24cr x11i5rnm x1mh8g0r xdj266r x2lwn1j xeuugli x18d9i69 x4uap5 xkhd6sd xexx8yu x1n2onr6 x1ja2u2z\"><div class=\"x1q0q8m5 x1qhh985 xu3j5b3 xcfux6l x26u7qi xm0m39n x13fuv20 x972fbf x9f619 x78zum5 x1r8uery x1iyjqo2 xs83m0k x1qughib x11i5rnm x1mh8g0r x2lwn1j xeuugli x4uap5 xkhd6sd x1n2onr6 x1ja2u2z x1qjc9v5 xdt5ytf xat24cr xdj266r xz9dl7a xsag5q8\"><div class=\"\"><div class=\"x78zum5 xdt5ytf xz62fqu x16ldp7u\"><div class=\"xu06os2 x1ok221b\"><span class=\"x193iq5w xeuugli x13faqbe x1vvkbs x10flsy6 x1lliihq x1s928wv xhkezso x1gmr53x x1cpjm7i x1fgarty x1943h6x x4zkp8e x41vudc x6prxxf xvq8zen xo1l8bm xzsf02u x1yc453h\" dir=\"auto\"><span class=\"x1lliihq x6ikm8r x10wlt62 x1n2onr6\" style=\"-webkit-box-orient: vertical; -webkit-line-clamp: 2; display: -webkit-box;\"><span class=\"xt0psk2\"><span>MAAT - Museu de Arte, Arquitetura e Tecnologia</span></span><span class=\"x1e558r4\"><span class=\"xt0psk2\"><div aria-label=\"Verified\" class=\"x1i10hfl x1qjc9v5 xjbqb8w xjqpnuy xa49m3k xqeqjp1 x2hbi6w x13fuv20 xu3j5b3 x1q0q8m5 x26u7qi x972fbf xcfux6l x1qhh985 xm0m39n x9f619 xdl72j9 x2lah0s xe8uvvx xdj266r x11i5rnm xat24cr x1mh8g0r x2lwn1j xeuugli xexx8yu x4uap5 x18d9i69 xkhd6sd x1n2onr6 x16tdsg8 x1hl2dhg xggy1nq x1ja2u2z x1t137rt x1o1ewxj x3x9cwd x1e5q0jg x13rtm0m x3nfvp2 x1q0g3np x87ps6o x1lku1pv xt0e3qv x1a2a7pz\" role=\"button\" tabindex=\"0\" style=\"border: 1px solid red;\"><span class=\"x3nfvp2 x11njtxf\"><i data-visualcompletion=\"css-img\" aria-label=\"Verified account\" class=\"\" role=\"img\" style=\"background-image: url(&quot;https://static.xx.fbcdn.net/rsrc.php/v3/yC/r/Jq576limb6l.png&quot;); background-position: -73px -84px; background-size: auto; width: 12px; height: 12px; background-repeat: no-repeat; display: inline-block;\"></i></span><div class=\"x1ey2m1c xds687c xg01cxk x47corl x10l6tqk x17qophe x13vifvy x1ebt8du x19991ni x1dhq9h x14yjl9h xudhj91 x18nykt9 xww2gxu\" data-visualcompletion=\"ignore\"></div></div></span></span></span></span></div><div class=\"xu06os2 x1ok221b\"><span class=\"x193iq5w xeuugli x13faqbe x1vvkbs x10flsy6 x1lliihq x1s928wv xhkezso x1gmr53x x1cpjm7i x1fgarty x1943h6x x1tu3fi x3x7a5m x1nxh6w3 x1sibtaa xo1l8bm x12scifz x1yc453h\" dir=\"auto\"><span>Contemporary Art Museum</span></span></div></div></div></div></div></div><div class=\"x1o1ewxj x3x9cwd x1e5q0jg x13rtm0m x1ey2m1c xds687c xg01cxk x47corl x10l6tqk x17qophe x13vifvy x1ebt8du x19991ni x1dhq9h\" data-visualcompletion=\"ignore\"></div></a></div></div></div></div></div></div></div><footer aria-label=\"Facebook\" role=\"contentinfo\"><span class=\"x193iq5w xeuugli x13faqbe x1vvkbs x10flsy6 x1lliihq x1s928wv xhkezso x1gmr53x x1cpjm7i x1fgarty x1943h6x x1tu3fi x3x7a5m x1nxh6w3 x1sibtaa xo1l8bm xi81zsa\" dir=\"auto\"><ul class=\"xt0psk2\"><li class=\"xt0psk2\"><a class=\"x1i10hfl xjbqb8w x6umtig x1b1mbwd xaqea5y xav7gou x9f619 x1ypdohk xt0psk2 xe8uvvx xdj266r x11i5rnm xat24cr x1mh8g0r xexx8yu x4uap5 x18d9i69 xkhd6sd x16tdsg8 x1hl2dhg xggy1nq x1a2a7pz xt0b8zv xi81zsa xo1l8bm\" href=\"/privacy/explanation/\" role=\"link\" tabindex=\"0\">Privacy</a><span><span class=\"xzpqnlu xjm9jq1 x6ikm8r x10wlt62 x10l6tqk x1i1rx1s\">&nbsp;</span><span aria-hidden=\"true\"> · </span></span></li><li class=\"xt0psk2\"><a class=\"x1i10hfl xjbqb8w x6umtig x1b1mbwd xaqea5y xav7gou x9f619 x1ypdohk xt0psk2 xe8uvvx xdj266r x11i5rnm xat24cr x1mh8g0r xexx8yu x4uap5 x18d9i69 xkhd6sd x16tdsg8 x1hl2dhg xggy1nq x1a2a7pz xt0b8zv xi81zsa xo1l8bm\" href=\"/policies?ref=pf\" role=\"link\" tabindex=\"0\">Terms</a><span><span class=\"xzpqnlu xjm9jq1 x6ikm8r x10wlt62 x10l6tqk x1i1rx1s\">&nbsp;</span><span aria-hidden=\"true\"> · </span></span></li><li class=\"xt0psk2\"><a class=\"x1i10hfl xjbqb8w x6umtig x1b1mbwd xaqea5y xav7gou x9f619 x1ypdohk xt0psk2 xe8uvvx xdj266r x11i5rnm xat24cr x1mh8g0r xexx8yu x4uap5 x18d9i69 xkhd6sd x16tdsg8 x1hl2dhg xggy1nq x1a2a7pz xt0b8zv xi81zsa xo1l8bm\" href=\"/business/\" role=\"link\" tabindex=\"0\">Advertising</a><span><span class=\"xzpqnlu xjm9jq1 x6ikm8r x10wlt62 x10l6tqk x1i1rx1s\">&nbsp;</span><span aria-hidden=\"true\"> · </span></span></li><li class=\"xt0psk2\"><a class=\"x1i10hfl xjbqb8w x6umtig x1b1mbwd xaqea5y xav7gou x9f619 x1ypdohk xt0psk2 xe8uvvx xdj266r x11i5rnm xat24cr x1mh8g0r xexx8yu x4uap5 x18d9i69 xkhd6sd x16tdsg8 x1hl2dhg xggy1nq x1a2a7pz xt0b8zv xi81zsa xo1l8bm\" href=\"/help/568137493302217\" role=\"link\" tabindex=\"0\" style=\"border: 1px solid red;\">Ad Choices <span class=\"x1n2onr6 x1qiirwl\"><i data-visualcompletion=\"css-img\" class=\"x1b0d499 x1d69dk1\" style=\"background-image: url(&quot;https://static.xx.fbcdn.net/rsrc.php/v3/yC/r/Jq576limb6l.png&quot;); background-position: -86px -84px; background-size: auto; width: 12px; height: 12px; background-repeat: no-repeat; display: inline-block;\"></i></span></a><span><span class=\"xzpqnlu xjm9jq1 x6ikm8r x10wlt62 x10l6tqk x1i1rx1s\">&nbsp;</span><span aria-hidden=\"true\"> · </span></span></li><li class=\"xt0psk2\"><a class=\"x1i10hfl xjbqb8w x6umtig x1b1mbwd xaqea5y xav7gou x9f619 x1ypdohk xt0psk2 xe8uvvx xdj266r x11i5rnm xat24cr x1mh8g0r xexx8yu x4uap5 x18d9i69 xkhd6sd x16tdsg8 x1hl2dhg xggy1nq x1a2a7pz xt0b8zv xi81zsa xo1l8bm\" href=\"/policies/cookies/\" role=\"link\" tabindex=\"0\">Cookies</a><span><span class=\"xzpqnlu xjm9jq1 x6ikm8r x10wlt62 x10l6tqk x1i1rx1s\">&nbsp;</span><span aria-hidden=\"true\"> · </span></span></li><li class=\"xt0psk2\"><div aria-expanded=\"false\" aria-haspopup=\"menu\" class=\"x1i10hfl xjbqb8w x6umtig x1b1mbwd xaqea5y xav7gou x9f619 x1ypdohk xt0psk2 xe8uvvx xdj266r x11i5rnm xat24cr x1mh8g0r xexx8yu x4uap5 x18d9i69 xkhd6sd x16tdsg8 x1hl2dhg xggy1nq x1o1ewxj x3x9cwd x1e5q0jg x13rtm0m x1n2onr6 x87ps6o x1lku1pv x1a2a7pz\" role=\"button\" tabindex=\"0\">More</div><span><span class=\"xzpqnlu xjm9jq1 x6ikm8r x10wlt62 x10l6tqk x1i1rx1s\">&nbsp;</span><span aria-hidden=\"true\"> · </span></span></li></ul>Meta © 2022</span></footer></div></div></div></div></div></div></div></div>",
 "href": "https://www.facebook.com/events/1186134042337515/1186134055670847/?acontext=%7B%22event_action_history%22%3A[%7B%22mechanism%22%3A%22search_results%22%2C%22surface%22%3A%22bookmark_search%22%7D]%2C%22ref_notif_type%22%3Anull%7D",
 "update": 1,
 "randomUUID": "esrz3dj1g7iey4d3sxqnc",
 "clientTime": "2022-11-19T11:06:09+00:00",
 "type": "liberated"
}