{
 "textnest": [
  {},
  [
   {},
   [
    {},
    [
     {},
     [
      {},
      [
       {},
       [
        {
         "text": "Details"
        }
       ]
      ]
     ]
    ]
   ]
  ],
  [
   {},
   [
    {},
    [
     {},
     [
      {},
      [
       {}
      ]
     ],
     [
      {},
      [
       {},
       [
        {},
        [
         {},
         [
          {
           "text": "471 people responded"
          }
         ]
        ]
       ]
      ]
     ]
    ]
   ],
   [
    {}
   ]
  ],
  [
   {},
   [
    {},
    [
     {},
     [
      {},
      [
       {}
      ]
     ],
     [
      {},
      [
       {},
       [
        {},
        [
         {},
         [
          {
           "text": "Event by"
          }
         ],
         [
          {},
          [
           {
            "text": "Kingstar Music",
            "href": "https://www.facebook.com/kingstarmusic/",
            "rect": {
             "x": 659.5333251953125,
             "y": -247.5,
             "width": 107.41665649414062,
             "height": 16,
             "top": -247.5,
             "right": 766.9499816894531,
             "bottom": -231.5,
             "left": 659.5333251953125
            }
           },
           [
            {
             "text": "Kingstar Music"
            }
           ]
          ]
         ],
         [
          {
           "text": "and"
          }
         ],
         [
          {},
          [
           {
            "text": "Schlachthof Wiesbaden",
            "href": "https://www.facebook.com/SchlachthofWiesbaden",
            "rect": {
             "x": 800.2833251953125,
             "y": -247.5,
             "width": 169.21665954589844,
             "height": 16,
             "top": -247.5,
             "right": 969.4999847412109,
             "bottom": -231.5,
             "left": 800.2833251953125
            }
           },
           [
            {
             "text": "Schlachthof Wiesbaden"
            }
           ]
          ]
         ]
        ]
       ]
      ]
     ]
    ]
   ]
  ],
  [
   {},
   [
    {},
    [
     {},
     [
      {},
      [
       {}
      ]
     ],
     [
      {},
      [
       {},
       [
        {},
        [
         {},
         [
          {
           "text": "Schlachthof Wiesbaden",
           "href": "https://facebook.com/SchlachthofWiesbaden",
           "rect": {
            "x": 598,
            "y": -209.5,
            "width": 157.3333282470703,
            "height": 16,
            "top": -209.5,
            "right": 755.3333282470703,
            "bottom": -193.5,
            "left": 598
           }
          },
          [
           {
            "text": "Schlachthof Wiesbaden"
           }
          ]
         ]
        ]
       ]
      ]
     ]
    ]
   ]
  ],
  [
   {},
   [
    {},
    [
     {},
     [
      {},
      [
       {}
      ]
     ],
     [
      {},
      [
       {},
       [
        {},
        [
         {},
         [
          {
           "text": "Tickets"
          }
         ]
        ]
       ],
       [
        {},
        [
         {},
         [
          {
           "text": "www.schlachthof-wiesbaden.de/programmdetails/items/stick-to-your-guns-2022.html"
          }
         ]
        ]
       ]
      ]
     ]
    ]
   ]
  ],
  [
   {},
   [
    {},
    [
     {},
     [
      {},
      [
       {}
      ]
     ],
     [
      {},
      [
       {},
       [
        {},
        [
         {},
         [
          {
           "text": "Public"
          }
         ],
         [
          {},
          [
           {},
           [
            {}
           ]
          ],
          [
           {},
           [
            {
             "text": "·"
            }
           ]
          ]
         ],
         [
          {
           "text": "Anyone on or off Facebook"
          }
         ]
        ]
       ]
      ]
     ]
    ]
   ]
  ],
  [
   {},
   [
    {},
    [
     {},
     [
      {},
      [
       {
        "text": "29.11.22 DI / EINLASS 18:30 / BEGINN 19:00 / AK 44,00 € / VVK 35,00 € (zzgl. Gebühren / inkl. Bus & Bahn)"
       }
      ]
     ],
     [
      {},
      [
       {
        "text": "STICK TO YOUR GUNS /  Special Guests: KNOCKED LOOSE / LANDMVRKS / SOUL BLIND"
       }
      ],
      [
       {}
      ],
      [
       {
        "text": "Hardcore / Metalcore Konzert in der HALLE"
       }
      ]
     ],
     [
      {},
      [
       {
        "text": "Spectre Record Release Tour 2022 - Gute Nachricht: Stick To Your Guns aus Orange County, Kalifornien, haben eine gemeinsame Deutschlandtour mit Knocked Loose, Landmvrks und Soul Blind angekündigt. Im Gepäck haben sie ihr jüngstes Album „Spectre“, ein Gedicht von einem Album! Kein Wunder, zurecht gelten Stick To Your Guns als eine der abwechslungsreichsten Modern-Hardcore-Bands der Gegenwart, die Persönliches und Politisches wie keine zweite in furiose Mosh-Breakdowns, kraftvolle Refrains und Singalongs à gogo verpacken. Ohnehin ist dieser Abend nicht weniger als eine Metalcore-Powerhouse-Roadshow vor dem Herrn. Genau richtig, um die von vorgestern noch verspannten Nackenmuskeln wieder locker zu schütteln."
       }
      ]
     ],
     [
      {},
      [
       {
        "text": "STICK TO YOUR GUNS"
       }
      ],
      [
       {}
      ],
      [
       {
        "text": "http://www.sticktoyourguns.net",
        "href": "http://www.sticktoyourguns.net/",
        "rect": {
         "x": 565,
         "y": 199.5,
         "width": 202.1999969482422,
         "height": 16,
         "top": 199.5,
         "right": 767.1999969482422,
         "bottom": 215.5,
         "left": 565
        }
       },
       [
        {
         "text": "http://www.sticktoyourguns.net"
        }
       ]
      ],
      [
       {}
      ],
      [
       {
        "text": "https://www.facebook.com/STYGoc",
        "href": "https://www.facebook.com/STYGoc?__cft__[0]=AZVJSeuoGI9xAtLJdF0TqBNYpvGwn6gZ6szu-2pf6VBxEMKH-5yeUwIvd_jqkVC7Evn20Zubwsq7W0WJ9rbMM89jpG5FVxmBa7n9XX0nCXwGlBtX-qeSbIYXRl2__ogsI6Y&__tn__=q",
        "rect": {
         "x": 565,
         "y": 219.5,
         "width": 252.3000030517578,
         "height": 16,
         "top": 219.5,
         "right": 817.3000030517578,
         "bottom": 235.5,
         "left": 565
        }
       },
       [
        {
         "text": "https://www.facebook.com/STYGoc"
        }
       ]
      ],
      [
       {}
      ],
      [
       {
        "text": "https://www.youtube.com/watch?v=LdN-VOSgkWU",
        "href": "https://www.youtube.com/watch?v=LdN-VOSgkWU",
        "rect": {
         "x": 565,
         "y": 239.5,
         "width": 337.433349609375,
         "height": 16,
         "top": 239.5,
         "right": 902.433349609375,
         "bottom": 255.5,
         "left": 565
        }
       },
       [
        {
         "text": "https://www.youtube.com/watch?v=LdN-VOSgkWU"
        }
       ]
      ],
      [
       {}
      ],
      [
       {
        "text": "https://www.youtube.com/watch?v=FYrZfF9eK_k",
        "href": "https://www.youtube.com/watch?v=FYrZfF9eK_k",
        "rect": {
         "x": 565,
         "y": 259.5,
         "width": 322.41668701171875,
         "height": 16,
         "top": 259.5,
         "right": 887.4166870117188,
         "bottom": 275.5,
         "left": 565
        }
       },
       [
        {
         "text": "https://www.youtube.com/watch?v=FYrZfF9eK_k"
        }
       ]
      ]
     ],
     [
      {},
      [
       {
        "text": "KNOCKED LOOSE"
       }
      ],
      [
       {}
      ],
      [
       {
        "text": "http://knockedloosehc.com",
        "href": "http://knockedloosehc.com/",
        "rect": {
         "x": 565,
         "y": 307,
         "width": 178.31666564941406,
         "height": 16,
         "top": 307,
         "right": 743.3166656494141,
         "bottom": 323,
         "left": 565
        }
       },
       [
        {
         "text": "http://knockedloosehc.com"
        }
       ]
      ],
      [
       {}
      ],
      [
       {
        "text": "https://www.facebook.com/KnockedLoose/",
        "href": "https://www.facebook.com/KnockedLoose/?__cft__[0]=AZVJSeuoGI9xAtLJdF0TqBNYpvGwn6gZ6szu-2pf6VBxEMKH-5yeUwIvd_jqkVC7Evn20Zubwsq7W0WJ9rbMM89jpG5FVxmBa7n9XX0nCXwGlBtX-qeSbIYXRl2__ogsI6Y&__tn__=q",
        "rect": {
         "x": 565,
         "y": 327,
         "width": 306.5333251953125,
         "height": 16,
         "top": 327,
         "right": 871.5333251953125,
         "bottom": 343,
         "left": 565
        }
       },
       [
        {
         "text": "https://www.facebook.com/KnockedLoose/"
        }
       ]
      ],
      [
       {}
      ],
      [
       {
        "text": "https://www.youtube.com/watch?v=jOB3IYBcJEE",
        "href": "https://www.youtube.com/watch?v=jOB3IYBcJEE",
        "rect": {
         "x": 565,
         "y": 347,
         "width": 326.566650390625,
         "height": 16,
         "top": 347,
         "right": 891.566650390625,
         "bottom": 363,
         "left": 565
        }
       },
       [
        {
         "text": "https://www.youtube.com/watch?v=jOB3IYBcJEE"
        }
       ]
      ]
     ],
     [
      {},
      [
       {
        "text": "LANDMVRKS"
       }
      ],
      [
       {}
      ],
      [
       {
        "text": "http://www.landmvrks.com",
        "href": "http://www.landmvrks.com/",
        "rect": {
         "x": 565,
         "y": 394.5,
         "width": 174.60000610351562,
         "height": 16,
         "top": 394.5,
         "right": 739.6000061035156,
         "bottom": 410.5,
         "left": 565
        }
       },
       [
        {
         "text": "http://www.landmvrks.com"
        }
       ]
      ],
      [
       {}
      ],
      [
       {
        "text": "https://www.facebook.com/LANDMVRKS/",
        "href": "https://www.facebook.com/LANDMVRKS/?__cft__[0]=AZVJSeuoGI9xAtLJdF0TqBNYpvGwn6gZ6szu-2pf6VBxEMKH-5yeUwIvd_jqkVC7Evn20Zubwsq7W0WJ9rbMM89jpG5FVxmBa7n9XX0nCXwGlBtX-qeSbIYXRl2__ogsI6Y&__tn__=q",
        "rect": {
         "x": 565,
         "y": 414.5,
         "width": 294.6166687011719,
         "height": 16,
         "top": 414.5,
         "right": 859.6166687011719,
         "bottom": 430.5,
         "left": 565
        }
       },
       [
        {
         "text": "https://www.facebook.com/LANDMVRKS/"
        }
       ]
      ],
      [
       {}
      ],
      [
       {
        "text": "https://www.youtube.com/watch?v=FDfLreAO9Ow",
        "href": "https://www.youtube.com/watch?v=FDfLreAO9Ow",
        "rect": {
         "x": 565,
         "y": 434.5,
         "width": 331.7833251953125,
         "height": 16,
         "top": 434.5,
         "right": 896.7833251953125,
         "bottom": 450.5,
         "left": 565
        }
       },
       [
        {
         "text": "https://www.youtube.com/watch?v=FDfLreAO9Ow"
        }
       ]
      ],
      [
       {}
      ],
      [
       {
        "text": "https://www.youtube.com/watch?v=UGA9eze0OrA",
        "href": "https://www.youtube.com/watch?v=UGA9eze0OrA",
        "rect": {
         "x": 565,
         "y": 454.5,
         "width": 333.3500061035156,
         "height": 16,
         "top": 454.5,
         "right": 898.3500061035156,
         "bottom": 470.5,
         "left": 565
        }
       },
       [
        {
         "text": "https://www.youtube.com/watch?v=UGA9eze0OrA"
        }
       ]
      ]
     ],
     [
      {},
      [
       {
        "text": "SOUL BLIND"
       }
      ],
      [
       {}
      ],
      [
       {
        "text": "https://www.facebook.com/Soulblindband",
        "href": "https://www.facebook.com/Soulblindband?__cft__[0]=AZVJSeuoGI9xAtLJdF0TqBNYpvGwn6gZ6szu-2pf6VBxEMKH-5yeUwIvd_jqkVC7Evn20Zubwsq7W0WJ9rbMM89jpG5FVxmBa7n9XX0nCXwGlBtX-qeSbIYXRl2__ogsI6Y&__tn__=q",
        "rect": {
         "x": 565,
         "y": 502,
         "width": 298.83331298828125,
         "height": 16,
         "top": 502,
         "right": 863.8333129882812,
         "bottom": 518,
         "left": 565
        }
       },
       [
        {
         "text": "https://www.facebook.com/Soulblindband"
        }
       ]
      ],
      [
       {}
      ],
      [
       {
        "text": "https://soulblind.bandcamp.com",
        "href": "https://soulblind.bandcamp.com/",
        "rect": {
         "x": 565,
         "y": 522,
         "width": 211.36666870117188,
         "height": 16,
         "top": 522,
         "right": 776.3666687011719,
         "bottom": 538,
         "left": 565
        }
       },
       [
        {
         "text": "https://soulblind.bandcamp.com"
        }
       ]
      ],
      [
       {}
      ],
      [
       {},
       [
        {
         "text": "See less"
        }
       ]
      ]
     ]
    ],
    [
     {},
     [
      {},
      [
       {
        "text": "Music & audio",
        "href": "https://www.facebook.com/events/discovery/?suggestion_token=%7B%22event_categories%22%3A%5B10155994924430727%5D%7D",
        "rect": {
         "x": 565,
         "y": 555,
         "width": 104.18333435058594,
         "height": 25,
         "top": 555,
         "right": 669.1833343505859,
         "bottom": 580,
         "left": 565
        }
       },
       [
        {},
        [
         {},
         [
          {
           "text": "Music & audio"
          }
         ]
        ]
       ]
      ]
     ]
    ]
   ]
  ]
 ],
 "date": "TOMORROW AT 4:30 PM",
 "place": {
  "desc": [
   "Schlachthof Wiesbaden",
   "Murnaustr. 1, Wiesbaden"
  ],
  "href": "https://facebook.com/SchlachthofWiesbaden"
 },
 "title": "STICK TO YOUR GUNS / Special Guests: KNOCKED LOOSE / LANDMVRKS / SOUL BLIND • Schlachthof Wiesbaden",
 "details": [
  {
   "hash": -1615722439,
   "order": 0,
   "text": "Interested",
   "size": 305,
   "rect": {
    "x": 1316.316650390625,
    "y": -404,
    "width": 16,
    "height": 16,
    "top": -404,
    "right": 1332.316650390625,
    "bottom": -388,
    "left": 1316.316650390625
   }
  },
  {
   "hash": -1511646562,
   "order": 1,
   "text": "Going",
   "size": 305,
   "rect": {
    "x": 1443.9666748046875,
    "y": -404,
    "width": 16,
    "height": 16,
    "top": -404,
    "right": 1459.9666748046875,
    "bottom": -388,
    "left": 1443.9666748046875
   }
  },
  {
   "hash": 1605658388,
   "order": 2,
   "text": "Invite",
   "size": 305,
   "rect": {
    "x": 1543.300048828125,
    "y": -404,
    "width": 16,
    "height": 16,
    "top": -404,
    "right": 1559.300048828125,
    "bottom": -388,
    "left": 1543.300048828125
   }
  },
  {
   "hash": 98752129,
   "order": 3,
   "text": "",
   "size": 307,
   "rect": {
    "x": 1642,
    "y": -404,
    "width": 16,
    "height": 16,
    "top": -404,
    "right": 1658,
    "bottom": -388,
    "left": 1642
   }
  },
  {
   "hash": -1895992089,
   "order": 4,
   "text": "",
   "size": 307,
   "rect": {
    "x": 1700,
    "y": -404,
    "width": 16,
    "height": 16,
    "top": -404,
    "right": 1716,
    "bottom": -388,
    "left": 1700
   }
  },
  {
   "hash": 228497327,
   "order": 5,
   "text": "471 people responded",
   "size": 307,
   "rect": {
    "x": 566,
    "y": -288,
    "width": 20,
    "height": 20,
    "top": -288,
    "right": 586,
    "bottom": -268,
    "left": 566
   }
  },
  {
   "hash": 526586217,
   "order": 6,
   "text": "Event by Kingstar Music and Schlachthof Wiesbaden",
   "size": 305,
   "rect": {
    "x": 566,
    "y": -250,
    "width": 20,
    "height": 20,
    "top": -250,
    "right": 586,
    "bottom": -230,
    "left": 566
   },
   "links": [
    {
     "text": "Kingstar Music",
     "href": "https://www.facebook.com/kingstarmusic/"
    },
    {
     "text": "Schlachthof Wiesbaden",
     "href": "https://www.facebook.com/SchlachthofWiesbaden"
    }
   ]
  },
  {
   "hash": 213451086,
   "order": 7,
   "text": "Schlachthof Wiesbaden",
   "size": 306,
   "rect": {
    "x": 566,
    "y": -212,
    "width": 20,
    "height": 20,
    "top": -212,
    "right": 586,
    "bottom": -192,
    "left": 566
   },
   "links": [
    {
     "text": "Schlachthof Wiesbaden",
     "href": "https://facebook.com/SchlachthofWiesbaden"
    }
   ]
  },
  {
   "hash": 1308977930,
   "order": 8,
   "text": "Ticketswww.schlachthof-wiesbaden.de/programmdetails/items/stick-to-your-guns-2022.html",
   "size": 305,
   "rect": {
    "x": 566,
    "y": -174,
    "width": 20,
    "height": 20,
    "top": -174,
    "right": 586,
    "bottom": -154,
    "left": 566
   }
  },
  {
   "hash": 928870881,
   "order": 9,
   "text": "Public  · Anyone on or off Facebook",
   "size": 305,
   "rect": {
    "x": 566,
    "y": -126,
    "width": 20,
    "height": 20,
    "top": -126,
    "right": 586,
    "bottom": -106,
    "left": 566
   }
  },
  {
   "hash": 808460001,
   "order": 10,
   "text": "Like",
   "size": 306,
   "rect": {
    "x": 695.2166748046875,
    "y": 1011,
    "width": 16,
    "height": 16,
    "top": 1011,
    "right": 711.2166748046875,
    "bottom": 1027,
    "left": 695.2166748046875
   }
  },
  {
   "hash": 196545510,
   "order": 11,
   "text": "Event Transparency",
   "size": 302,
   "rect": {
    "x": 564,
    "y": 1112,
    "width": 24,
    "height": 24,
    "top": 1112,
    "right": 588,
    "bottom": 1136,
    "left": 564
   }
  },
  {
   "hash": 1135260767,
   "order": 12,
   "text": "Find Tickets",
   "size": 305,
   "rect": {
    "x": 1433.449951171875,
    "y": 157,
    "width": 16,
    "height": 16,
    "top": 157,
    "right": 1449.449951171875,
    "bottom": 173,
    "left": 1433.449951171875
   }
  },
  {
   "hash": 1042016577,
   "order": 13,
   "text": "",
   "size": 306,
   "rect": {
    "x": 1702,
    "y": 551.5,
    "width": 16,
    "height": 16,
    "top": 551.5,
    "right": 1718,
    "bottom": 567.5,
    "left": 1702
   }
  },
  {
   "hash": -1559565644,
   "order": 14,
   "text": "Ad Choices ",
   "size": 309,
   "rect": {
    "x": 1658.9000244140625,
    "y": 867.75,
    "width": 12,
    "height": 12,
    "top": 867.75,
    "right": 1670.9000244140625,
    "bottom": 879.75,
    "left": 1658.9000244140625
   }
  }
 ],
 "element": "<div aria-label=\"Event Permalink\" role=\"main\" class=\"x9f619 x1n2onr6 x1ja2u2z xdt5ytf x193iq5w xeuugli x1r8uery x1iyjqo2 xs83m0k x78zum5 x1t2pt76\"><div class=\"x78zum5 xdt5ytf x1iyjqo2 x1t2pt76 xeuugli x1n2onr6 x1ja2u2z\"><div class=\"x78zum5 xdt5ytf x1t2pt76 x1n2onr6\" role=\"main\"><div><div class=\"\"><div class=\"x9f619 x1n2onr6 x1ja2u2z x78zum5 x2lah0s xl56j7k x1qjc9v5 xozqiw3 x1q0g3np x1ve1bff\"><div style=\"min-height: 80px;\" class=\"x9f619 x1n2onr6 x1ja2u2z x193iq5w xeuugli x1r8uery x1iyjqo2 xs83m0k x78zum5 xdt5ytf\"><div class=\"x9f619 x1n2onr6 x1ja2u2z x78zum5 x2lah0s xl56j7k x1qjc9v5 xozqiw3 x1q0g3np\"><div class=\"x1ey2m1c x9f619 xds687c x6ikm8r x10wlt62 x10l6tqk x17qophe x13vifvy\"><div class=\"xqtp20y x1n2onr6 xh8yej3\" style=\"left: 50%; position: absolute; top: 0px; transform: translateX(-50%); padding-top: 125%;\"><div class=\"x1qjc9v5 x1q0q8m5 x1qhh985 xu3j5b3 xcfux6l x26u7qi xm0m39n x13fuv20 x972fbf x1ey2m1c x9f619 x78zum5 xds687c xdt5ytf x1iyjqo2 xs83m0k x1qughib xat24cr x11i5rnm x1mh8g0r xdj266r x2lwn1j xeuugli x18d9i69 x4uap5 xkhd6sd xexx8yu x10l6tqk x17qophe x13vifvy x1ja2u2z\"><img alt=\"\" class=\"x1ey2m1c x9f619 xds687c x5yr21d x10l6tqk x17qophe x13vifvy xh8yej3\" referrerpolicy=\"origin-when-cross-origin\" src=\"https://scontent-frx5-1.xx.fbcdn.net/v/t39.30808-6/294871463_5274288899291476_1031158567310110396_n.jpg?stp=dst-jpg_fb50_s320x320&amp;_nc_cat=100&amp;ccb=1-7&amp;_nc_sid=340051&amp;_nc_ohc=7fKD1MJqLcUAX_VHaCr&amp;_nc_ht=scontent-frx5-1.xx&amp;oh=00_AfDWAb2ksb87kOIjjN6bfuUtFHajhRrMyJNynHQstb4tLw&amp;oe=638A941F\"></div></div><div class=\" xyuz3pd x1ey2m1c x9f619 xds687c x10l6tqk x17qophe x13vifvy\"></div></div><div class=\"x9f619 x1n2onr6 x1ja2u2z xeuugli x1r8uery x1iyjqo2 xs83m0k x6s0dn4 x78zum5 xdt5ytf xl56j7k x1uyial6 x1rr25im x1xh8ygx\"><div class=\"x6ikm8r x10wlt62 x1n2onr6 xh8yej3 xric181 x30kzoy x9jhf4c x1nxjzwp xd7htx2\" style=\"border-radius: 0px 0px max(0px, min(8px, -999900% - 39996px + 999900vw)) max(0px, min(8px, -999900% - 39996px + 999900vw)) / 0px 0px 8px 8px;\"><a aria-label=\"May be an image of text\" class=\"x1i10hfl xjbqb8w x6umtig x1b1mbwd xaqea5y xav7gou x9f619 x1ypdohk xe8uvvx xdj266r x11i5rnm xat24cr x1mh8g0r xexx8yu x4uap5 x18d9i69 xkhd6sd x16tdsg8 x1hl2dhg xggy1nq x1o1ewxj x3x9cwd x1e5q0jg x13rtm0m x1n2onr6 x87ps6o x1lku1pv x1a2a7pz x1lliihq\" href=\"https://www.facebook.com/SchlachthofWiesbaden/photos/gm.3239841642954754/5274288929291473/\" role=\"link\" tabindex=\"0\"><div class=\"xqtp20y x1n2onr6 xh8yej3 x6ikm8r x10wlt62\" style=\"padding-top: 52.6316%;\"><div class=\"x1qjc9v5 x1q0q8m5 x1qhh985 xu3j5b3 xcfux6l x26u7qi xm0m39n x13fuv20 x972fbf x1ey2m1c x9f619 x78zum5 xds687c xdt5ytf x1iyjqo2 xs83m0k x1qughib xat24cr x11i5rnm x1mh8g0r xdj266r x2lwn1j xeuugli x18d9i69 x4uap5 xkhd6sd xexx8yu x10l6tqk x17qophe x13vifvy x1ja2u2z\"><div class=\"xqtp20y x1n2onr6 xh8yej3 x6ikm8r x10wlt62\" style=\"left: 50%; position: absolute; top: 1.27551%; transform: translate(-50%, -1.27551%); padding-top: 125%;\"><div class=\"x1qjc9v5 x1q0q8m5 x1qhh985 xu3j5b3 xcfux6l x26u7qi xm0m39n x13fuv20 x972fbf x1ey2m1c x9f619 x78zum5 xds687c xdt5ytf x1iyjqo2 xs83m0k x1qughib xat24cr x11i5rnm x1mh8g0r xdj266r x2lwn1j xeuugli x18d9i69 x4uap5 xkhd6sd xexx8yu x10l6tqk x17qophe x13vifvy x1ja2u2z\"><img data-imgperflogname=\"profileCoverPhoto\" alt=\"\" class=\"x1ey2m1c x9f619 xds687c x5yr21d x10l6tqk x17qophe x13vifvy xh8yej3\" referrerpolicy=\"origin-when-cross-origin\" src=\"https://scontent-frx5-1.xx.fbcdn.net/v/t39.30808-6/294871463_5274288899291476_1031158567310110396_n.jpg?stp=dst-jpg_s960x960&amp;_nc_cat=100&amp;ccb=1-7&amp;_nc_sid=340051&amp;_nc_ohc=7fKD1MJqLcUAX_VHaCr&amp;_nc_ht=scontent-frx5-1.xx&amp;oh=00_AfDBlJY45WWC1wM7dGSIPpHqdE91LzU9zehfZINJ0OBJsw&amp;oe=638A941F\"></div></div></div></div></a></div></div></div></div></div><div class=\"x9f619 x1n2onr6 x1ja2u2z x78zum5 x2lah0s xl56j7k x1qjc9v5 xozqiw3 x1q0g3np x1l90r2v x1ve1bff\"><div class=\"x9f619 x1n2onr6 x1ja2u2z x78zum5 xdt5ytf xeuugli x1r8uery x1iyjqo2 xs83m0k x1swvt13 x1pi30zi xqdwrps x16i7wwg x1y5dvz6\"><div class=\"xuk3077 xqcrz7y x78zum5 xqtp20y xw7yly9\"><div class=\"x9f619 x1n2onr6 x1ja2u2z x78zum5 x2lah0s x1qughib x1qjc9v5 xozqiw3 x1q0g3np xn6708d x1ye3gou xyamay9 xykv574 xbmpl8g x4cne27 xifccgj\"><div class=\"x9f619 x1n2onr6 x1ja2u2z x78zum5 xdt5ytf x2lah0s x193iq5w xeuugli xsyo7zv x16hj40l x10b6aqq x1yrsyyn\"><div class=\"x1qjc9v5 x1jx94hy x1lq5wgf xgqcy7u x30kzoy x9jhf4c xetbsjj x78zum5 xdt5ytf xwzfr38 x6ikm8r x10wlt62 x1dmp6jm\"><div class=\"x1py5hnd x1qx5ct2\"></div><div class=\"xzsf02u x78zum5 x13wtedm x1s688f xng8ra xl56j7k\">29</div></div></div></div></div><div class=\"xqcrz7y xh8yej3\"><div class=\"x9f619 x1n2onr6 x1ja2u2z x78zum5 x2lah0s x1qughib xuk3077 xozqiw3 x1q0g3np xn6708d x1ye3gou xyamay9 x1n0m28w xp7jhwk x1wsgfga x9otpla\"><div class=\"x9f619 x1n2onr6 x1ja2u2z x78zum5 xdt5ytf x193iq5w xeuugli x1r8uery x1iyjqo2 xs83m0k x1sxyh0 xurb0ha xwib8y2 x1y1aw1k\"><div><div class=\"x78zum5 xdt5ytf x1wsgfga x9otpla\"><div class=\"x1e56ztr x1xmf6yo\"><span class=\"x193iq5w xeuugli x13faqbe x1vvkbs x10flsy6 x1lliihq x1s928wv xhkezso x1gmr53x x1cpjm7i x1fgarty x1943h6x x4zkp8e x41vudc x6prxxf xvq8zen x1xlr1w8 x1a1m0xk x1yc453h\" dir=\"auto\">TOMORROW AT 4:30 PM</span></div><div class=\"x1e56ztr x1xmf6yo\"><h2 class=\"x1heor9g x1qlqyl8 x1pd3egz x1a2a7pz x193iq5w xeuugli\" dir=\"auto\"><span class=\"x193iq5w xeuugli x13faqbe x1vvkbs x10flsy6 x1lliihq x1s928wv xhkezso x1gmr53x x1cpjm7i x1fgarty x1943h6x xudqn12 x1g2y4wz x1q74xe4 xyesn5m x1xlr1w8 xzsf02u x1yc453h\" dir=\"auto\" style=\"\"><span class=\"x1lliihq x6ikm8r x10wlt62 x1n2onr6\" style=\"-moz-box-orient: vertical; -webkit-line-clamp: 2; display: -webkit-box;\"><span class=\"\">STICK TO YOUR GUNS / Special Guests: KNOCKED LOOSE / LANDMVRKS / SOUL BLIND • Schlachthof Wiesbaden</span></span></span></h2></div><div class=\"x1e56ztr x1xmf6yo\"><span class=\"x193iq5w xeuugli x13faqbe x1vvkbs x10flsy6 x1lliihq x1s928wv xhkezso x1gmr53x x1cpjm7i x1fgarty x1943h6x x1tu3fi x41vudc x1lkfr7t x1lbecb7 xo1l8bm xi81zsa x1yc453h\" dir=\"auto\"><span class=\"x1lliihq x6ikm8r x10wlt62 x1n2onr6 xlyipyv xuxw1ft\">Schlachthof Wiesbaden</span></span></div></div></div></div><div class=\"x9f619 x1n2onr6 x1ja2u2z x78zum5 xdt5ytf x2lah0s x193iq5w xeuugli x1sxyh0 xurb0ha xwib8y2 x1y1aw1k\"><div class=\"x12rz0ws\"><div class=\"x9f619 x1n2onr6 x1ja2u2z x78zum5 x2lah0s x1qughib x1qjc9v5 xozqiw3 x1q0g3np xyamay9 xykv574 xbmpl8g x4cne27 xifccgj\"></div></div></div></div></div></div></div><div class=\"x9f619 x1n2onr6 x1ja2u2z x78zum5 x2lah0s xl56j7k x1qjc9v5 xozqiw3 x1q0g3np x1ve1bff\"><div class=\"x9f619 x1n2onr6 x1ja2u2z x78zum5 xdt5ytf xeuugli x1r8uery x1iyjqo2 xs83m0k x1swvt13 x1pi30zi xqdwrps x16i7wwg x1y5dvz6\"><div class=\" x1n2xptk\"></div></div></div></div><div class=\"x9f619 x1n2onr6 x1ja2u2z\"></div><div style=\"top: 56px; z-index: 1;\" class=\"x9f619 x1ja2u2z x1xzczws x7wzq59\"><div class=\"x9f619 x1n2onr6 x1ja2u2z x78zum5 xl56j7k x1qjc9v5 xozqiw3 x1q0g3np x1ve1bff xvo6coq x2lah0s\"><div class=\"x9f619 x1n2onr6 x1ja2u2z x78zum5 xdt5ytf xeuugli x1r8uery x1iyjqo2 xs83m0k x1swvt13 x1pi30zi xqdwrps x16i7wwg x1y5dvz6\"><div class=\"x9f619 x1n2onr6 x1ja2u2z x78zum5 x2lah0s x1qughib x6s0dn4 xozqiw3 x1q0g3np\"><div class=\"x9f619 x1n2onr6 x1ja2u2z x78zum5 xdt5ytf x193iq5w xeuugli x1r8uery x1iyjqo2 xs83m0k\"><div class=\"x9f619 x1ja2u2z x6ikm8r x10wlt62 x1n2onr6\"><div class=\"x9f619 x1n2onr6 x1ja2u2z xhb22t3 x11xpdln x1jrttnq x105ttfm\"><div class=\"x9f619 x1n2onr6 x1ja2u2z x78zum5 x2lah0s x1qughib x1qjc9v5 xozqiw3 x1q0g3np x879a55 xg01cxk xlshs6z x1bvr7z4 x1jl3cmp xu06nn8\"><div class=\"x9f619 x1n2onr6 x1ja2u2z x78zum5 xdt5ytf x193iq5w xeuugli x1r8uery x1iyjqo2 xs83m0k\"><div class=\"x7s6sir\"><div class=\"x4k7w5x x1h91t0o x1beo9mf xaigb6o x12ejxvf x3igimt xarpa2k xedcshv x1lytzrv x1t2pt76 x7ja8zs x1n2onr6 x1qrby5j x1jfb8zj\"><div class=\"xng8ra x6ikm8r x10wlt62 x1n2onr6 xh8yej3 x1ja2u2z x1a2a7pz\" role=\"tablist\" data-visualcompletion=\"ignore-dynamic\"><div class=\"x14ju556 x1n2onr6\"><div class=\"x6ikm8r x10wlt62 xlshs6z\"><div class=\"x6s0dn4 x9f619 x2lah0s x1hshjfz x1n2onr6 x3nfvp2 xrbpyxo x16dsc37 xng8ra x1pi30zi x1swvt13\"><span class=\"x193iq5w xeuugli x13faqbe x1vvkbs x10flsy6 x1lliihq x1s928wv xhkezso x1gmr53x x1cpjm7i x1fgarty x1943h6x x4zkp8e x41vudc x6prxxf xvq8zen x1s688f x1qq9wsj\" dir=\"auto\">About</span><div class=\" x11t77rh x146dn1l x1ey2m1c xds687c xuoj239 x10l6tqk x17qophe\" style=\"background-color: var(--accent);\"></div></div><div class=\"x6s0dn4 x9f619 x2lah0s x1hshjfz x1n2onr6 x3nfvp2 xrbpyxo x16dsc37 xng8ra x1pi30zi x1swvt13\"><span class=\"x193iq5w xeuugli x13faqbe x1vvkbs x10flsy6 x1lliihq x1s928wv xhkezso x1gmr53x x1cpjm7i x1fgarty x1943h6x x4zkp8e x41vudc x6prxxf xvq8zen x1s688f xi81zsa\" dir=\"auto\">Discussion</span><div class=\"\"></div></div></div><div class=\"x1ey2m1c x9f619 xds687c x10l6tqk x17qophe x13vifvy\"><div class=\"x1rg5ohu x1n2onr6 x16dsc37 x192njpj x1x4j4od x1jquxbb x2lwn1j x6ikm8r x10wlt62\"><div aria-disabled=\"true\" aria-haspopup=\"menu\" aria-hidden=\"true\" aria-selected=\"true\" class=\"x1i10hfl x6umtig x1b1mbwd xaqea5y xav7gou xe8uvvx xggy1nq x1o1ewxj x3x9cwd x1e5q0jg x13rtm0m x87ps6o x1lku1pv x1a2a7pz xjyslct xjbqb8w x18o3ruo x13fuv20 xu3j5b3 x1q0q8m5 x26u7qi x972fbf xcfux6l x1qhh985 xm0m39n x9f619 x1heor9g x1ypdohk x78zum5 xdj266r x11i5rnm xat24cr x1mh8g0r xexx8yu x4uap5 x18d9i69 xkhd6sd x16tdsg8 x1hl2dhg x1vjfegm xng8ra x10l6tqk x17qophe x13vifvy\" role=\"tab\"><div class=\"x6s0dn4 x9f619 x78zum5 x2lah0s x1hshjfz x1n2onr6 xng8ra x1pi30zi x1swvt13\"><span class=\"x193iq5w xeuugli x13faqbe x1vvkbs x10flsy6 x1lliihq x1s928wv xhkezso x1gmr53x x1cpjm7i x1fgarty x1943h6x x4zkp8e x41vudc x6prxxf xvq8zen x1s688f x1qq9wsj\" dir=\"auto\">More</span><div class=\"x14ju556 xsgj6o6\"><svg fill=\"currentColor\" viewBox=\"0 0 20 20\" width=\"1em\" height=\"1em\" class=\"x1lliihq x1k90msu x2h7rmj x1qfuztq x1qq9wsj xlup9mm x1kky2od\"><path d=\"M10 14a1 1 0 0 1-.755-.349L5.329 9.182a1.367 1.367 0 0 1-.205-1.46A1.184 1.184 0 0 1 6.2 7h7.6a1.18 1.18 0 0 1 1.074.721 1.357 1.357 0 0 1-.2 1.457l-3.918 4.473A1 1 0 0 1 10 14z\"></path></svg></div><div class=\" x11t77rh x146dn1l x1ey2m1c xds687c xuoj239 x10l6tqk x17qophe\" style=\"background-color: var(--accent);\"></div></div></div></div><a aria-disabled=\"true\" aria-hidden=\"true\" aria-selected=\"true\" class=\"x1i10hfl x6umtig x1b1mbwd xaqea5y xav7gou xe8uvvx xggy1nq x1o1ewxj x3x9cwd x1e5q0jg x13rtm0m x87ps6o x1lku1pv x1a2a7pz xjyslct xjbqb8w x18o3ruo x13fuv20 xu3j5b3 x1q0q8m5 x26u7qi x972fbf xcfux6l x1qhh985 xm0m39n x9f619 x1heor9g x1ypdohk xdj266r x11i5rnm xat24cr x1mh8g0r xexx8yu x4uap5 x18d9i69 xkhd6sd x1n2onr6 x16tdsg8 x1hl2dhg x1vjfegm x3nfvp2 xrbpyxo xng8ra x16dsc37\" role=\"tab\" tabindex=\"-1\"><div class=\"x6s0dn4 x9f619 x78zum5 x2lah0s x1hshjfz x1n2onr6 xng8ra x1pi30zi x1swvt13\"><span class=\"x193iq5w xeuugli x13faqbe x1vvkbs x10flsy6 x1lliihq x1s928wv xhkezso x1gmr53x x1cpjm7i x1fgarty x1943h6x x4zkp8e x41vudc x6prxxf xvq8zen x1s688f x1qq9wsj\" dir=\"auto\">About</span><div class=\" x11t77rh x146dn1l x1ey2m1c xds687c xuoj239 x10l6tqk x17qophe\" style=\"background-color: var(--accent);\"></div></div></a><a aria-disabled=\"true\" aria-hidden=\"true\" aria-selected=\"false\" class=\"x1i10hfl x6umtig x1b1mbwd xaqea5y xav7gou xe8uvvx xggy1nq x1o1ewxj x3x9cwd x1e5q0jg x13rtm0m x87ps6o x1lku1pv x1a2a7pz xjyslct xjbqb8w x18o3ruo x13fuv20 xu3j5b3 x1q0q8m5 x26u7qi x972fbf xcfux6l x1qhh985 xm0m39n x9f619 x1heor9g x1ypdohk xdj266r x11i5rnm xat24cr x1mh8g0r xexx8yu x4uap5 x18d9i69 xkhd6sd x1n2onr6 x16tdsg8 x1hl2dhg x1vjfegm x3nfvp2 xrbpyxo xng8ra x16dsc37\" role=\"tab\" tabindex=\"-1\"><div class=\"x6s0dn4 x9f619 x78zum5 x2lah0s x1hshjfz x1n2onr6 xng8ra x1pi30zi x1swvt13\"><span class=\"x193iq5w xeuugli x13faqbe x1vvkbs x10flsy6 x1lliihq x1s928wv xhkezso x1gmr53x x1cpjm7i x1fgarty x1943h6x x4zkp8e x41vudc x6prxxf xvq8zen x1s688f xi81zsa\" dir=\"auto\">Discussion</span><div class=\"\"></div></div><div class=\"x1o1ewxj x3x9cwd x1e5q0jg x13rtm0m x1ey2m1c xds687c xg01cxk x47corl x10l6tqk x17qophe x13vifvy x1ebt8du x19991ni x1dhq9h\" data-visualcompletion=\"ignore\"></div></a></div></div></div></div></div></div></div><div class=\"x9f619 x1ja2u2z x78zum5 x2lah0s x1qughib x1qjc9v5 xozqiw3 x1q0g3np x5yr21d x10l6tqk xdsb8wn xh8yej3 x1hc1fzr xnpuxes x2r5gy4 x1jl3cmp xu06nn8\"><div class=\"x9f619 x1n2onr6 x1ja2u2z x78zum5 xdt5ytf x2lah0s x193iq5w xeuugli xamitd3\"><div class=\"x9f619 x1n2onr6 x1ja2u2z x78zum5 x2lah0s x1nhvcw1 x1qjc9v5 xozqiw3 x1q0g3np\"><div class=\"x9f619 x1n2onr6 x1ja2u2z x78zum5 xdt5ytf x2lah0s x193iq5w xeuugli\"><div data-visualcompletion=\"ignore-dynamic\" style=\"padding-left: 8px; padding-right: 8px;\"><a class=\"x1i10hfl x1qjc9v5 xjbqb8w xjqpnuy xa49m3k xqeqjp1 x2hbi6w x13fuv20 xu3j5b3 x1q0q8m5 x26u7qi x972fbf xcfux6l x1qhh985 xm0m39n x9f619 x1ypdohk xdl72j9 x2lah0s xe8uvvx xdj266r x11i5rnm xat24cr x1mh8g0r x2lwn1j xeuugli xexx8yu x4uap5 x18d9i69 xkhd6sd x1n2onr6 x16tdsg8 x1hl2dhg xggy1nq x1ja2u2z x1t137rt x1q0g3np x87ps6o x1lku1pv x1a2a7pz x1lq5wgf xgqcy7u x30kzoy x9jhf4c x1lliihq\" href=\"https://www.facebook.com/events/3239841529621432/\" role=\"link\" tabindex=\"0\"><div class=\"x6s0dn4 x1q0q8m5 x1qhh985 xu3j5b3 xcfux6l x26u7qi xm0m39n x13fuv20 x972fbf x9f619 x78zum5 x1q0g3np x1iyjqo2 xs83m0k x1qughib xat24cr x11i5rnm x1mh8g0r xdj266r xeuugli x18d9i69 x1sxyh0 xurb0ha xexx8yu x1n2onr6 x1ja2u2z x1gg8mnh\"><div class=\"x78zum5 xdt5ytf xq8finb x1xmf6yo x1e56ztr x1n2onr6 xamitd3\"><div class=\"x1rg5ohu x1n2onr6 x3ajldb x1ja2u2z\"><svg aria-hidden=\"true\" class=\"x3ajldb\" data-visualcompletion=\"ignore-dynamic\" role=\"none\" style=\"height: 40px; width: 40px;\"><mask id=\"jsc_c_13\"><rect cy=\"20\" fill=\"white\" height=\"40\" rx=\"8\" ry=\"8\" width=\"40\" x=\"0\" y=\"0\"></rect></mask><g mask=\"url(#jsc_c_13)\"><image style=\"height: 40px; width: 40px;\" x=\"0\" y=\"0\" height=\"100%\" preserveAspectRatio=\"xMidYMid slice\" width=\"100%\" xlink:href=\"https://scontent-frx5-1.xx.fbcdn.net/v/t39.30808-6/294871463_5274288899291476_1031158567310110396_n.jpg?stp=c0.4.50.50a_cp0_dst-jpg_p50x50&amp;_nc_cat=100&amp;ccb=1-7&amp;_nc_sid=c39e3b&amp;_nc_ohc=7fKD1MJqLcUAX_VHaCr&amp;_nc_ht=scontent-frx5-1.xx&amp;oh=00_AfCsFSOInWnDimvp0voWbi_GpUslWH1RDwsQE1EI7AK1xQ&amp;oe=638A941F\"></image><rect class=\"x1pwv2dq xvlca1e xbh8q5q\" cy=\"20\" fill=\"white\" height=\"40\" rx=\"8\" ry=\"8\" width=\"40\" x=\"0\" y=\"0\"></rect></g></svg></div></div><div class=\"x6s0dn4 xkh2ocl x1q0q8m5 x1qhh985 xu3j5b3 xcfux6l x26u7qi xm0m39n x13fuv20 x972fbf x9f619 x78zum5 x1q0g3np x1iyjqo2 xs83m0k x1qughib xat24cr x11i5rnm x1mh8g0r xdj266r x2lwn1j xeuugli x18d9i69 x4uap5 xkhd6sd xexx8yu x1n2onr6 x1ja2u2z\"><div class=\"x1q0q8m5 x1qhh985 xu3j5b3 xcfux6l x26u7qi xm0m39n x13fuv20 x972fbf x9f619 x78zum5 x1r8uery x1iyjqo2 xs83m0k x1qughib x11i5rnm x1mh8g0r x2lwn1j xeuugli x4uap5 xkhd6sd x1n2onr6 x1ja2u2z x1qjc9v5 xdt5ytf xat24cr xdj266r xz9dl7a xsag5q8\"><div class=\"\"><div class=\"x78zum5 xdt5ytf xz62fqu x16ldp7u\"><div class=\"xu06os2 x1ok221b\"><span class=\"x193iq5w xeuugli x13faqbe x1vvkbs x10flsy6 x1lliihq x1s928wv xhkezso x1gmr53x x1cpjm7i x1fgarty x1943h6x x1tu3fi x41vudc x1lkfr7t x1lbecb7 xk50ysn xzsf02u x1yc453h\" dir=\"auto\"><span class=\"x1lliihq x6ikm8r x10wlt62 x1n2onr6 xlyipyv xuxw1ft\">STICK TO YOUR GUNS / Special Guests: KNOCKED LOOSE / LANDMVRKS / SOUL BLIND • Schlachthof Wiesbaden</span></span></div></div></div></div></div></div><div class=\"x1o1ewxj x3x9cwd x1e5q0jg x13rtm0m x1ey2m1c xds687c xg01cxk x47corl x10l6tqk x17qophe x13vifvy x1ebt8du x19991ni x1dhq9h\" data-visualcompletion=\"ignore\"></div></a></div></div></div></div></div></div></div></div><div class=\"x9f619 x1n2onr6 x1ja2u2z x78zum5 xdt5ytf x2lah0s x193iq5w xeuugli xamitd3\"><div class=\"x6s0dn4 x78zum5 xng8ra\"><div class=\"x1i64zmx\"><div class=\"x78zum5\"><div class=\"xh8yej3\"><div aria-label=\"Interested\" class=\"x1i10hfl xjbqb8w x6umtig x1b1mbwd xaqea5y xav7gou x1ypdohk xe8uvvx xdj266r x11i5rnm xat24cr x1mh8g0r xexx8yu x4uap5 x18d9i69 xkhd6sd x16tdsg8 x1hl2dhg xggy1nq x1o1ewxj x3x9cwd x1e5q0jg x13rtm0m x87ps6o x1lku1pv x1a2a7pz x9f619 x3nfvp2 xdt5ytf xl56j7k x1n2onr6 xh8yej3\" role=\"button\" tabindex=\"0\"><div class=\"x1n2onr6 x1ja2u2z x78zum5 x2lah0s xl56j7k x6s0dn4 xozqiw3 x1q0g3np xi112ho x17zwfj4 x585lrc x1403ito x972fbf xcfux6l x1qhh985 xm0m39n x9f619 xn6708d x1ye3gou x1qhmfi1 x1r1pt67\"><div class=\"x6s0dn4 x78zum5 xl56j7k x1608yet xljgi0e x1e0frkt\" style=\"border: 1px solid red;\"><div class=\"x9f619 x1n2onr6 x1ja2u2z x193iq5w xeuugli x6s0dn4 x78zum5 x2lah0s x1fbi1t2 xl8fo4v\"><i data-visualcompletion=\"css-img\" class=\"x1b0d499 xep6ejk\" style=\"background-image: url(&quot;https://static.xx.fbcdn.net/rsrc.php/v3/y0/r/01lDCkDq6LW.png&quot;); background-position: 0px -611px; background-size: auto; width: 16px; height: 16px; background-repeat: no-repeat; display: inline-block;\"></i></div><div class=\"x9f619 x1n2onr6 x1ja2u2z x193iq5w xeuugli x6s0dn4 x78zum5 x2lah0s x1fbi1t2 xl8fo4v\"><span class=\"x193iq5w xeuugli x13faqbe x1vvkbs x10flsy6 x1lliihq x1s928wv xhkezso x1gmr53x x1cpjm7i x1fgarty x1943h6x x4zkp8e x41vudc x6prxxf xvq8zen x1s688f x1dem4cn\" dir=\"auto\"><span class=\"x1lliihq x6ikm8r x10wlt62 x1n2onr6 xlyipyv xuxw1ft\">Interested</span></span></div></div><div class=\"x1o1ewxj x3x9cwd x1e5q0jg x13rtm0m x1ey2m1c xds687c xg01cxk x47corl x10l6tqk x17qophe x13vifvy x1ebt8du x19991ni x1dhq9h\" data-visualcompletion=\"ignore\"></div></div></div></div><div class=\"xurb0ha\"></div><div class=\"xh8yej3\"><div aria-label=\"Going\" class=\"x1i10hfl xjbqb8w x6umtig x1b1mbwd xaqea5y xav7gou x1ypdohk xe8uvvx xdj266r x11i5rnm xat24cr x1mh8g0r xexx8yu x4uap5 x18d9i69 xkhd6sd x16tdsg8 x1hl2dhg xggy1nq x1o1ewxj x3x9cwd x1e5q0jg x13rtm0m x87ps6o x1lku1pv x1a2a7pz x9f619 x3nfvp2 xdt5ytf xl56j7k x1n2onr6 xh8yej3\" role=\"button\" tabindex=\"0\"><div class=\"x1n2onr6 x1ja2u2z x78zum5 x2lah0s xl56j7k x6s0dn4 xozqiw3 x1q0g3np xi112ho x17zwfj4 x585lrc x1403ito x972fbf xcfux6l x1qhh985 xm0m39n x9f619 xn6708d x1ye3gou x1qhmfi1 x1r1pt67\"><div class=\"x6s0dn4 x78zum5 xl56j7k x1608yet xljgi0e x1e0frkt\" style=\"border: 1px solid red;\"><div class=\"x9f619 x1n2onr6 x1ja2u2z x193iq5w xeuugli x6s0dn4 x78zum5 x2lah0s x1fbi1t2 xl8fo4v\"><i data-visualcompletion=\"css-img\" class=\"x1b0d499 xep6ejk\" style=\"background-image: url(&quot;https://static.xx.fbcdn.net/rsrc.php/v3/y0/r/01lDCkDq6LW.png&quot;); background-position: 0px -407px; background-size: auto; width: 16px; height: 16px; background-repeat: no-repeat; display: inline-block;\"></i></div><div class=\"x9f619 x1n2onr6 x1ja2u2z x193iq5w xeuugli x6s0dn4 x78zum5 x2lah0s x1fbi1t2 xl8fo4v\"><span class=\"x193iq5w xeuugli x13faqbe x1vvkbs x10flsy6 x1lliihq x1s928wv xhkezso x1gmr53x x1cpjm7i x1fgarty x1943h6x x4zkp8e x41vudc x6prxxf xvq8zen x1s688f x1dem4cn\" dir=\"auto\"><span class=\"x1lliihq x6ikm8r x10wlt62 x1n2onr6 xlyipyv xuxw1ft\">Going</span></span></div></div><div class=\"x1o1ewxj x3x9cwd x1e5q0jg x13rtm0m x1ey2m1c xds687c xg01cxk x47corl x10l6tqk x17qophe x13vifvy x1ebt8du x19991ni x1dhq9h\" data-visualcompletion=\"ignore\"></div></div></div></div></div></div><div class=\"x1i64zmx\"><div aria-label=\"Invite\" class=\"x1i10hfl xjbqb8w x6umtig x1b1mbwd xaqea5y xav7gou x1ypdohk xe8uvvx xdj266r x11i5rnm xat24cr x1mh8g0r xexx8yu x4uap5 x18d9i69 xkhd6sd x16tdsg8 x1hl2dhg xggy1nq x1o1ewxj x3x9cwd x1e5q0jg x13rtm0m x87ps6o x1lku1pv x1a2a7pz x9f619 x3nfvp2 xdt5ytf xl56j7k x1n2onr6 xh8yej3\" role=\"button\" tabindex=\"0\"><div class=\"x1n2onr6 x1ja2u2z x78zum5 x2lah0s xl56j7k x6s0dn4 xozqiw3 x1q0g3np xi112ho x17zwfj4 x585lrc x1403ito x972fbf xcfux6l x1qhh985 xm0m39n x9f619 xn6708d x1ye3gou x1qhmfi1 x1r1pt67\"><div class=\"x6s0dn4 x78zum5 xl56j7k x1608yet xljgi0e x1e0frkt\" style=\"border: 1px solid red;\"><div class=\"x9f619 x1n2onr6 x1ja2u2z x193iq5w xeuugli x6s0dn4 x78zum5 x2lah0s x1fbi1t2 xl8fo4v\"><i data-visualcompletion=\"css-img\" class=\"x1b0d499 xep6ejk\" style=\"background-image: url(&quot;https://static.xx.fbcdn.net/rsrc.php/v3/y0/r/01lDCkDq6LW.png&quot;); background-position: 0px -441px; background-size: auto; width: 16px; height: 16px; background-repeat: no-repeat; display: inline-block;\"></i></div><div class=\"x9f619 x1n2onr6 x1ja2u2z x193iq5w xeuugli x6s0dn4 x78zum5 x2lah0s x1fbi1t2 xl8fo4v\"><span class=\"x193iq5w xeuugli x13faqbe x1vvkbs x10flsy6 x1lliihq x1s928wv xhkezso x1gmr53x x1cpjm7i x1fgarty x1943h6x x4zkp8e x41vudc x6prxxf xvq8zen x1s688f x1dem4cn\" dir=\"auto\"><span class=\"x1lliihq x6ikm8r x10wlt62 x1n2onr6 xlyipyv xuxw1ft\">Invite</span></span></div></div><div class=\"x1o1ewxj x3x9cwd x1e5q0jg x13rtm0m x1ey2m1c xds687c xg01cxk x47corl x10l6tqk x17qophe x13vifvy x1ebt8du x19991ni x1dhq9h\" data-visualcompletion=\"ignore\"></div></div></div></div><div class=\"x1i64zmx\"><div aria-label=\"Share\" class=\"x1i10hfl xjbqb8w x6umtig x1b1mbwd xaqea5y xav7gou x1ypdohk xe8uvvx xdj266r x11i5rnm xat24cr x1mh8g0r xexx8yu x4uap5 x18d9i69 xkhd6sd x16tdsg8 x1hl2dhg xggy1nq x1o1ewxj x3x9cwd x1e5q0jg x13rtm0m x87ps6o x1lku1pv x1a2a7pz x9f619 x3nfvp2 xdt5ytf xl56j7k x1n2onr6 xh8yej3\" role=\"button\" tabindex=\"0\"><div class=\"x1n2onr6 x1ja2u2z x78zum5 x2lah0s xl56j7k x6s0dn4 xozqiw3 x1q0g3np xi112ho x17zwfj4 x585lrc x1403ito x972fbf xcfux6l x1qhh985 xm0m39n x9f619 x1qhmfi1 x1r1pt67 x1pi30zi x1swvt13\"><div class=\"x6s0dn4 x78zum5 xl56j7k x1608yet xljgi0e x1e0frkt\" style=\"border: 1px solid red;\"><div class=\"x9f619 x1n2onr6 x1ja2u2z x193iq5w xeuugli x6s0dn4 x78zum5 x2lah0s x1fbi1t2 xl8fo4v\"><i data-visualcompletion=\"css-img\" class=\"x1b0d499 xep6ejk\" style=\"background-image: url(&quot;https://static.xx.fbcdn.net/rsrc.php/v3/yz/r/t4SObw3ynhJ.png&quot;); background-position: -17px -320px; background-size: auto; width: 16px; height: 16px; background-repeat: no-repeat; display: inline-block;\"></i></div></div><div class=\"x1o1ewxj x3x9cwd x1e5q0jg x13rtm0m x1ey2m1c xds687c xg01cxk x47corl x10l6tqk x17qophe x13vifvy x1ebt8du x19991ni x1dhq9h\" data-visualcompletion=\"ignore\"></div></div></div></div><div class=\"x1i64zmx\"><div aria-label=\"More\" class=\"x1i10hfl xjbqb8w x6umtig x1b1mbwd xaqea5y xav7gou x1ypdohk xe8uvvx xdj266r x11i5rnm xat24cr x1mh8g0r xexx8yu x4uap5 x18d9i69 xkhd6sd x16tdsg8 x1hl2dhg xggy1nq x1o1ewxj x3x9cwd x1e5q0jg x13rtm0m x87ps6o x1lku1pv x1a2a7pz x9f619 x3nfvp2 xdt5ytf xl56j7k x1n2onr6 xh8yej3\" role=\"button\" tabindex=\"0\"><div class=\"x1n2onr6 x1ja2u2z x78zum5 x2lah0s xl56j7k x6s0dn4 xozqiw3 x1q0g3np xi112ho x17zwfj4 x585lrc x1403ito x972fbf xcfux6l x1qhh985 xm0m39n x9f619 x1qhmfi1 x1r1pt67 x1pi30zi x1swvt13\"><div class=\"x6s0dn4 x78zum5 xl56j7k x1608yet xljgi0e x1e0frkt\" style=\"border: 1px solid red;\"><div class=\"x9f619 x1n2onr6 x1ja2u2z x193iq5w xeuugli x6s0dn4 x78zum5 x2lah0s x1fbi1t2 xl8fo4v\"><i data-visualcompletion=\"css-img\" class=\"x1b0d499 xep6ejk\" style=\"background-image: url(&quot;https://static.xx.fbcdn.net/rsrc.php/v3/yI/r/PZYo-Qx6hO6.png&quot;); background-position: -17px -147px; background-size: auto; width: 16px; height: 16px; background-repeat: no-repeat; display: inline-block;\"></i></div></div><div class=\"x1o1ewxj x3x9cwd x1e5q0jg x13rtm0m x1ey2m1c xds687c xg01cxk x47corl x10l6tqk x17qophe x13vifvy x1ebt8du x19991ni x1dhq9h\" data-visualcompletion=\"ignore\"></div></div></div></div></div></div></div></div></div></div></div><div class=\" x6s0dn4 x78zum5 xdt5ytf x193iq5w\"><div class=\"x193iq5w\"><div class=\"x9f619 x193iq5w x1talbiv x1sltb1f x3fxtfs x1swvt13 x1pi30zi xyamay9\"><div class=\"x9f619 x1n2onr6 x1ja2u2z x2lah0s x1qjc9v5 x78zum5 x1q0g3np xl56j7k x8hhl5t x9otpla x1n0m28w x1wsgfga xp7jhwk\"><div class=\"x9f619 x1n2onr6 x1ja2u2z xeuugli xs83m0k x1xmf6yo x1emribx x1e56ztr x1i64zmx xjl7jj x19h7ccj xu9j1y6 x7ep2pv\"><div class=\"x1yztbdb\"><div class=\"x78zum5 x1n2onr6 xh8yej3\"><div style=\"border-radius: max(0px, min(8px, -999900% - 39996px + 999900vw)) / 8px;\" class=\"x9f619 x1n2onr6 x1ja2u2z x2bj2ny x1qpq9i9 xdney7k xu5ydu1 xt3gfkd xh8yej3 x6ikm8r x10wlt62 xquyuld\"><div class=\"x1l90r2v xyamay9\" style=\"border: 2px solid yellow;\"><div class=\"x13fuv20 x26u7qi xu3j5b3 x1q0q8m5 x972fbf xm0m39n xcfux6l x1qhh985 x9f619 x78zum5 x1iyjqo2 xs83m0k xdj266r x11i5rnm xat24cr x1mh8g0r x2lwn1j xeuugli x1n2onr6 x1ja2u2z xuk3077 x1q0g3np x1qughib x1iorvi4 x1pi30zi x1l90r2v x1swvt13\"><div class=\"x78zum5 xdt5ytf x4cne27 xifccgj\"><div class=\"xzueoph x1k70j0n\"><h2 class=\"x1heor9g x1qlqyl8 x1pd3egz x1a2a7pz x193iq5w xeuugli\" dir=\"auto\"><span class=\"x193iq5w xeuugli x13faqbe x1vvkbs x10flsy6 x1lliihq x1s928wv xhkezso x1gmr53x x1cpjm7i x1fgarty x1943h6x x4zkp8e x41vudc x1603h9y x1u7k74 x1xlr1w8 xzsf02u x1yc453h\" dir=\"auto\" style=\"\">Details</span></h2></div></div></div><div class=\"x1i10hfl x6umtig x1b1mbwd xaqea5y xav7gou x1ypdohk xe8uvvx x1hl2dhg xggy1nq x1o1ewxj x3x9cwd x1e5q0jg x13rtm0m x87ps6o x1lku1pv x1a2a7pz xjyslct xjbqb8w x972fbf xcfux6l x1qhh985 xm0m39n x9f619 x1rg5ohu xdj266r x11i5rnm xat24cr x1mh8g0r xexx8yu x4uap5 x18d9i69 xkhd6sd x1n2onr6 x16tdsg8 xh8yej3\" role=\"button\" tabindex=\"0\"><div class=\"x78zum5 xdt5ytf xwib8y2 x1y1aw1k\"><div class=\"x9f619 x1n2onr6 x1ja2u2z x78zum5 x2lah0s x1nhvcw1 x1cy8zhl xozqiw3 x1q0g3np x1pi30zi x1swvt13 xexx8yu xykv574 xbmpl8g x4cne27 xifccgj\" style=\"border: 1px solid red;\"><div class=\"x9f619 x1n2onr6 x1ja2u2z x78zum5 xdt5ytf x2lah0s x193iq5w xeuugli xsyo7zv x16hj40l x10b6aqq x1yrsyyn\"><i data-visualcompletion=\"css-img\" class=\"x1b0d499 xuo83w3\" style=\"background-image: url(&quot;https://static.xx.fbcdn.net/rsrc.php/v3/yI/r/PZYo-Qx6hO6.png&quot;); background-position: -84px -105px; background-size: auto; width: 20px; height: 20px; background-repeat: no-repeat; display: inline-block;\"></i></div><div class=\"x9f619 x1n2onr6 x1ja2u2z x78zum5 xdt5ytf x193iq5w xeuugli x1r8uery x1iyjqo2 xs83m0k xamitd3 xsyo7zv x16hj40l x10b6aqq x1yrsyyn\"><div class=\"x78zum5 xdt5ytf xz62fqu x16ldp7u\"><div class=\"xu06os2 x1ok221b\"><span class=\"x193iq5w xeuugli x13faqbe x1vvkbs x10flsy6 x1lliihq x1s928wv xhkezso x1gmr53x x1cpjm7i x1fgarty x1943h6x x4zkp8e x41vudc x6prxxf xvq8zen xo1l8bm xzsf02u x1yc453h\" dir=\"auto\">471 people responded</span></div></div></div></div></div><div class=\"x1o1ewxj x3x9cwd x1e5q0jg x13rtm0m x1ey2m1c xds687c xg01cxk x47corl x10l6tqk x17qophe x13vifvy x1ebt8du x19991ni x1dhq9h\" data-visualcompletion=\"ignore\"></div></div><div class=\"xjyslct xjbqb8w x972fbf xcfux6l x1qhh985 xm0m39n x9f619 x1rg5ohu xdj266r x11i5rnm xat24cr x1mh8g0r xexx8yu x4uap5 x18d9i69 xkhd6sd x1n2onr6 x16tdsg8 xh8yej3\"><div class=\"x78zum5 xdt5ytf xwib8y2 x1y1aw1k\"><div class=\"x9f619 x1n2onr6 x1ja2u2z x78zum5 x2lah0s x1nhvcw1 x1cy8zhl xozqiw3 x1q0g3np x1pi30zi x1swvt13 xexx8yu xykv574 xbmpl8g x4cne27 xifccgj\" style=\"border: 1px solid red;\"><div class=\"x9f619 x1n2onr6 x1ja2u2z x78zum5 xdt5ytf x2lah0s x193iq5w xeuugli xsyo7zv x16hj40l x10b6aqq x1yrsyyn\"><i data-visualcompletion=\"css-img\" class=\"x1b0d499 xuo83w3\" style=\"background-image: url(&quot;https://static.xx.fbcdn.net/rsrc.php/v3/yd/r/KMmRdYzRLT0.png&quot;); background-position: 0px -544px; background-size: auto; width: 20px; height: 20px; background-repeat: no-repeat; display: inline-block;\"></i></div><div class=\"x9f619 x1n2onr6 x1ja2u2z x78zum5 xdt5ytf x193iq5w xeuugli x1r8uery x1iyjqo2 xs83m0k xamitd3 xsyo7zv x16hj40l x10b6aqq x1yrsyyn\"><div class=\"x78zum5 xdt5ytf xz62fqu x16ldp7u\"><div class=\"xu06os2 x1ok221b\"><span class=\"x193iq5w xeuugli x13faqbe x1vvkbs x10flsy6 x1lliihq x1s928wv xhkezso x1gmr53x x1cpjm7i x1fgarty x1943h6x x4zkp8e x41vudc x6prxxf xvq8zen xo1l8bm xzsf02u x1yc453h\" dir=\"auto\">Event by <strong><a class=\"x1i10hfl xjbqb8w x6umtig x1b1mbwd xaqea5y xav7gou x9f619 x1ypdohk xt0psk2 xe8uvvx xdj266r x11i5rnm xat24cr x1mh8g0r xexx8yu x4uap5 x18d9i69 xkhd6sd x16tdsg8 x1hl2dhg xggy1nq x1a2a7pz xt0b8zv xzsf02u x1s688f\" href=\"https://www.facebook.com/kingstarmusic/\" role=\"link\" tabindex=\"0\">Kingstar Music</a></strong> and <strong><a class=\"x1i10hfl xjbqb8w x6umtig x1b1mbwd xaqea5y xav7gou x9f619 x1ypdohk xt0psk2 xe8uvvx xdj266r x11i5rnm xat24cr x1mh8g0r xexx8yu x4uap5 x18d9i69 xkhd6sd x16tdsg8 x1hl2dhg xggy1nq x1a2a7pz xt0b8zv xzsf02u x1s688f\" href=\"https://www.facebook.com/SchlachthofWiesbaden\" role=\"link\" tabindex=\"0\">Schlachthof Wiesbaden</a></strong></span></div></div></div></div></div></div><div class=\"xjyslct xjbqb8w x972fbf xcfux6l x1qhh985 xm0m39n x9f619 x1rg5ohu xdj266r x11i5rnm xat24cr x1mh8g0r xexx8yu x4uap5 x18d9i69 xkhd6sd x1n2onr6 x16tdsg8 xh8yej3\"><div class=\"x78zum5 xdt5ytf xwib8y2 x1y1aw1k\"><div class=\"x9f619 x1n2onr6 x1ja2u2z x78zum5 x2lah0s x1nhvcw1 x1cy8zhl xozqiw3 x1q0g3np x1pi30zi x1swvt13 xexx8yu xykv574 xbmpl8g x4cne27 xifccgj\" style=\"border: 1px solid red;\"><div class=\"x9f619 x1n2onr6 x1ja2u2z x78zum5 xdt5ytf x2lah0s x193iq5w xeuugli xsyo7zv x16hj40l x10b6aqq x1yrsyyn\"><i data-visualcompletion=\"css-img\" class=\"x1b0d499 xuo83w3\" style=\"background-image: url(&quot;https://static.xx.fbcdn.net/rsrc.php/v3/yv/r/QMJupk-s46B.png&quot;); background-position: 0px -1045px; background-size: auto; width: 20px; height: 20px; background-repeat: no-repeat; display: inline-block;\"></i></div><div class=\"x9f619 x1n2onr6 x1ja2u2z x78zum5 xdt5ytf x193iq5w xeuugli x1r8uery x1iyjqo2 xs83m0k xamitd3 xsyo7zv x16hj40l x10b6aqq x1yrsyyn\"><div class=\"x78zum5 xdt5ytf xz62fqu x16ldp7u\"><div class=\"xu06os2 x1ok221b\"><span class=\"x193iq5w xeuugli x13faqbe x1vvkbs x10flsy6 x1lliihq x1s928wv xhkezso x1gmr53x x1cpjm7i x1fgarty x1943h6x x4zkp8e x41vudc x6prxxf xvq8zen xo1l8bm xzsf02u x1yc453h\" dir=\"auto\"><a class=\"x1i10hfl xjbqb8w x6umtig x1b1mbwd xaqea5y xav7gou x9f619 x1ypdohk xt0psk2 xe8uvvx xdj266r x11i5rnm xat24cr x1mh8g0r xexx8yu x4uap5 x18d9i69 xkhd6sd x16tdsg8 x1hl2dhg xggy1nq x1a2a7pz xt0b8zv x1fey0fg\" href=\"https://facebook.com/SchlachthofWiesbaden\" role=\"link\" tabindex=\"0\" target=\"_blank\">Schlachthof Wiesbaden</a></span></div></div></div></div></div></div><div class=\"xjyslct xjbqb8w x972fbf xcfux6l x1qhh985 xm0m39n x9f619 x1rg5ohu xdj266r x11i5rnm xat24cr x1mh8g0r xexx8yu x4uap5 x18d9i69 xkhd6sd x1n2onr6 x16tdsg8 xh8yej3\"><div class=\"x78zum5 xdt5ytf xwib8y2 x1y1aw1k\"><div class=\"x9f619 x1n2onr6 x1ja2u2z x78zum5 x2lah0s x1nhvcw1 x1cy8zhl xozqiw3 x1q0g3np x1pi30zi x1swvt13 xexx8yu xykv574 xbmpl8g x4cne27 xifccgj\" style=\"border: 1px solid red;\"><div class=\"x9f619 x1n2onr6 x1ja2u2z x78zum5 xdt5ytf x2lah0s x193iq5w xeuugli xsyo7zv x16hj40l x10b6aqq x1yrsyyn\"><i data-visualcompletion=\"css-img\" class=\"x1b0d499 xuo83w3\" style=\"background-image: url(&quot;https://static.xx.fbcdn.net/rsrc.php/v3/yd/r/KMmRdYzRLT0.png&quot;); background-position: 0px -754px; background-size: auto; width: 20px; height: 20px; background-repeat: no-repeat; display: inline-block;\"></i></div><div class=\"x9f619 x1n2onr6 x1ja2u2z x78zum5 xdt5ytf x193iq5w xeuugli x1r8uery x1iyjqo2 xs83m0k xamitd3 xsyo7zv x16hj40l x10b6aqq x1yrsyyn\"><div class=\"x78zum5 xdt5ytf xz62fqu x16ldp7u\"><div class=\"xu06os2 x1ok221b\"><span class=\"x193iq5w xeuugli x13faqbe x1vvkbs x10flsy6 x1lliihq x1s928wv xhkezso x1gmr53x x1cpjm7i x1fgarty x1943h6x x4zkp8e x41vudc x6prxxf xvq8zen xo1l8bm xzsf02u x1yc453h\" dir=\"auto\">Tickets</span></div><div class=\"xu06os2 x1ok221b\"><span class=\"x193iq5w xeuugli x13faqbe x1vvkbs x10flsy6 x1lliihq x1s928wv xhkezso x1gmr53x x1cpjm7i x1fgarty x1943h6x x1tu3fi x3x7a5m x1nxh6w3 x1sibtaa xo1l8bm xi81zsa x1yc453h\" dir=\"auto\">www.schlachthof-wiesbaden.de/programmdetails/items/stick-to-your-guns-2022.html</span></div></div></div></div></div></div><div class=\"xjyslct xjbqb8w x972fbf xcfux6l x1qhh985 xm0m39n x9f619 x1rg5ohu xdj266r x11i5rnm xat24cr x1mh8g0r xexx8yu x4uap5 x18d9i69 xkhd6sd x1n2onr6 x16tdsg8 xh8yej3\"><div class=\"x78zum5 xdt5ytf xwib8y2 x1y1aw1k\"><div class=\"x9f619 x1n2onr6 x1ja2u2z x78zum5 x2lah0s x1nhvcw1 x1cy8zhl xozqiw3 x1q0g3np x1pi30zi x1swvt13 xexx8yu xykv574 xbmpl8g x4cne27 xifccgj\" style=\"border: 1px solid red;\"><div class=\"x9f619 x1n2onr6 x1ja2u2z x78zum5 xdt5ytf x2lah0s x193iq5w xeuugli xsyo7zv x16hj40l x10b6aqq x1yrsyyn\"><i data-visualcompletion=\"css-img\" class=\"x1b0d499 xuo83w3\" style=\"background-image: url(&quot;https://static.xx.fbcdn.net/rsrc.php/v3/y5/r/_zIo9yLBvT8.png&quot;); background-position: 0px -162px; background-size: auto; width: 20px; height: 20px; background-repeat: no-repeat; display: inline-block;\"></i></div><div class=\"x9f619 x1n2onr6 x1ja2u2z x78zum5 xdt5ytf x193iq5w xeuugli x1r8uery x1iyjqo2 xs83m0k xamitd3 xsyo7zv x16hj40l x10b6aqq x1yrsyyn\"><div class=\"x78zum5 xdt5ytf xz62fqu x16ldp7u\"><div class=\"xu06os2 x1ok221b\"><span class=\"x193iq5w xeuugli x13faqbe x1vvkbs x10flsy6 x1lliihq x1s928wv xhkezso x1gmr53x x1cpjm7i x1fgarty x1943h6x x4zkp8e x41vudc x6prxxf xvq8zen xo1l8bm xzsf02u x1yc453h\" dir=\"auto\">Public<span><span class=\"xzpqnlu xjm9jq1 x6ikm8r x10wlt62 x10l6tqk x1i1rx1s\">&nbsp;</span><span aria-hidden=\"true\"> · </span></span>Anyone on or off Facebook</span></div></div></div></div></div></div><div class=\"x1pi30zi x1swvt13\"><div class=\"x1ni5s2d\"><span class=\"x193iq5w xeuugli x13faqbe x1vvkbs x10flsy6 x1lliihq x1s928wv xhkezso x1gmr53x x1cpjm7i x1fgarty x1943h6x x4zkp8e x41vudc x6prxxf xvq8zen xo1l8bm xzsf02u\" dir=\"auto\"><div class=\"x11i5rnm xat24cr x1mh8g0r x1vvkbs xdj266r\">29.11.22 DI / EINLASS 18:30 / BEGINN 19:00 / AK 44,00 € / VVK 35,00 € (zzgl. Gebühren / inkl. Bus &amp; Bahn)</div><div class=\"x11i5rnm xat24cr x1mh8g0r x1vvkbs xtlvy1s\">STICK TO YOUR GUNS /  Special Guests: KNOCKED LOOSE / LANDMVRKS / SOUL BLIND<br>Hardcore / Metalcore Konzert in der HALLE</div><div class=\"x11i5rnm xat24cr x1mh8g0r x1vvkbs xtlvy1s\">Spectre Record Release Tour 2022 - Gute Nachricht: Stick To Your Guns aus Orange County, Kalifornien, haben eine gemeinsame Deutschlandtour mit Knocked Loose, Landmvrks und Soul Blind angekündigt. Im Gepäck haben sie ihr jüngstes Album „Spectre“, ein Gedicht von einem Album! Kein Wunder, zurecht gelten Stick To Your Guns als eine der abwechslungsreichsten Modern-Hardcore-Bands der Gegenwart, die Persönliches und Politisches wie keine zweite in furiose Mosh-Breakdowns, kraftvolle Refrains und Singalongs à gogo verpacken. Ohnehin ist dieser Abend nicht weniger als eine Metalcore-Powerhouse-Roadshow vor dem Herrn. Genau richtig, um die von vorgestern noch verspannten Nackenmuskeln wieder locker zu schütteln.</div><div class=\"x11i5rnm xat24cr x1mh8g0r x1vvkbs xtlvy1s\">STICK TO YOUR GUNS<br><a class=\"x1i10hfl xjbqb8w x6umtig x1b1mbwd xaqea5y xav7gou x9f619 x1ypdohk xt0psk2 xe8uvvx xdj266r x11i5rnm xat24cr x1mh8g0r xexx8yu x4uap5 x18d9i69 xkhd6sd x16tdsg8 x1hl2dhg xggy1nq x1a2a7pz xt0b8zv x1fey0fg\" href=\"http://www.sticktoyourguns.net/\" target=\"_blank\" rel=\"noreferrer noopener\">http://www.sticktoyourguns.net</a><br><a class=\"x1i10hfl xjbqb8w x6umtig x1b1mbwd xaqea5y xav7gou x9f619 x1ypdohk xt0psk2 xe8uvvx xdj266r x11i5rnm xat24cr x1mh8g0r xexx8yu x4uap5 x18d9i69 xkhd6sd x16tdsg8 x1hl2dhg xggy1nq x1a2a7pz xt0b8zv xzsf02u x1s688f\" href=\"https://www.facebook.com/STYGoc?__cft__[0]=AZVJSeuoGI9xAtLJdF0TqBNYpvGwn6gZ6szu-2pf6VBxEMKH-5yeUwIvd_jqkVC7Evn20Zubwsq7W0WJ9rbMM89jpG5FVxmBa7n9XX0nCXwGlBtX-qeSbIYXRl2__ogsI6Y&amp;__tn__=q\" role=\"link\" tabindex=\"0\">https://www.facebook.com/STYGoc</a><br><a class=\"x1i10hfl xjbqb8w x6umtig x1b1mbwd xaqea5y xav7gou x9f619 x1ypdohk xt0psk2 xe8uvvx xdj266r x11i5rnm xat24cr x1mh8g0r xexx8yu x4uap5 x18d9i69 xkhd6sd x16tdsg8 x1hl2dhg xggy1nq x1a2a7pz xt0b8zv x1fey0fg\" href=\"https://www.youtube.com/watch?v=LdN-VOSgkWU\" target=\"_blank\" rel=\"noreferrer noopener\">https://www.youtube.com/watch?v=LdN-VOSgkWU</a><br><a class=\"x1i10hfl xjbqb8w x6umtig x1b1mbwd xaqea5y xav7gou x9f619 x1ypdohk xt0psk2 xe8uvvx xdj266r x11i5rnm xat24cr x1mh8g0r xexx8yu x4uap5 x18d9i69 xkhd6sd x16tdsg8 x1hl2dhg xggy1nq x1a2a7pz xt0b8zv x1fey0fg\" href=\"https://www.youtube.com/watch?v=FYrZfF9eK_k\" target=\"_blank\" rel=\"noreferrer noopener\">https://www.youtube.com/watch?v=FYrZfF9eK_k</a></div><div class=\"x11i5rnm xat24cr x1mh8g0r x1vvkbs xtlvy1s\">KNOCKED LOOSE<br><a class=\"x1i10hfl xjbqb8w x6umtig x1b1mbwd xaqea5y xav7gou x9f619 x1ypdohk xt0psk2 xe8uvvx xdj266r x11i5rnm xat24cr x1mh8g0r xexx8yu x4uap5 x18d9i69 xkhd6sd x16tdsg8 x1hl2dhg xggy1nq x1a2a7pz xt0b8zv x1fey0fg\" href=\"http://knockedloosehc.com/\" target=\"_blank\" rel=\"noreferrer noopener\">http://knockedloosehc.com</a><br><a class=\"x1i10hfl xjbqb8w x6umtig x1b1mbwd xaqea5y xav7gou x9f619 x1ypdohk xt0psk2 xe8uvvx xdj266r x11i5rnm xat24cr x1mh8g0r xexx8yu x4uap5 x18d9i69 xkhd6sd x16tdsg8 x1hl2dhg xggy1nq x1a2a7pz xt0b8zv xzsf02u x1s688f\" href=\"https://www.facebook.com/KnockedLoose/?__cft__[0]=AZVJSeuoGI9xAtLJdF0TqBNYpvGwn6gZ6szu-2pf6VBxEMKH-5yeUwIvd_jqkVC7Evn20Zubwsq7W0WJ9rbMM89jpG5FVxmBa7n9XX0nCXwGlBtX-qeSbIYXRl2__ogsI6Y&amp;__tn__=q\" role=\"link\" tabindex=\"0\">https://www.facebook.com/KnockedLoose/</a><br><a class=\"x1i10hfl xjbqb8w x6umtig x1b1mbwd xaqea5y xav7gou x9f619 x1ypdohk xt0psk2 xe8uvvx xdj266r x11i5rnm xat24cr x1mh8g0r xexx8yu x4uap5 x18d9i69 xkhd6sd x16tdsg8 x1hl2dhg xggy1nq x1a2a7pz xt0b8zv x1fey0fg\" href=\"https://www.youtube.com/watch?v=jOB3IYBcJEE\" role=\"link\" target=\"_blank\" rel=\"noreferrer noopener\">https://www.youtube.com/watch?v=jOB3IYBcJEE</a></div><div class=\"x11i5rnm xat24cr x1mh8g0r x1vvkbs xtlvy1s\">LANDMVRKS<br><a class=\"x1i10hfl xjbqb8w x6umtig x1b1mbwd xaqea5y xav7gou x9f619 x1ypdohk xt0psk2 xe8uvvx xdj266r x11i5rnm xat24cr x1mh8g0r xexx8yu x4uap5 x18d9i69 xkhd6sd x16tdsg8 x1hl2dhg xggy1nq x1a2a7pz xt0b8zv x1fey0fg\" href=\"http://www.landmvrks.com/\" role=\"link\" target=\"_blank\" rel=\"noreferrer noopener\">http://www.landmvrks.com</a><br><a class=\"x1i10hfl xjbqb8w x6umtig x1b1mbwd xaqea5y xav7gou x9f619 x1ypdohk xt0psk2 xe8uvvx xdj266r x11i5rnm xat24cr x1mh8g0r xexx8yu x4uap5 x18d9i69 xkhd6sd x16tdsg8 x1hl2dhg xggy1nq x1a2a7pz xt0b8zv xzsf02u x1s688f\" href=\"https://www.facebook.com/LANDMVRKS/?__cft__[0]=AZVJSeuoGI9xAtLJdF0TqBNYpvGwn6gZ6szu-2pf6VBxEMKH-5yeUwIvd_jqkVC7Evn20Zubwsq7W0WJ9rbMM89jpG5FVxmBa7n9XX0nCXwGlBtX-qeSbIYXRl2__ogsI6Y&amp;__tn__=q\" role=\"link\" tabindex=\"0\">https://www.facebook.com/LANDMVRKS/</a><br><a class=\"x1i10hfl xjbqb8w x6umtig x1b1mbwd xaqea5y xav7gou x9f619 x1ypdohk xt0psk2 xe8uvvx xdj266r x11i5rnm xat24cr x1mh8g0r xexx8yu x4uap5 x18d9i69 xkhd6sd x16tdsg8 x1hl2dhg xggy1nq x1a2a7pz xt0b8zv x1fey0fg\" href=\"https://www.youtube.com/watch?v=FDfLreAO9Ow\" role=\"link\" target=\"_blank\" rel=\"noreferrer noopener\">https://www.youtube.com/watch?v=FDfLreAO9Ow</a><br><a class=\"x1i10hfl xjbqb8w x6umtig x1b1mbwd xaqea5y xav7gou x9f619 x1ypdohk xt0psk2 xe8uvvx xdj266r x11i5rnm xat24cr x1mh8g0r xexx8yu x4uap5 x18d9i69 xkhd6sd x16tdsg8 x1hl2dhg xggy1nq x1a2a7pz xt0b8zv x1fey0fg\" href=\"https://www.youtube.com/watch?v=UGA9eze0OrA\" role=\"link\" target=\"_blank\" rel=\"noreferrer noopener\">https://www.youtube.com/watch?v=UGA9eze0OrA</a></div><div class=\"x11i5rnm xat24cr x1mh8g0r x1vvkbs xtlvy1s\">SOUL BLIND<br><a class=\"x1i10hfl xjbqb8w x6umtig x1b1mbwd xaqea5y xav7gou x9f619 x1ypdohk xt0psk2 xe8uvvx xdj266r x11i5rnm xat24cr x1mh8g0r xexx8yu x4uap5 x18d9i69 xkhd6sd x16tdsg8 x1hl2dhg xggy1nq x1a2a7pz xt0b8zv xzsf02u x1s688f\" href=\"https://www.facebook.com/Soulblindband?__cft__[0]=AZVJSeuoGI9xAtLJdF0TqBNYpvGwn6gZ6szu-2pf6VBxEMKH-5yeUwIvd_jqkVC7Evn20Zubwsq7W0WJ9rbMM89jpG5FVxmBa7n9XX0nCXwGlBtX-qeSbIYXRl2__ogsI6Y&amp;__tn__=q\" role=\"link\" tabindex=\"0\">https://www.facebook.com/Soulblindband</a><br><a class=\"x1i10hfl xjbqb8w x6umtig x1b1mbwd xaqea5y xav7gou x9f619 x1ypdohk xt0psk2 xe8uvvx xdj266r x11i5rnm xat24cr x1mh8g0r xexx8yu x4uap5 x18d9i69 xkhd6sd x16tdsg8 x1hl2dhg xggy1nq x1a2a7pz xt0b8zv x1fey0fg\" href=\"https://soulblind.bandcamp.com/\" role=\"link\" target=\"_blank\" rel=\"noreferrer noopener\">https://soulblind.bandcamp.com</a> <div class=\"x1i10hfl xjbqb8w x6umtig x1b1mbwd xaqea5y xav7gou x9f619 x1ypdohk xt0psk2 xe8uvvx xdj266r x11i5rnm xat24cr x1mh8g0r xexx8yu x4uap5 x18d9i69 xkhd6sd x16tdsg8 x1hl2dhg xggy1nq x1a2a7pz xt0b8zv xzsf02u x1s688f\" role=\"button\" tabindex=\"0\">See less</div></div></span><div class=\"x78zum5 x1a02dak\"><div><a class=\"x1i10hfl xjbqb8w x6umtig x1b1mbwd xaqea5y xav7gou x9f619 x1ypdohk xt0psk2 xe8uvvx xdj266r x11i5rnm xat24cr x1mh8g0r xexx8yu x4uap5 x18d9i69 xkhd6sd x16tdsg8 x1hl2dhg xggy1nq x1a2a7pz x1heor9g xt0b8zv\" href=\"https://www.facebook.com/events/discovery/?suggestion_token=%7B%22event_categories%22%3A%5B10155994924430727%5D%7D\" role=\"link\" tabindex=\"0\"><div class=\"x6s0dn4 x1qhmfi1 x1lcm9me x1yr5g0i xrt01vj x10y3i5r x9f619 x78zum5 xl56j7k x12nagc x1gslohp x1y1aw1k x1sxyh0 xwib8y2 xurb0ha\"><span class=\"x193iq5w xeuugli x13faqbe x1vvkbs x10flsy6 x1lliihq x1s928wv xhkezso x1gmr53x x1cpjm7i x1fgarty x1943h6x x1tu3fi x3x7a5m x1nxh6w3 x1sibtaa x1s688f xzsf02u\" dir=\"auto\">Music &amp; audio</span></div></a></div></div></div></div></div></div></div></div><div class=\"x1yztbdb\"><div class=\"x78zum5 x1n2onr6 xh8yej3\"><div style=\"border-radius: max(0px, min(8px, -999900% - 39996px + 999900vw)) / 8px;\" class=\"x9f619 x1n2onr6 x1ja2u2z x2bj2ny x1qpq9i9 xdney7k xu5ydu1 xt3gfkd xh8yej3 x6ikm8r x10wlt62 xquyuld\"><div class=\"x1l90r2v xyamay9\"><div class=\"x13fuv20 x26u7qi xu3j5b3 x1q0q8m5 x972fbf xm0m39n xcfux6l x1qhh985 x9f619 x78zum5 x1iyjqo2 xs83m0k xdj266r x11i5rnm xat24cr x1mh8g0r x2lwn1j xeuugli x1n2onr6 x1ja2u2z xuk3077 x1q0g3np x1qughib x1iorvi4 x1pi30zi x1l90r2v x1swvt13\"><div class=\"x78zum5 xdt5ytf x4cne27 xifccgj\"><div class=\"xzueoph x1k70j0n\"><h2 class=\"x1heor9g x1qlqyl8 x1pd3egz x1a2a7pz x193iq5w xeuugli\" dir=\"auto\"><span class=\"x193iq5w xeuugli x13faqbe x1vvkbs x10flsy6 x1lliihq x1s928wv xhkezso x1gmr53x x1cpjm7i x1fgarty x1943h6x x4zkp8e x41vudc x1603h9y x1u7k74 x1xlr1w8 xzsf02u x1yc453h\" dir=\"auto\" style=\"\">Meet Your Hosts</span></h2></div></div></div><div><div><div class=\"x9f619 x1n2onr6 x1ja2u2z\"><div aria-hidden=\"true\" class=\"x10l6tqk xwa60dl x1d8287x x19991ni xwji4o3 x1vjfegm xg01cxk x47corl\" style=\"left: 44px; transform: translate(calc(-50% - 6px), -50%);\"><div aria-disabled=\"true\" aria-label=\"Previous items\" class=\"x1i10hfl x6umtig x1b1mbwd xaqea5y xav7gou xe8uvvx xdj266r x11i5rnm xat24cr x1mh8g0r x16tdsg8 x1hl2dhg xggy1nq x1h6gzvc x87ps6o x1lku1pv x1a2a7pz x6s0dn4 x14yjl9h xudhj91 x18nykt9 xww2gxu x9f619 x78zum5 xl56j7k xexx8yu x4uap5 x18d9i69 xkhd6sd x1n2onr6 xsdox4t x1useyqa x1ahlmzr x972fbf xcfux6l x1qhh985 xm0m39n xxnfx33 x1dntmbh\" role=\"button\" tabindex=\"-1\"><svg fill=\"currentColor\" viewBox=\"0 0 20 20\" width=\"1em\" height=\"1em\" class=\"x1lliihq x1k90msu x2h7rmj x1qfuztq x1eu2eya xxk0z11 xvy4d1p\"><path d=\"M12.2 4.53 6.727 10l5.47 5.47a.75.75 0 0 1-1.061 1.06l-6-6a.751.751 0 0 1 0-1.06l6-6A.75.75 0 1 1 12.2 4.53z\"></path></svg><div class=\"x1ey2m1c xds687c xg01cxk x47corl x10l6tqk x17qophe x13vifvy x1ebt8du x19991ni x1dhq9h x14yjl9h xudhj91 x18nykt9 xww2gxu\" data-visualcompletion=\"ignore\"></div></div></div><div aria-label=\"event\" role=\"region\" class=\"x9f619 x1n2onr6 x1ja2u2z x1wsgfga x9otpla xwib8y2 x1y1aw1k\"><div class=\"xb57i2i x1q594ok x5lxg6s x78zum5 xdt5ytf x10wlt62 x1n2onr6 x1ja2u2z x1pq812k xfk6m8 x1yqm8si xjx87ck xw2csxc x7p5m3t x9f619 xat24cr xwib8y2 x1y1aw1k x1rohswg xhfbhpw\" style=\"scroll-padding: 44px;\"><div class=\"x78zum5 x1iyjqo2 x1n2onr6 x1q0g3np\"><span style=\"min-width: 18px;\"></span><div aria-hidden=\"false\" class=\"x1c4vz4f x2lah0s xeuugli x1bhewko xq8finb xnqqybz\" style=\"flex-basis: 316px;\"><div><a class=\"x1i10hfl xjbqb8w xjqpnuy xa49m3k xqeqjp1 x2hbi6w x13fuv20 xu3j5b3 x1q0q8m5 x26u7qi x972fbf xcfux6l x1qhh985 xm0m39n x9f619 x1ypdohk xdl72j9 x2lah0s xe8uvvx xdj266r x11i5rnm xat24cr x1mh8g0r x2lwn1j xeuugli xexx8yu x4uap5 x18d9i69 xkhd6sd x16tdsg8 x1hl2dhg xggy1nq x1ja2u2z x1t137rt x1o1ewxj x3x9cwd x1e5q0jg x13rtm0m x1q0g3np x87ps6o x1lku1pv x1a2a7pz x1qjc9v5 x78zum5 x5yr21d x1n2onr6 xeaf4i8 xh8yej3\" href=\"https://www.facebook.com/kingstarmusic/\" role=\"link\" tabindex=\"0\"><div class=\"x78zum5 x1n2onr6 xh8yej3\"><div style=\"border-radius: max(0px, min(8px, -999900% - 39996px + 999900vw)) / 8px;\" class=\"x9f619 x1n2onr6 x1ja2u2z xjbqb8w x1qpq9i9 xdney7k xu5ydu1 xt3gfkd xh8yej3 x6ikm8r x10wlt62 xquyuld\"><div class=\"x1b51vyi\"><img alt=\"\" class=\"x5yr21d xl1xv1r xh8yej3\" referrerpolicy=\"origin-when-cross-origin\" src=\"https://scontent-frt3-2.xx.fbcdn.net/v/t39.30808-6/310427518_5398771373491556_7178205567686162183_n.png?stp=dst-png_p180x540&amp;_nc_cat=103&amp;ccb=1-7&amp;_nc_sid=e3f864&amp;_nc_ohc=Qj4BsDgt_XAAX821BME&amp;_nc_ht=scontent-frt3-2.xx&amp;oh=00_AfAUNVEZ_VNX-gobO6yt6F2gSqWkThh0r7opWko6wpA8Vg&amp;oe=638ABF43\"></div><div class=\"x9f619 x78zum5 xdt5ytf x5yr21d xz9dl7a xn6708d xsag5q8 x1ye3gou x2b8uid\"><div class=\"x1r4l5d8 xod5an3 xz9dl7a xn6708d x1l90r2v x1ye3gou\"><div class=\"x78zum5 xdt5ytf xz62fqu x16ldp7u\"><div class=\"xu06os2 x1ok221b\"><span class=\"x193iq5w xeuugli x13faqbe x1vvkbs x10flsy6 x1lliihq x1s928wv xhkezso x1gmr53x x1cpjm7i x1fgarty x1943h6x x1tu3fi x3x7a5m x1lkfr7t x1lbecb7 x1s688f xzsf02u x2b8uid\" dir=\"auto\"><span class=\"x1lliihq x6ikm8r x10wlt62 x1n2onr6 xlyipyv xuxw1ft\">Kingstar Music</span></span></div><div class=\"xu06os2 x1ok221b\"><span class=\"x193iq5w xeuugli x13faqbe x1vvkbs x10flsy6 x1lliihq x1s928wv xhkezso x1gmr53x x1cpjm7i x1fgarty x1943h6x x1tu3fi x3x7a5m x1nxh6w3 x1sibtaa xo1l8bm xi81zsa x2b8uid\" dir=\"auto\">3071 past events <span><span class=\"xzpqnlu xjm9jq1 x6ikm8r x10wlt62 x10l6tqk x1i1rx1s\">&nbsp;</span><span aria-hidden=\"true\"> · </span></span>19,409 likes</span></div></div></div><div class=\"xqvfhly xsag5q8\"><span class=\"x193iq5w xeuugli x13faqbe x1vvkbs x10flsy6 x1lliihq x1s928wv xhkezso x1gmr53x x1cpjm7i x1fgarty x1943h6x x1tu3fi x3x7a5m x1nxh6w3 x1sibtaa xo1l8bm xzsf02u x1yc453h\" dir=\"auto\"><span class=\"x1lliihq x6ikm8r x10wlt62 x1n2onr6\" style=\"-moz-box-orient: vertical; -webkit-line-clamp: 3; display: -webkit-box;\"><div class=\"x11i5rnm xat24cr x1mh8g0r x1vvkbs xdj266r\"><div dir=\"auto\" style=\"text-align: start;\">Welcome to Kingstar! Check out our shows and tours! | Impressum: <object type=\"nested/pressable\"><a class=\"x1i10hfl xjbqb8w x6umtig x1b1mbwd xaqea5y xav7gou x9f619 x1ypdohk xt0psk2 xe8uvvx xdj266r x11i5rnm xat24cr x1mh8g0r xexx8yu x4uap5 x18d9i69 xkhd6sd x16tdsg8 x1hl2dhg xggy1nq x1a2a7pz xt0b8zv x1fey0fg\" href=\"https://www.kingstar-music.com/imprint/\" role=\"link\" target=\"_blank\" rel=\"noreferrer noopener\">https://www.kingstar-music.com/imprint/</a></object></div></div></span></span></div><div><div aria-label=\"Like\" class=\"x1i10hfl xjbqb8w x6umtig x1b1mbwd xaqea5y xav7gou x1ypdohk xe8uvvx xdj266r x11i5rnm xat24cr x1mh8g0r xexx8yu x4uap5 x18d9i69 xkhd6sd x16tdsg8 x1hl2dhg xggy1nq x1o1ewxj x3x9cwd x1e5q0jg x13rtm0m x87ps6o x1lku1pv x1a2a7pz x9f619 x3nfvp2 xdt5ytf xl56j7k x1n2onr6 xh8yej3\" role=\"button\" tabindex=\"0\"><div class=\"x1n2onr6 x1ja2u2z x78zum5 x2lah0s xl56j7k x6s0dn4 xozqiw3 x1q0g3np xi112ho x17zwfj4 x585lrc x1403ito x972fbf xcfux6l x1qhh985 xm0m39n x9f619 xn6708d x1ye3gou x1qhmfi1 x1fq8qgq\"><div class=\"x6s0dn4 x78zum5 xl56j7k x1608yet xljgi0e x1e0frkt\" style=\"border: 1px solid red;\"><div class=\"x9f619 x1n2onr6 x1ja2u2z x193iq5w xeuugli x6s0dn4 x78zum5 x2lah0s x1fbi1t2 xl8fo4v\"><i data-visualcompletion=\"css-img\" class=\"x1b0d499 xep6ejk\" style=\"background-image: url(&quot;https://static.xx.fbcdn.net/rsrc.php/v3/yv/r/QMJupk-s46B.png&quot;); background-position: 0px -1590px; background-size: auto; width: 16px; height: 16px; background-repeat: no-repeat; display: inline-block;\"></i></div><div class=\"x9f619 x1n2onr6 x1ja2u2z x193iq5w xeuugli x6s0dn4 x78zum5 x2lah0s x1fbi1t2 xl8fo4v\"><span class=\"x193iq5w xeuugli x13faqbe x1vvkbs x10flsy6 x1lliihq x1s928wv xhkezso x1gmr53x x1cpjm7i x1fgarty x1943h6x x1tu3fi x41vudc x1lkfr7t x1lbecb7 x1s688f x1dem4cn\" dir=\"auto\"><span class=\"x1lliihq x6ikm8r x10wlt62 x1n2onr6 xlyipyv xuxw1ft\">Like</span></span></div></div><div class=\"x1o1ewxj x3x9cwd x1e5q0jg x13rtm0m x1ey2m1c xds687c xg01cxk x47corl x10l6tqk x17qophe x13vifvy x1ebt8du x19991ni x1dhq9h\" data-visualcompletion=\"ignore\"></div></div></div></div></div></div><div class=\"x1lq5wgf xgqcy7u x30kzoy x9jhf4c x1ey2m1c xlg9a9y x9f619 xds687c x47corl x10l6tqk x17qophe x13vifvy\"></div></div><div class=\"x1o1ewxj x3x9cwd x1e5q0jg x13rtm0m x1ey2m1c xds687c xg01cxk x47corl x10l6tqk x17qophe x13vifvy x1ebt8du x19991ni x1dhq9h\" data-visualcompletion=\"ignore\"></div></a></div></div><div aria-hidden=\"false\" class=\"x1c4vz4f x2lah0s xeuugli x1bhewko xq8finb xnqqybz\" style=\"flex-basis: 316px;\"><div><a class=\"x1i10hfl xjbqb8w xjqpnuy xa49m3k xqeqjp1 x2hbi6w x13fuv20 xu3j5b3 x1q0q8m5 x26u7qi x972fbf xcfux6l x1qhh985 xm0m39n x9f619 x1ypdohk xdl72j9 x2lah0s xe8uvvx xdj266r x11i5rnm xat24cr x1mh8g0r x2lwn1j xeuugli xexx8yu x4uap5 x18d9i69 xkhd6sd x16tdsg8 x1hl2dhg xggy1nq x1ja2u2z x1t137rt x1o1ewxj x3x9cwd x1e5q0jg x13rtm0m x1q0g3np x87ps6o x1lku1pv x1a2a7pz x1qjc9v5 x78zum5 x5yr21d x1n2onr6 xeaf4i8 xh8yej3\" href=\"https://www.facebook.com/SchlachthofWiesbaden\" role=\"link\" tabindex=\"0\"><div class=\"x78zum5 x1n2onr6 xh8yej3\"><div style=\"border-radius: max(0px, min(8px, -999900% - 39996px + 999900vw)) / 8px;\" class=\"x9f619 x1n2onr6 x1ja2u2z xjbqb8w x1qpq9i9 xdney7k xu5ydu1 xt3gfkd xh8yej3 x6ikm8r x10wlt62 xquyuld\"><div class=\"x9f619 x78zum5 xdt5ytf x5yr21d xn6708d xsag5q8 x1ye3gou x2b8uid x1cnzs8\"><div class=\"x1a842fp\"><div class=\"x1rg5ohu x1n2onr6 x3ajldb x1ja2u2z\"><svg aria-hidden=\"true\" class=\"x3ajldb\" data-visualcompletion=\"ignore-dynamic\" role=\"none\" style=\"height: 168px; width: 168px;\"><mask id=\"jsc_c_15\"><circle cx=\"84\" cy=\"84\" fill=\"white\" r=\"84\"></circle></mask><g mask=\"url(#jsc_c_15)\"><image style=\"height: 168px; width: 168px;\" x=\"0\" y=\"0\" height=\"100%\" preserveAspectRatio=\"xMidYMid slice\" width=\"100%\" xlink:href=\"https://scontent-frt3-1.xx.fbcdn.net/v/t39.30808-1/306229375_459425382898112_1597632669762136178_n.png?_nc_cat=108&amp;ccb=1-7&amp;_nc_sid=c6021c&amp;_nc_ohc=R9ysJPKh6ZcAX8r1Wyx&amp;_nc_ht=scontent-frt3-1.xx&amp;oh=00_AfCByUjmdiqUE0SvE_qXB8MlignPlkafYNJDydcW6mHyXg&amp;oe=6389E458\"></image><circle class=\"x1pwv2dq xvlca1e xbh8q5q\" cx=\"84\" cy=\"84\" r=\"84\"></circle></g></svg></div></div><div class=\"x1r4l5d8 xod5an3 xz9dl7a xn6708d x1l90r2v x1ye3gou\"><div class=\"x78zum5 xdt5ytf xz62fqu x16ldp7u\"><div class=\"xu06os2 x1ok221b\"><span class=\"x193iq5w xeuugli x13faqbe x1vvkbs x10flsy6 x1lliihq x1s928wv xhkezso x1gmr53x x1cpjm7i x1fgarty x1943h6x x1tu3fi x3x7a5m x1lkfr7t x1lbecb7 x1s688f xzsf02u x2b8uid\" dir=\"auto\"><span class=\"x1lliihq x6ikm8r x10wlt62 x1n2onr6 xlyipyv xuxw1ft\">Schlachthof Wiesbaden</span></span></div><div class=\"xu06os2 x1ok221b\"><span class=\"x193iq5w xeuugli x13faqbe x1vvkbs x10flsy6 x1lliihq x1s928wv xhkezso x1gmr53x x1cpjm7i x1fgarty x1943h6x x1tu3fi x3x7a5m x1nxh6w3 x1sibtaa xo1l8bm xi81zsa x2b8uid\" dir=\"auto\">3797 past events <span><span class=\"xzpqnlu xjm9jq1 x6ikm8r x10wlt62 x10l6tqk x1i1rx1s\">&nbsp;</span><span aria-hidden=\"true\"> · </span></span>Page · Cultural Center</span></div></div></div><div class=\"xqvfhly xsag5q8\"><span class=\"x193iq5w xeuugli x13faqbe x1vvkbs x10flsy6 x1lliihq x1s928wv xhkezso x1gmr53x x1cpjm7i x1fgarty x1943h6x x1tu3fi x3x7a5m x1nxh6w3 x1sibtaa xo1l8bm xzsf02u x1yc453h\" dir=\"auto\"><span class=\"x1lliihq x6ikm8r x10wlt62 x1n2onr6\" style=\"-moz-box-orient: vertical; -webkit-line-clamp: 3; display: -webkit-box;\"><div class=\"x11i5rnm xat24cr x1mh8g0r x1vvkbs xdj266r\"><div dir=\"auto\" style=\"text-align: start;\">seit 1994 kollektiv und unabhängig. Gegen Diskriminierung, Sexismus, Rassismus, Antisemitismus und </div></div></span></span></div><div><div class=\" xh8yej3\"><object type=\"nested/pressable\"><a aria-label=\"Shop Now\" class=\"x1i10hfl xjbqb8w x6umtig x1b1mbwd xaqea5y xav7gou x1ypdohk xe8uvvx xdj266r x11i5rnm xat24cr x1mh8g0r xexx8yu x4uap5 x18d9i69 xkhd6sd x16tdsg8 x1hl2dhg xggy1nq x1o1ewxj x3x9cwd x1e5q0jg x13rtm0m x87ps6o x1lku1pv x1a2a7pz x9f619 x3nfvp2 xdt5ytf xl56j7k x1n2onr6 xh8yej3\" href=\"https://l.facebook.com/l.php?u=https%3A%2F%2F1305.reservix.de%2Fevents%3Ffbclid%3DIwAR1wOLDBQlqSWhcUIRfh-EB0zl1zaY0oFI5cOhvptU7O1zEueDkmymHUdXI&amp;h=AT0gPiS1qyLx-gUNAP_r5OEggsTwV6eSe4ikIJw6WuwCURour_ZMJEYSd1ltq0pUAaZgsis1UwKik_veoVPbmAfIVsnEypq4wmrNTQERVio5BwNeVK7rP0D4yVyZ1w\" rel=\"nofollow noopener\" role=\"link\" tabindex=\"0\" target=\"_blank\"><div class=\"x1n2onr6 x1ja2u2z x78zum5 x2lah0s xl56j7k x6s0dn4 xozqiw3 x1q0g3np xi112ho x17zwfj4 x585lrc x1403ito x972fbf xcfux6l x1qhh985 xm0m39n x9f619 xn6708d x1ye3gou x1qhmfi1 x1r1pt67\"><div class=\"x6s0dn4 x78zum5 xl56j7k x1608yet xljgi0e x1e0frkt\"><div class=\"x9f619 x1n2onr6 x1ja2u2z x193iq5w xeuugli x6s0dn4 x78zum5 x2lah0s x1fbi1t2 xl8fo4v\"><img class=\"x1b0d499 xep6ejk\" src=\"https://static.xx.fbcdn.net/rsrc.php/v3/yf/r/esn_XDkVKFy.png\" alt=\"\" width=\"16\" height=\"16\"></div><div class=\"x9f619 x1n2onr6 x1ja2u2z x193iq5w xeuugli x6s0dn4 x78zum5 x2lah0s x1fbi1t2 xl8fo4v\"><span class=\"x193iq5w xeuugli x13faqbe x1vvkbs x10flsy6 x1lliihq x1s928wv xhkezso x1gmr53x x1cpjm7i x1fgarty x1943h6x x4zkp8e x41vudc x6prxxf xvq8zen x1s688f x1dem4cn\" dir=\"auto\"><span class=\"x1lliihq x6ikm8r x10wlt62 x1n2onr6 xlyipyv xuxw1ft\">Shop Now</span></span></div></div><div class=\"x1o1ewxj x3x9cwd x1e5q0jg x13rtm0m x1ey2m1c xds687c xg01cxk x47corl x10l6tqk x17qophe x13vifvy x1ebt8du x19991ni x1dhq9h\" data-visualcompletion=\"ignore\"></div></div></a></object></div></div></div></div><div class=\"x1lq5wgf xgqcy7u x30kzoy x9jhf4c x1ey2m1c xlg9a9y x9f619 xds687c x47corl x10l6tqk x17qophe x13vifvy\"></div></div><div class=\"x1o1ewxj x3x9cwd x1e5q0jg x13rtm0m x1ey2m1c xds687c xg01cxk x47corl x10l6tqk x17qophe x13vifvy x1ebt8du x19991ni x1dhq9h\" data-visualcompletion=\"ignore\"></div></a></div></div><span style=\"min-width: 44px;\"></span></div></div></div><div aria-hidden=\"true\" class=\"x10l6tqk xwa60dl x1d8287x x19991ni xwji4o3 x1vjfegm xg01cxk x47corl\" style=\"right: 44px; transform: translate(calc(50% + 6px), -50%);\"><div aria-label=\"Next items\" class=\"x1i10hfl x6umtig x1b1mbwd xaqea5y xav7gou x1ypdohk xe8uvvx xdj266r x11i5rnm xat24cr x1mh8g0r x16tdsg8 x1hl2dhg xggy1nq x87ps6o x1lku1pv x1a2a7pz x6s0dn4 x14yjl9h xudhj91 x18nykt9 xww2gxu x972fbf xcfux6l x1qhh985 xm0m39n x9f619 x78zum5 xl56j7k xexx8yu x4uap5 x18d9i69 xkhd6sd x1n2onr6 xsdox4t x1useyqa x9bbmet x1k54i6l xi81zsa\" role=\"button\" tabindex=\"0\"><svg fill=\"currentColor\" viewBox=\"0 0 20 20\" width=\"1em\" height=\"1em\" class=\"x1lliihq x1k90msu x2h7rmj x1qfuztq xcza8v6 xxk0z11 xvy4d1p\"><path d=\"M7.8 4.53 13.273 10 7.8 15.47a.75.75 0 0 0 1.061 1.06l6-6a.751.751 0 0 0 0-1.06l-6-6A.75.75 0 0 0 7.8 4.53z\"></path></svg><div class=\"x1ey2m1c xds687c xg01cxk x47corl x10l6tqk x17qophe x13vifvy x1ebt8du x19991ni x1dhq9h x14yjl9h xudhj91 x18nykt9 xww2gxu\" data-visualcompletion=\"ignore\"></div></div></div></div></div></div></div></div></div></div><div class=\"x1yztbdb\"><div class=\"x78zum5 x1n2onr6 xh8yej3\"><div style=\"border-radius: max(0px, min(8px, -999900% - 39996px + 999900vw)) / 8px;\" class=\"x9f619 x1n2onr6 x1ja2u2z x2bj2ny x1qpq9i9 xdney7k xu5ydu1 xt3gfkd xh8yej3 x6ikm8r x10wlt62 xquyuld\"><div class=\"x1l90r2v xyamay9\"><div class=\"x13fuv20 x26u7qi xu3j5b3 x1q0q8m5 x972fbf xm0m39n xcfux6l x1qhh985 x9f619 x1iyjqo2 xs83m0k xdj266r x11i5rnm xat24cr x1mh8g0r x2lwn1j xeuugli x1n2onr6 x1ja2u2z x6s0dn4 x78zum5 x1q0g3np x1nhvcw1 x1iorvi4 x1pi30zi x1l90r2v x1swvt13\" style=\"border: 1px solid red;\"><div class=\"x6s0dn4 x78zum5 x1emribx\"><i data-visualcompletion=\"css-img\" class=\"x1b0d499 xi3auck\" style=\"background-image: url(&quot;https://static.xx.fbcdn.net/rsrc.php/v3/yy/r/X_EDXu87C-I.png&quot;); background-position: 0px 0px; background-size: auto; width: 24px; height: 24px; background-repeat: no-repeat; display: inline-block;\"></i></div><div class=\"x78zum5 xdt5ytf x4cne27 xifccgj\"><div class=\"xzueoph x1k70j0n\"><h2 class=\"x1heor9g x1qlqyl8 x1pd3egz x1a2a7pz x193iq5w xeuugli\" dir=\"auto\"><span class=\"x193iq5w xeuugli x13faqbe x1vvkbs x10flsy6 x1lliihq x1s928wv xhkezso x1gmr53x x1cpjm7i x1fgarty x1943h6x x4zkp8e x41vudc x1603h9y x1u7k74 x1xlr1w8 xzsf02u x1yc453h\" dir=\"auto\" style=\"\">Event Transparency</span></h2></div></div></div><div class=\"xsag5q8 x1pi30zi x1swvt13 x1iorvi4\"><span class=\"x193iq5w xeuugli x13faqbe x1vvkbs x10flsy6 x1lliihq x1s928wv xhkezso x1gmr53x x1cpjm7i x1fgarty x1943h6x x4zkp8e x41vudc x6prxxf xvq8zen xo1l8bm xzsf02u\" dir=\"auto\">Facebook is showing information to help you better understand the purpose of this event.</span></div><span class=\"x193iq5w xeuugli x13faqbe x1vvkbs x10flsy6 x1lliihq x1s928wv xhkezso x1gmr53x x1cpjm7i x1fgarty x1943h6x x1tu3fi x3x7a5m x1nxh6w3 x1sibtaa xo1l8bm xzsf02u\" dir=\"auto\"><div class=\"x1i10hfl x6umtig x1b1mbwd xaqea5y xav7gou x1ypdohk xt0psk2 xe8uvvx x1hl2dhg xggy1nq x1o1ewxj x3x9cwd x1e5q0jg x13rtm0m x87ps6o x1lku1pv x1a2a7pz xjyslct xjbqb8w x13fuv20 xu3j5b3 x1q0q8m5 x26u7qi x972fbf xcfux6l x1qhh985 xm0m39n x9f619 x1qlqyl8 xdj266r x11i5rnm xat24cr x1d52u69 x4uap5 x18d9i69 xkhd6sd x1n2onr6 x16tdsg8 x1ja2u2z x1xlr1w8 x1iorvi4\" role=\"button\" tabindex=\"0\" style=\"border: 2px solid red; border-radius: 5px;\"><span style=\"font-size:13px;width:400px;z-index:9999;background-color:#f0ddf0;margin:2px;left:583;bottom:1214 \">Please click to EXPAND the event details; Or FORCE by clicking on the red logo-button</span></div></span></div></div></div></div></div><div class=\"x9f619 x1n2onr6 x1ja2u2z xeuugli xs83m0k x1xmf6yo x1emribx x1e56ztr x1i64zmx xjl7jj xnp8db0 x1d1medc x7ep2pv x1xzczws\"><div style=\"height: 0px;\"></div><div class=\"x7wzq59\" style=\"top: 96px;\"><div class=\"x1yztbdb\"><div class=\"x78zum5 x1n2onr6 xh8yej3\"><div style=\"border-radius: max(0px, min(8px, -999900% - 39996px + 999900vw)) / 8px;\" class=\"x9f619 x1n2onr6 x1ja2u2z x2bj2ny x1qpq9i9 xdney7k xu5ydu1 xt3gfkd xh8yej3 x6ikm8r x10wlt62 xquyuld\"><div class=\"x1l90r2v xyamay9\"><div class=\"x13fuv20 x26u7qi xu3j5b3 x1q0q8m5 x972fbf xm0m39n xcfux6l x1qhh985 x9f619 x78zum5 x1iyjqo2 xs83m0k xdj266r x11i5rnm xat24cr x1mh8g0r x2lwn1j xeuugli x1n2onr6 x1ja2u2z xuk3077 x1q0g3np x1qughib x1iorvi4 x1pi30zi x1l90r2v x1swvt13\"><div class=\"x78zum5 xdt5ytf x4cne27 xifccgj\"><div class=\"xzueoph x1k70j0n\"><h2 class=\"x1heor9g x1qlqyl8 x1pd3egz x1a2a7pz x193iq5w xeuugli\" dir=\"auto\"><span class=\"x193iq5w xeuugli x13faqbe x1vvkbs x10flsy6 x1lliihq x1s928wv xhkezso x1gmr53x x1cpjm7i x1fgarty x1943h6x x4zkp8e x41vudc x1603h9y x1u7k74 x1xlr1w8 xzsf02u x1yc453h\" dir=\"auto\" style=\"\">Tickets</span></h2></div></div></div><div class=\"x1pi30zi x1swvt13\"><a aria-label=\"Find Tickets\" class=\"x1i10hfl xjbqb8w x6umtig x1b1mbwd xaqea5y xav7gou x1ypdohk xe8uvvx xdj266r x11i5rnm xat24cr x1mh8g0r xexx8yu x4uap5 x18d9i69 xkhd6sd x16tdsg8 x1hl2dhg xggy1nq x1o1ewxj x3x9cwd x1e5q0jg x13rtm0m x87ps6o x1lku1pv x1a2a7pz x9f619 x3nfvp2 xdt5ytf xl56j7k x1n2onr6 xh8yej3\" href=\"https://l.facebook.com/l.php?u=https%3A%2F%2Fwww.schlachthof-wiesbaden.de%2Fprogrammdetails%2Fitems%2Fstick-to-your-guns-2022.html%3Ffbclid%3DIwAR0vA6cYfEMwiNgyL2vCKv-ImxFb9Pj8Dsg6-IzlrNFTuTe-TBeZXc5RjQw&amp;h=AT0gPiS1qyLx-gUNAP_r5OEggsTwV6eSe4ikIJw6WuwCURour_ZMJEYSd1ltq0pUAaZgsis1UwKik_veoVPbmAfIVsnEypq4wmrNTQERVio5BwNeVK7rP0D4yVyZ1w\" rel=\"nofollow noopener\" role=\"link\" tabindex=\"0\" target=\"_blank\"><div class=\"x1n2onr6 x1ja2u2z x78zum5 x2lah0s xl56j7k x6s0dn4 xozqiw3 x1q0g3np xi112ho x17zwfj4 x585lrc x1403ito x972fbf xcfux6l x1qhh985 xm0m39n x9f619 xn6708d x1ye3gou x1qhmfi1 x1r1pt67\"><div class=\"x6s0dn4 x78zum5 xl56j7k x1608yet xljgi0e x1e0frkt\" style=\"border: 1px solid red;\"><div class=\"x9f619 x1n2onr6 x1ja2u2z x193iq5w xeuugli x6s0dn4 x78zum5 x2lah0s x1fbi1t2 xl8fo4v\"><i data-visualcompletion=\"css-img\" class=\"x1b0d499 xep6ejk\" style=\"background-image: url(&quot;https://static.xx.fbcdn.net/rsrc.php/v3/y0/r/01lDCkDq6LW.png&quot;); background-position: 0px -628px; background-size: auto; width: 16px; height: 16px; background-repeat: no-repeat; display: inline-block;\"></i></div><div class=\"x9f619 x1n2onr6 x1ja2u2z x193iq5w xeuugli x6s0dn4 x78zum5 x2lah0s x1fbi1t2 xl8fo4v\"><span class=\"x193iq5w xeuugli x13faqbe x1vvkbs x10flsy6 x1lliihq x1s928wv xhkezso x1gmr53x x1cpjm7i x1fgarty x1943h6x x4zkp8e x41vudc x6prxxf xvq8zen x1s688f x1dem4cn\" dir=\"auto\"><span class=\"x1lliihq x6ikm8r x10wlt62 x1n2onr6 xlyipyv xuxw1ft\">Find Tickets</span></span></div></div><div class=\"x1o1ewxj x3x9cwd x1e5q0jg x13rtm0m x1ey2m1c xds687c xg01cxk x47corl x10l6tqk x17qophe x13vifvy x1ebt8du x19991ni x1dhq9h\" data-visualcompletion=\"ignore\"></div></div></a></div></div></div></div></div><div class=\"x1yztbdb\"><div class=\"x78zum5 x1n2onr6 xh8yej3\"><div style=\"border-radius: max(0px, min(8px, -999900% - 39996px + 999900vw)) / 8px;\" class=\"x9f619 x1n2onr6 x1ja2u2z x2bj2ny x1qpq9i9 xdney7k xu5ydu1 xt3gfkd xh8yej3 x6ikm8r x10wlt62 xquyuld\"><div class=\"x1l90r2v\"><div class=\"x1i10hfl xjbqb8w x6umtig x1b1mbwd xaqea5y xav7gou x9f619 x1ypdohk xt0psk2 xe8uvvx xdj266r x11i5rnm xat24cr x1mh8g0r xexx8yu x4uap5 x18d9i69 xkhd6sd x16tdsg8 x1hl2dhg xggy1nq x1o1ewxj x3x9cwd x1e5q0jg x13rtm0m x1n2onr6 x87ps6o x1lku1pv x1a2a7pz\" role=\"button\" tabindex=\"0\"><div class=\"x1n2onr6 xqtp20y x6ikm8r x10wlt62\" style=\"padding-top: calc(75%);\"><div class=\" x10l6tqk x17qophe x13vifvy\" style=\"background-image: url(&quot;https://external-frt3-2.xx.fbcdn.net/static_map.php?v=2035&amp;theme=default&amp;ccb=4-4&amp;size=400x300&amp;language=en_US&amp;scale=1&amp;zoom=15&amp;marker_list[0]=50.066886223021%2C8.2475402866517&amp;_nc_client_id=events_location&amp;_nc_client_caller=CometStaticMap.react&quot;); background-repeat: no-repeat; background-size: 100% 100%; height: 100%; width: 100%;\"></div><div class=\"x71s49j x10l6tqk x70y0r9 xmbx2d0\" style=\"border: 1px solid red;\"><div aria-haspopup=\"menu\" aria-label=\"View Map Info\" class=\"x1i10hfl x1qjc9v5 xjqpnuy xa49m3k xqeqjp1 x2hbi6w x9f619 x1ypdohk xdl72j9 x2lah0s xe8uvvx x2lwn1j xeuugli x16tdsg8 x1hl2dhg xggy1nq x1ja2u2z x1t137rt x1o1ewxj x3x9cwd x1e5q0jg x13rtm0m x1q0g3np x87ps6o x1lku1pv x1a2a7pz xjyslct xjbqb8w x13fuv20 xu3j5b3 x1q0q8m5 x26u7qi x972fbf xcfux6l x1qhh985 xm0m39n x3nfvp2 xdj266r x11i5rnm xat24cr x1mh8g0r xexx8yu x4uap5 x18d9i69 xkhd6sd x1n2onr6 x3ajldb x194ut8o x1vzenxt xd7ygy7 xt298gk x1xhcax0 x1s928wv x10pfhc2 x1j6awrg x1v53gu8 x1tfg27r xitxdhh\" role=\"button\" tabindex=\"0\"><i data-visualcompletion=\"css-img\" class=\"x1b0d499 xuo83w3\" style=\"background-image: url(&quot;https://static.xx.fbcdn.net/rsrc.php/v3/yv/r/QMJupk-s46B.png&quot;); background-position: 0px -1556px; background-size: auto; width: 16px; height: 16px; background-repeat: no-repeat; display: inline-block;\"></i><div class=\"x1ey2m1c xds687c xg01cxk x47corl x10l6tqk x17qophe x13vifvy x1ebt8du x19991ni x1dhq9h x14yjl9h xudhj91 x18nykt9 xww2gxu\" data-visualcompletion=\"ignore\"></div></div></div></div><div class=\"x1o1ewxj x3x9cwd x1e5q0jg x13rtm0m x1ey2m1c xds687c xg01cxk x47corl x10l6tqk x17qophe x13vifvy x1ebt8du x19991ni x1dhq9h\" data-visualcompletion=\"ignore\"></div></div><div class=\" xlup9mm\"></div><div class=\" x1oo3vh0 x1rdy4ex\" role=\"list\"><div data-visualcompletion=\"ignore-dynamic\" role=\"listitem\" style=\"padding-left: 8px; padding-right: 8px;\"><a class=\"x1i10hfl x1qjc9v5 xjbqb8w xjqpnuy xa49m3k xqeqjp1 x2hbi6w x13fuv20 xu3j5b3 x1q0q8m5 x26u7qi x972fbf xcfux6l x1qhh985 xm0m39n x9f619 x1ypdohk xdl72j9 x2lah0s xe8uvvx xdj266r x11i5rnm xat24cr x1mh8g0r x2lwn1j xeuugli xexx8yu x4uap5 x18d9i69 xkhd6sd x1n2onr6 x16tdsg8 x1hl2dhg xggy1nq x1ja2u2z x1t137rt x1q0g3np x87ps6o x1lku1pv x1a2a7pz x1lq5wgf xgqcy7u x30kzoy x9jhf4c x1lliihq\" href=\"https://facebook.com/SchlachthofWiesbaden\" role=\"link\" tabindex=\"0\"><div class=\"x6s0dn4 x1q0q8m5 x1qhh985 xu3j5b3 xcfux6l x26u7qi xm0m39n x13fuv20 x972fbf x9f619 x78zum5 x1q0g3np x1iyjqo2 xs83m0k x1qughib xat24cr x11i5rnm x1mh8g0r xdj266r xeuugli x18d9i69 x1sxyh0 xurb0ha xexx8yu x1n2onr6 x1ja2u2z x1gg8mnh\"><div class=\"x6s0dn4 xkh2ocl x1q0q8m5 x1qhh985 xu3j5b3 xcfux6l x26u7qi xm0m39n x13fuv20 x972fbf x9f619 x78zum5 x1q0g3np x1iyjqo2 xs83m0k x1qughib xat24cr x11i5rnm x1mh8g0r xdj266r x2lwn1j xeuugli x18d9i69 x4uap5 xkhd6sd xexx8yu x1n2onr6 x1ja2u2z\"><div class=\"x1q0q8m5 x1qhh985 xu3j5b3 xcfux6l x26u7qi xm0m39n x13fuv20 x972fbf x9f619 x78zum5 x1r8uery x1iyjqo2 xs83m0k x1qughib x11i5rnm x1mh8g0r x2lwn1j xeuugli x4uap5 xkhd6sd x1n2onr6 x1ja2u2z x1qjc9v5 xdt5ytf xat24cr xdj266r xz9dl7a xsag5q8\"><div class=\"\"><div class=\"x78zum5 xdt5ytf xz62fqu x16ldp7u\"><div class=\"xu06os2 x1ok221b\"><span class=\"x193iq5w xeuugli x13faqbe x1vvkbs x10flsy6 x1lliihq x1s928wv xhkezso x1gmr53x x1cpjm7i x1fgarty x1943h6x x1tu3fi x3x7a5m x1lkfr7t x1lbecb7 x1s688f xzsf02u x1yc453h\" dir=\"auto\"><span class=\"x1lliihq x6ikm8r x10wlt62 x1n2onr6\" style=\"-moz-box-orient: vertical; -webkit-line-clamp: 4; display: -webkit-box;\"><span class=\"xt0psk2\"><span>Schlachthof Wiesbaden</span></span></span></span></div><div class=\"xu06os2 x1ok221b\"><span class=\"x193iq5w xeuugli x13faqbe x1vvkbs x10flsy6 x1lliihq x1s928wv xhkezso x1gmr53x x1cpjm7i x1fgarty x1943h6x x4zkp8e x41vudc x6prxxf xvq8zen xo1l8bm xi81zsa x1yc453h\" dir=\"auto\">Murnaustr. 1, Wiesbaden</span></div></div></div></div></div></div><div class=\"x1o1ewxj x3x9cwd x1e5q0jg x13rtm0m x1ey2m1c xds687c xg01cxk x47corl x10l6tqk x17qophe x13vifvy x1ebt8du x19991ni x1dhq9h\" data-visualcompletion=\"ignore\"></div></a></div></div><div class=\" xdk7pt\"></div><div class=\"x1pi30zi x1swvt13\"><div class=\" xlup9mm\"></div><span class=\"x193iq5w xeuugli x13faqbe x1vvkbs x10flsy6 x1lliihq x1s928wv xhkezso x1gmr53x x1cpjm7i x1fgarty x1943h6x x4zkp8e x41vudc x6prxxf xvq8zen xo1l8bm xzsf02u\" dir=\"auto\"><div class=\"x11i5rnm xat24cr x1mh8g0r x1vvkbs xdj266r\">seit 1994 kollektiv und unabhängig. Gegen Diskriminierung, Sexismus, Rassismus, Antisemitismus und</div></span></div></div></div></div></div><div class=\"x1yztbdb\"><div class=\"x78zum5 x1n2onr6 xh8yej3\"><div style=\"border-radius: max(0px, min(8px, -999900% - 39996px + 999900vw)) / 8px;\" class=\"x9f619 x1n2onr6 x1ja2u2z x2bj2ny x1qpq9i9 xdney7k xu5ydu1 xt3gfkd xh8yej3 x6ikm8r x10wlt62 xquyuld\"><div class=\"x1l90r2v xyamay9\"><div class=\"x13fuv20 x26u7qi xu3j5b3 x1q0q8m5 x972fbf xm0m39n xcfux6l x1qhh985 x9f619 x78zum5 x1iyjqo2 xs83m0k xdj266r x11i5rnm xat24cr x1mh8g0r x2lwn1j xeuugli x1n2onr6 x1ja2u2z xuk3077 x1q0g3np x1qughib x1iorvi4 x1pi30zi x1l90r2v x1swvt13\"><div class=\"x78zum5 xdt5ytf x4cne27 xifccgj\"><div class=\"xzueoph x1k70j0n\"><h2 class=\"x1heor9g x1qlqyl8 x1pd3egz x1a2a7pz x193iq5w xeuugli\" dir=\"auto\"><span class=\"x193iq5w xeuugli x13faqbe x1vvkbs x10flsy6 x1lliihq x1s928wv xhkezso x1gmr53x x1cpjm7i x1fgarty x1943h6x x4zkp8e x41vudc x1603h9y x1u7k74 x1xlr1w8 xzsf02u x1yc453h\" dir=\"auto\" style=\"\">Guests</span></h2></div></div><div class=\"x1i10hfl xjbqb8w x6umtig x1b1mbwd xaqea5y xav7gou x9f619 x1ypdohk xt0psk2 xe8uvvx xdj266r x11i5rnm xat24cr x1mh8g0r xexx8yu x4uap5 x18d9i69 xkhd6sd x16tdsg8 x1hl2dhg xggy1nq x1a2a7pz x1heor9g xt0b8zv\" role=\"button\" tabindex=\"0\"><span class=\"x193iq5w xeuugli x13faqbe x1vvkbs x10flsy6 x1lliihq x1s928wv xhkezso x1gmr53x x1cpjm7i x1fgarty x1943h6x x4zkp8e x41vudc x6prxxf xvq8zen xo1l8bm x1fey0fg\" dir=\"auto\">See All</span></div></div><div class=\"x1pi30zi x1swvt13\"><div class=\"x9f619 x1n2onr6 x1ja2u2z x78zum5 x2lah0s x1qughib x1qjc9v5 xozqiw3 x1q0g3np xexx8yu\"><div class=\"x9f619 x1n2onr6 x1ja2u2z x78zum5 xdt5ytf x193iq5w xeuugli x1r8uery x1iyjqo2 xs83m0k\"><div class=\"x1i10hfl xjbqb8w x6umtig x1b1mbwd xaqea5y xav7gou x9f619 x1ypdohk xt0psk2 xe8uvvx xdj266r x11i5rnm xat24cr x1mh8g0r xexx8yu x4uap5 x18d9i69 xkhd6sd x16tdsg8 x1hl2dhg xggy1nq x1o1ewxj x3x9cwd x1e5q0jg x13rtm0m x1n2onr6 x87ps6o x1lku1pv x1a2a7pz\" role=\"button\" tabindex=\"0\"><div class=\"x6s0dn4 x78zum5 xdt5ytf x1l90r2v x1sxyh0 xurb0ha xyamay9\"><span class=\"x193iq5w xeuugli x13faqbe x1vvkbs x10flsy6 x1lliihq x1s928wv xhkezso x1gmr53x x1cpjm7i x1fgarty x1943h6x x4zkp8e x41vudc x1603h9y x1u7k74 x1xlr1w8 xzsf02u x2b8uid\" dir=\"auto\">110</span><div class=\"xdk7pt\"></div><span class=\"x193iq5w xeuugli x13faqbe x1vvkbs x10flsy6 x1lliihq x1s928wv xhkezso x1gmr53x x1cpjm7i x1fgarty x1943h6x x1tu3fi x3x7a5m x1nxh6w3 x1sibtaa x1s688f xi81zsa x2b8uid\" dir=\"auto\">GOING</span></div><div class=\"x1o1ewxj x3x9cwd x1e5q0jg x13rtm0m x1ey2m1c xds687c xg01cxk x47corl x10l6tqk x17qophe x13vifvy x1ebt8du x19991ni x1dhq9h\" data-visualcompletion=\"ignore\"></div></div></div><div class=\"x9f619 x1n2onr6 x1ja2u2z x78zum5 xdt5ytf x193iq5w xeuugli x1r8uery x1iyjqo2 xs83m0k\"><div class=\"x1i10hfl xjbqb8w x6umtig x1b1mbwd xaqea5y xav7gou x9f619 x1ypdohk xt0psk2 xe8uvvx xdj266r x11i5rnm xat24cr x1mh8g0r xexx8yu x4uap5 x18d9i69 xkhd6sd x16tdsg8 x1hl2dhg xggy1nq x1o1ewxj x3x9cwd x1e5q0jg x13rtm0m x1n2onr6 x87ps6o x1lku1pv x1a2a7pz\" role=\"button\" tabindex=\"0\"><div class=\"x6s0dn4 x78zum5 xdt5ytf x1l90r2v x1sxyh0 xurb0ha xyamay9\"><span class=\"x193iq5w xeuugli x13faqbe x1vvkbs x10flsy6 x1lliihq x1s928wv xhkezso x1gmr53x x1cpjm7i x1fgarty x1943h6x x4zkp8e x41vudc x1603h9y x1u7k74 x1xlr1w8 xzsf02u x2b8uid\" dir=\"auto\">361</span><div class=\"xdk7pt\"></div><span class=\"x193iq5w xeuugli x13faqbe x1vvkbs x10flsy6 x1lliihq x1s928wv xhkezso x1gmr53x x1cpjm7i x1fgarty x1943h6x x1tu3fi x3x7a5m x1nxh6w3 x1sibtaa x1s688f xi81zsa x2b8uid\" dir=\"auto\">INTERESTED</span></div><div class=\"x1o1ewxj x3x9cwd x1e5q0jg x13rtm0m x1ey2m1c xds687c xg01cxk x47corl x10l6tqk x17qophe x13vifvy x1ebt8du x19991ni x1dhq9h\" data-visualcompletion=\"ignore\"></div></div></div></div></div></div></div></div></div><footer aria-label=\"Facebook\" role=\"contentinfo\"><span class=\"x193iq5w xeuugli x13faqbe x1vvkbs x10flsy6 x1lliihq x1s928wv xhkezso x1gmr53x x1cpjm7i x1fgarty x1943h6x x1tu3fi x3x7a5m x1nxh6w3 x1sibtaa xo1l8bm xi81zsa\" dir=\"auto\"><ul class=\"xt0psk2\"><li class=\"xt0psk2\"><a class=\"x1i10hfl xjbqb8w x6umtig x1b1mbwd xaqea5y xav7gou x9f619 x1ypdohk xt0psk2 xe8uvvx xdj266r x11i5rnm xat24cr x1mh8g0r xexx8yu x4uap5 x18d9i69 xkhd6sd x16tdsg8 x1hl2dhg xggy1nq x1a2a7pz xt0b8zv xi81zsa xo1l8bm\" href=\"/privacy/explanation/\" role=\"link\" tabindex=\"0\">Privacy</a><span><span class=\"xzpqnlu xjm9jq1 x6ikm8r x10wlt62 x10l6tqk x1i1rx1s\">&nbsp;</span><span aria-hidden=\"true\"> · </span></span></li><li class=\"xt0psk2\"><a class=\"x1i10hfl xjbqb8w x6umtig x1b1mbwd xaqea5y xav7gou x9f619 x1ypdohk xt0psk2 xe8uvvx xdj266r x11i5rnm xat24cr x1mh8g0r xexx8yu x4uap5 x18d9i69 xkhd6sd x16tdsg8 x1hl2dhg xggy1nq x1a2a7pz xt0b8zv xi81zsa xo1l8bm\" href=\"/terms?ref=pf\" role=\"link\" tabindex=\"0\">Impressum/Terms/NetzDG/UrhDaG</a><span><span class=\"xzpqnlu xjm9jq1 x6ikm8r x10wlt62 x10l6tqk x1i1rx1s\">&nbsp;</span><span aria-hidden=\"true\"> · </span></span></li><li class=\"xt0psk2\"><a class=\"x1i10hfl xjbqb8w x6umtig x1b1mbwd xaqea5y xav7gou x9f619 x1ypdohk xt0psk2 xe8uvvx xdj266r x11i5rnm xat24cr x1mh8g0r xexx8yu x4uap5 x18d9i69 xkhd6sd x16tdsg8 x1hl2dhg xggy1nq x1a2a7pz xt0b8zv xi81zsa xo1l8bm\" href=\"/business/\" role=\"link\" tabindex=\"0\">Advertising</a><span><span class=\"xzpqnlu xjm9jq1 x6ikm8r x10wlt62 x10l6tqk x1i1rx1s\">&nbsp;</span><span aria-hidden=\"true\"> · </span></span></li><li class=\"xt0psk2\"><a class=\"x1i10hfl xjbqb8w x6umtig x1b1mbwd xaqea5y xav7gou x9f619 x1ypdohk xt0psk2 xe8uvvx xdj266r x11i5rnm xat24cr x1mh8g0r xexx8yu x4uap5 x18d9i69 xkhd6sd x16tdsg8 x1hl2dhg xggy1nq x1a2a7pz xt0b8zv xi81zsa xo1l8bm\" href=\"/help/568137493302217\" role=\"link\" tabindex=\"0\" style=\"border: 1px solid red;\">Ad Choices <span class=\"x1n2onr6 x1qiirwl\"><i data-visualcompletion=\"css-img\" class=\"x1b0d499 x1d69dk1\" style=\"background-image: url(&quot;https://static.xx.fbcdn.net/rsrc.php/v3/yI/r/PZYo-Qx6hO6.png&quot;); background-position: -149px -147px; background-size: auto; width: 12px; height: 12px; background-repeat: no-repeat; display: inline-block;\"></i></span></a><span><span class=\"xzpqnlu xjm9jq1 x6ikm8r x10wlt62 x10l6tqk x1i1rx1s\">&nbsp;</span><span aria-hidden=\"true\"> · </span></span></li><li class=\"xt0psk2\"><a class=\"x1i10hfl xjbqb8w x6umtig x1b1mbwd xaqea5y xav7gou x9f619 x1ypdohk xt0psk2 xe8uvvx xdj266r x11i5rnm xat24cr x1mh8g0r xexx8yu x4uap5 x18d9i69 xkhd6sd x16tdsg8 x1hl2dhg xggy1nq x1a2a7pz xt0b8zv xi81zsa xo1l8bm\" href=\"/policies/cookies/\" role=\"link\" tabindex=\"0\">Cookies</a><span><span class=\"xzpqnlu xjm9jq1 x6ikm8r x10wlt62 x10l6tqk x1i1rx1s\">&nbsp;</span><span aria-hidden=\"true\"> · </span></span></li><li class=\"xt0psk2\"><div aria-expanded=\"false\" aria-haspopup=\"menu\" class=\"x1i10hfl xjbqb8w x6umtig x1b1mbwd xaqea5y xav7gou x9f619 x1ypdohk xt0psk2 xe8uvvx xdj266r x11i5rnm xat24cr x1mh8g0r xexx8yu x4uap5 x18d9i69 xkhd6sd x16tdsg8 x1hl2dhg xggy1nq x1o1ewxj x3x9cwd x1e5q0jg x13rtm0m x1n2onr6 x87ps6o x1lku1pv x1a2a7pz\" role=\"button\" tabindex=\"0\">More</div><span><span class=\"xzpqnlu xjm9jq1 x6ikm8r x10wlt62 x10l6tqk x1i1rx1s\">&nbsp;</span><span aria-hidden=\"true\"> · </span></span></li></ul>Meta © 2022</span></footer></div></div></div></div></div></div></div></div></div>",
 "href": "https://www.facebook.com/events/3239841529621432",
 "update": 6,
 "randomUUID": "kyah5uqa17pv5as1hju1h",
 "clientTime": "2022-11-28T17:07:34+01:00",
 "type": "liberated"
}